非线性物理/数据处理/origindata/20000101_035117.csv

Channel              :,CH1,CH2
Frequency            :,2.554KHz,2.554KHz
Period               :,0.392ms,0.392ms
PK-PK                :,10.11V,500.5mV
Average              :,-8.914mV,-8.079mV
Vertical pos         :,360.000000mV,0.000000mV
Probe attenuation    :,1X,1X
Voltage per ADC value:,5.000000mV,0.250000mV
Time interval        :,1.00000uS,1.00000uS

index,CH1_Voltage(mV),CH2_Voltage(mV)
1,0.000000,0.000000
2,-2705.000000,143.250000
3,-2645.000000,141.250000
4,-2580.000000,138.750000
5,-2530.000000,135.250000
6,-2480.000000,135.250000
7,-2425.000000,129.250000
8,-2360.000000,123.250000
9,-2315.000000,122.750000
10,-2265.000000,123.750000
11,-2190.000000,121.750000
12,-2130.000000,119.250000
13,-2055.000000,115.250000
14,-2000.000000,113.750000
15,-1935.000000,112.250000
16,-1860.000000,106.750000
17,-1805.000000,107.750000
18,-1720.000000,105.250000
19,-1645.000000,103.250000
20,-1605.000000,96.250000
21,-1540.000000,96.250000
22,-1470.000000,94.750000
23,-1395.000000,87.750000
24,-1335.000000,81.750000
25,-1265.000000,83.250000
26,-1205.000000,78.750000
27,-1135.000000,78.250000
28,-1050.000000,74.750000
29,-995.000000,68.250000
30,-915.000000,65.250000
31,-840.000000,61.750000
32,-770.000000,59.750000
33,-705.000000,55.750000
34,-615.000000,55.250000
35,-550.000000,47.750000
36,-485.000000,44.250000
37,-400.000000,46.750000
38,-330.000000,43.250000
39,-260.000000,34.250000
40,-190.000000,33.750000
41,-95.000000,34.750000
42,-35.000000,29.750000
43,40.000000,22.250000
44,105.000000,19.750000
45,195.000000,17.750000
46,275.000000,15.250000
47,355.000000,9.750000
48,420.000000,8.750000
49,510.000000,3.250000
50,575.000000,3.750000
51,635.000000,-0.750000
52,720.000000,-4.750000
53,780.000000,-11.750000
54,845.000000,-8.250000
55,940.000000,-12.250000
56,1005.000000,-19.250000
57,1070.000000,-22.250000
58,1155.000000,-23.250000
59,1215.000000,-28.250000
60,1290.000000,-32.750000
61,1370.000000,-34.750000
62,1450.000000,-35.250000
63,1500.000000,-42.250000
64,1580.000000,-44.250000
65,1650.000000,-44.750000
66,1720.000000,-51.750000
67,1790.000000,-53.250000
68,1870.000000,-55.250000
69,1940.000000,-59.250000
70,2005.000000,-62.250000
71,2050.000000,-64.750000
72,2130.000000,-70.750000
73,2200.000000,-69.750000
74,2265.000000,-75.250000
75,2335.000000,-80.750000
76,2395.000000,-82.750000
77,2445.000000,-80.750000
78,2525.000000,-86.750000
79,2590.000000,-93.250000
80,2650.000000,-91.750000
81,2710.000000,-95.250000
82,2780.000000,-99.250000
83,2850.000000,-98.250000
84,2900.000000,-106.750000
85,2970.000000,-107.250000
86,3020.000000,-106.250000
87,3070.000000,-110.750000
88,3130.000000,-117.250000
89,3185.000000,-115.750000
90,3225.000000,-114.250000
91,3300.000000,-123.750000
92,3345.000000,-121.250000
93,3385.000000,-122.750000
94,3460.000000,-128.750000
95,3480.000000,-131.750000
96,3555.000000,-128.250000
97,3595.000000,-134.250000
98,3645.000000,-138.250000
99,3700.000000,-138.750000
100,3755.000000,-140.750000
101,3770.000000,-142.250000
102,3815.000000,-142.250000
103,3870.000000,-141.750000
104,3895.000000,-150.250000
105,3945.000000,-150.250000
106,3985.000000,-148.750000
107,4020.000000,-154.250000
108,4055.000000,-156.250000
109,4110.000000,-155.250000
110,4135.000000,-158.250000
111,4160.000000,-159.250000
112,4190.000000,-158.250000
113,4245.000000,-164.250000
114,4265.000000,-166.250000
115,4290.000000,-162.750000
116,4325.000000,-166.250000
117,4345.000000,-165.750000
118,4370.000000,-165.250000
119,4395.000000,-169.250000
120,4415.000000,-170.250000
121,4440.000000,-170.250000
122,4465.000000,-172.750000
123,4485.000000,-173.750000
124,4510.000000,-174.750000
125,4540.000000,-175.250000
126,4535.000000,-173.750000
127,4540.000000,-180.250000
128,4555.000000,-178.750000
129,4580.000000,-181.250000
130,4600.000000,-181.250000
131,4605.000000,-176.250000
132,4600.000000,-180.750000
133,4620.000000,-181.750000
134,4630.000000,-178.750000
135,4635.000000,-180.250000
136,4610.000000,-180.750000
137,4615.000000,-179.750000
138,4630.000000,-179.750000
139,4605.000000,-173.250000
140,4615.000000,-180.250000
141,4630.000000,-172.250000
142,4630.000000,-178.750000
143,4615.000000,-178.250000
144,4590.000000,-178.750000
145,4595.000000,-184.750000
146,4575.000000,-180.750000
147,4580.000000,-176.750000
148,4545.000000,-180.250000
149,4545.000000,-178.250000
150,4535.000000,-178.250000
151,4535.000000,-177.750000
152,4490.000000,-177.250000
153,4465.000000,-174.750000
154,4460.000000,-174.750000
155,4445.000000,-171.750000
156,4400.000000,-173.250000
157,4405.000000,-172.250000
158,4360.000000,-168.250000
159,4330.000000,-167.750000
160,4315.000000,-169.250000
161,4295.000000,-165.750000
162,4265.000000,-162.750000
163,4240.000000,-168.750000
164,4200.000000,-160.750000
165,4155.000000,-160.750000
166,4115.000000,-164.250000
167,4080.000000,-157.750000
168,4050.000000,-157.750000
169,4015.000000,-156.250000
170,3970.000000,-155.250000
171,3930.000000,-148.250000
172,3885.000000,-149.750000
173,3845.000000,-149.250000
174,3790.000000,-142.750000
175,3765.000000,-140.750000
176,3685.000000,-145.250000
177,3660.000000,-140.250000
178,3605.000000,-134.250000
179,3570.000000,-137.250000
180,3510.000000,-133.250000
181,3450.000000,-132.250000
182,3400.000000,-126.750000
183,3350.000000,-130.250000
184,3310.000000,-124.250000
185,3235.000000,-123.250000
186,3175.000000,-116.750000
187,3120.000000,-118.250000
188,3060.000000,-119.250000
189,3000.000000,-112.250000
190,2930.000000,-109.250000
191,2855.000000,-106.250000
192,2800.000000,-103.750000
193,2740.000000,-101.750000
194,2680.000000,-96.750000
195,2590.000000,-94.750000
196,2535.000000,-92.750000
197,2475.000000,-87.250000
198,2395.000000,-87.750000
199,2335.000000,-84.750000
200,2250.000000,-79.250000
201,2200.000000,-79.750000
202,2105.000000,-69.750000
203,2055.000000,-69.750000
204,1965.000000,-68.750000
205,1890.000000,-64.250000
206,1800.000000,-62.250000
207,1750.000000,-58.250000
208,1655.000000,-54.250000
209,1575.000000,-56.250000
210,1490.000000,-47.750000
211,1410.000000,-45.750000
212,1340.000000,-38.250000
213,1260.000000,-36.750000
214,1180.000000,-33.250000
215,1070.000000,-30.250000
216,1010.000000,-25.250000
217,930.000000,-23.250000
218,855.000000,-18.750000
219,750.000000,-15.750000
220,685.000000,-9.250000
221,595.000000,-12.750000
222,505.000000,-5.250000
223,405.000000,2.750000
224,325.000000,1.750000
225,245.000000,6.250000
226,155.000000,15.750000
227,50.000000,17.750000
228,-15.000000,18.750000
229,-125.000000,27.250000
230,-210.000000,28.250000
231,-290.000000,27.750000
232,-375.000000,37.750000
233,-470.000000,40.750000
234,-595.000000,42.250000
235,-640.000000,47.250000
236,-750.000000,51.250000
237,-850.000000,54.250000
238,-920.000000,60.250000
239,-1035.000000,64.250000
240,-1125.000000,64.250000
241,-1205.000000,69.250000
242,-1285.000000,77.250000
243,-1390.000000,82.250000
244,-1490.000000,84.250000
245,-1560.000000,89.250000
246,-1670.000000,92.750000
247,-1730.000000,98.750000
248,-1825.000000,102.250000
249,-1910.000000,105.250000
250,-2020.000000,108.750000
251,-2100.000000,112.750000
252,-2195.000000,117.750000
253,-2295.000000,120.250000
254,-2385.000000,124.750000
255,-2485.000000,133.250000
256,-2550.000000,129.250000
257,-2645.000000,138.250000
258,-2735.000000,142.750000
259,-2845.000000,141.250000
260,-2925.000000,149.750000
261,-3005.000000,153.750000
262,-3110.000000,157.750000
263,-3185.000000,158.250000
264,-3275.000000,164.750000
265,-3360.000000,165.250000
266,-3460.000000,171.250000
267,-3520.000000,179.750000
268,-3630.000000,178.250000
269,-3705.000000,181.250000
270,-3770.000000,179.750000
271,-3835.000000,166.750000
272,-3915.000000,153.250000
273,-3940.000000,148.250000
274,-3975.000000,128.750000
275,-4010.000000,133.750000
276,-4015.000000,133.250000
277,-4060.000000,127.250000
278,-4085.000000,122.750000
279,-4090.000000,121.750000
280,-4090.000000,119.750000
281,-4100.000000,120.750000
282,-4090.000000,121.250000
283,-4095.000000,116.250000
284,-4095.000000,119.750000
285,-4090.000000,117.250000
286,-4090.000000,114.750000
287,-4125.000000,117.250000
288,-4105.000000,117.250000
289,-4080.000000,116.250000
290,-4110.000000,118.750000
291,-4130.000000,116.250000
292,-4105.000000,116.250000
293,-4115.000000,115.750000
294,-4105.000000,117.250000
295,-4100.000000,116.750000
296,-4100.000000,123.750000
297,-4090.000000,118.750000
298,-4075.000000,120.250000
299,-4090.000000,118.750000
300,-4095.000000,119.750000
301,-4075.000000,126.250000
302,-4080.000000,122.250000
303,-4075.000000,121.750000
304,-4055.000000,125.750000
305,-4060.000000,121.250000
306,-4075.000000,123.250000
307,-4070.000000,127.250000
308,-4050.000000,128.250000
309,-4040.000000,126.750000
310,-4040.000000,130.750000
311,-4040.000000,130.250000
312,-4015.000000,130.750000
313,-4030.000000,136.750000
314,-4025.000000,134.750000
315,-4025.000000,135.250000
316,-4020.000000,135.250000
317,-4000.000000,135.750000
318,-4005.000000,138.250000
319,-3990.000000,139.250000
320,-3995.000000,140.750000
321,-3965.000000,140.750000
322,-3960.000000,143.750000
323,-3975.000000,145.250000
324,-3970.000000,142.750000
325,-3945.000000,149.250000
326,-3945.000000,149.250000
327,-3945.000000,144.250000
328,-3935.000000,153.750000
329,-3910.000000,153.250000
330,-3905.000000,152.750000
331,-3905.000000,156.750000
332,-3890.000000,156.250000
333,-3895.000000,157.750000
334,-3880.000000,157.750000
335,-3875.000000,159.750000
336,-3870.000000,161.750000
337,-3855.000000,163.250000
338,-3855.000000,167.750000
339,-3835.000000,164.250000
340,-3840.000000,168.750000
341,-3820.000000,173.750000
342,-3830.000000,176.750000
343,-3795.000000,174.250000
344,-3795.000000,172.250000
345,-3810.000000,174.750000
346,-3790.000000,174.250000
347,-3810.000000,179.250000
348,-3780.000000,183.750000
349,-3770.000000,183.250000
350,-3740.000000,184.750000
351,-3740.000000,188.750000
352,-3725.000000,189.750000
353,-3730.000000,192.250000
354,-3720.000000,198.250000
355,-3715.000000,194.750000
356,-3700.000000,196.750000
357,-3690.000000,195.250000
358,-3690.000000,198.750000
359,-3675.000000,198.250000
360,-3685.000000,198.750000
361,-3650.000000,185.250000
362,-3630.000000,184.750000
363,-3605.000000,185.250000
364,-3565.000000,184.750000
365,-3545.000000,178.750000
366,-3505.000000,178.750000
367,-3495.000000,177.250000
368,-3455.000000,179.250000
369,-3425.000000,177.250000
370,-3380.000000,174.250000
371,-3365.000000,170.750000
372,-3295.000000,174.750000
373,-3265.000000,170.250000
374,-3240.000000,166.250000
375,-3180.000000,165.250000
376,-3125.000000,162.250000
377,-3110.000000,160.250000
378,-3040.000000,161.250000
379,-3000.000000,157.250000
380,-2960.000000,154.750000
381,-2915.000000,154.250000
382,-2860.000000,152.250000
383,-2800.000000,146.250000
384,-2750.000000,146.750000
385,-2695.000000,145.250000
386,-2650.000000,141.750000
387,-2570.000000,140.750000
388,-2515.000000,138.250000
389,-2465.000000,134.250000
390,-2405.000000,130.750000
391,-2340.000000,130.750000
392,-2300.000000,127.750000
393,-2230.000000,124.250000
394,-2155.000000,122.250000
395,-2110.000000,116.250000
396,-2015.000000,114.250000
397,-1970.000000,119.250000
398,-1920.000000,109.750000
399,-1845.000000,108.250000
400,-1770.000000,104.250000
401,-1705.000000,101.750000
402,-1640.000000,98.250000
403,-1570.000000,96.250000
404,-1500.000000,93.750000
405,-1430.000000,91.750000
406,-1365.000000,87.750000
407,-1290.000000,82.250000
408,-1210.000000,82.250000
409,-1135.000000,74.750000
410,-1070.000000,74.750000
411,-1000.000000,69.750000
412,-900.000000,65.750000
413,-855.000000,61.750000
414,-775.000000,60.250000
415,-715.000000,58.250000
416,-615.000000,51.750000
417,-535.000000,50.250000
418,-470.000000,47.250000
419,-370.000000,43.750000
420,-310.000000,38.750000
421,-240.000000,35.750000
422,-155.000000,34.750000
423,-90.000000,29.250000
424,-5.000000,27.750000
425,85.000000,23.250000
426,170.000000,23.250000
427,245.000000,15.750000
428,310.000000,12.750000
429,385.000000,10.250000
430,440.000000,2.750000
431,550.000000,0.250000
432,625.000000,0.750000
433,690.000000,-4.750000
434,790.000000,-8.750000
435,850.000000,-11.750000
436,930.000000,-14.750000
437,1005.000000,-16.250000
438,1085.000000,-20.250000
439,1160.000000,-26.250000
440,1240.000000,-29.750000
441,1315.000000,-30.750000
442,1405.000000,-33.250000
443,1475.000000,-38.750000
444,1525.000000,-40.250000
445,1610.000000,-46.750000
446,1700.000000,-49.250000
447,1775.000000,-52.750000
448,1835.000000,-55.750000
449,1905.000000,-58.250000
450,2005.000000,-60.750000
451,2065.000000,-66.250000
452,2145.000000,-69.750000
453,2195.000000,-72.250000
454,2285.000000,-74.750000
455,2345.000000,-80.750000
456,2425.000000,-79.750000
457,2485.000000,-82.250000
458,2580.000000,-89.750000
459,2615.000000,-88.750000
460,2690.000000,-93.750000
461,2755.000000,-96.750000
462,2845.000000,-96.250000
463,2885.000000,-102.750000
464,2950.000000,-105.250000
465,3010.000000,-111.250000
466,3080.000000,-110.750000
467,3135.000000,-113.750000
468,3235.000000,-116.250000
469,3275.000000,-116.250000
470,3315.000000,-121.750000
471,3395.000000,-121.250000
472,3440.000000,-129.750000
473,3510.000000,-124.250000
474,3560.000000,-133.250000
475,3610.000000,-141.250000
476,3675.000000,-135.750000
477,3720.000000,-139.750000
478,3780.000000,-142.250000
479,3830.000000,-140.250000
480,3875.000000,-144.250000
481,3925.000000,-150.750000
482,3975.000000,-149.250000
483,4040.000000,-151.750000
484,4080.000000,-152.750000
485,4110.000000,-162.250000
486,4175.000000,-157.750000
487,4210.000000,-162.750000
488,4240.000000,-164.250000
489,4290.000000,-164.250000
490,4335.000000,-167.750000
491,4345.000000,-167.250000
492,4405.000000,-168.750000
493,4445.000000,-172.250000
494,4470.000000,-175.250000
495,4510.000000,-173.750000
496,4550.000000,-176.750000
497,4590.000000,-180.750000
498,4610.000000,-177.750000
499,4630.000000,-178.750000
500,4655.000000,-178.250000
501,4690.000000,-180.750000
502,4720.000000,-184.750000
503,4735.000000,-184.250000
504,4770.000000,-189.750000
505,4805.000000,-191.250000
506,4840.000000,-194.750000
507,4845.000000,-194.250000
508,4880.000000,-196.250000
509,4885.000000,-196.750000
510,4915.000000,-202.250000
511,4945.000000,-203.250000
512,4955.000000,-205.250000
513,4985.000000,-206.750000
514,5005.000000,-205.750000
515,5020.000000,-211.750000
516,5030.000000,-214.750000
517,5040.000000,-212.750000
518,5080.000000,-216.250000
519,5085.000000,-217.750000
520,5110.000000,-217.250000
521,5125.000000,-221.250000
522,5135.000000,-221.750000
523,5180.000000,-224.750000
524,5160.000000,-225.250000
525,5180.000000,-225.250000
526,5195.000000,-228.750000
527,5225.000000,-228.750000
528,5205.000000,-226.750000
529,5225.000000,-229.250000
530,5245.000000,-230.750000
531,5225.000000,-232.250000
532,5235.000000,-233.250000
533,5225.000000,-228.250000
534,5240.000000,-228.750000
535,5230.000000,-235.250000
536,5260.000000,-234.750000
537,5235.000000,-229.250000
538,5225.000000,-234.250000
539,5225.000000,-234.750000
540,5225.000000,-221.750000
541,5220.000000,-234.250000
542,5210.000000,-232.250000
543,5195.000000,-222.750000
544,5185.000000,-226.750000
545,5160.000000,-231.250000
546,5155.000000,-224.250000
547,5125.000000,-224.250000
548,5095.000000,-221.750000
549,5110.000000,-219.250000
550,5065.000000,-219.250000
551,5020.000000,-216.250000
552,4980.000000,-215.250000
553,4975.000000,-211.750000
554,4930.000000,-207.250000
555,4880.000000,-205.750000
556,4840.000000,-204.250000
557,4820.000000,-196.750000
558,4765.000000,-195.250000
559,4720.000000,-189.750000
560,4665.000000,-186.250000
561,4620.000000,-183.250000
562,4560.000000,-181.750000
563,4510.000000,-178.750000
564,4450.000000,-173.750000
565,4380.000000,-175.750000
566,4335.000000,-173.750000
567,4275.000000,-177.250000
568,4210.000000,-166.250000
569,4140.000000,-163.250000
570,4080.000000,-163.250000
571,4035.000000,-158.250000
572,3945.000000,-156.250000
573,3910.000000,-147.250000
574,3825.000000,-148.750000
575,3770.000000,-147.250000
576,3695.000000,-141.750000
577,3645.000000,-138.250000
578,3575.000000,-142.250000
579,3480.000000,-134.750000
580,3430.000000,-130.750000
581,3340.000000,-133.250000
582,3265.000000,-124.750000
583,3180.000000,-119.750000
584,3135.000000,-116.250000
585,3040.000000,-117.250000
586,2955.000000,-112.750000
587,2895.000000,-106.250000
588,2795.000000,-103.750000
589,2725.000000,-100.250000
590,2650.000000,-96.250000
591,2560.000000,-90.750000
592,2485.000000,-92.250000
593,2410.000000,-87.250000
594,2310.000000,-81.750000
595,2235.000000,-79.750000
596,2140.000000,-76.750000
597,2065.000000,-72.750000
598,1990.000000,-66.750000
599,1880.000000,-66.250000
600,1790.000000,-60.750000
601,1705.000000,-59.750000
602,1620.000000,-54.250000
603,1510.000000,-47.750000
604,1430.000000,-47.250000
605,1365.000000,-39.750000
606,1260.000000,-38.250000
607,1180.000000,-35.750000
608,1090.000000,-29.250000
609,1005.000000,-24.250000
610,895.000000,-20.250000
611,805.000000,-13.750000
612,725.000000,-13.250000
613,620.000000,-7.750000
614,540.000000,-0.750000
615,435.000000,0.750000
616,335.000000,5.250000
617,240.000000,10.250000
618,150.000000,18.250000
619,60.000000,16.750000
620,-45.000000,36.750000
621,-135.000000,23.250000
622,-250.000000,30.750000
623,-320.000000,30.750000
624,-425.000000,37.750000
625,-515.000000,42.250000
626,-605.000000,45.250000
627,-710.000000,52.750000
628,-810.000000,55.250000
629,-915.000000,59.250000
630,-1015.000000,63.250000
631,-1115.000000,66.750000
632,-1190.000000,73.250000
633,-1270.000000,73.250000
634,-1380.000000,80.250000
635,-1470.000000,83.250000
636,-1580.000000,86.750000
637,-1665.000000,92.750000
638,-1775.000000,99.750000
639,-1870.000000,98.750000
640,-1970.000000,105.250000
641,-2065.000000,109.750000
642,-2160.000000,111.250000
643,-2245.000000,119.750000
644,-2355.000000,122.250000
645,-2445.000000,127.250000
646,-2540.000000,128.250000
647,-2625.000000,137.750000
648,-2725.000000,140.750000
649,-2820.000000,143.750000
650,-2885.000000,150.750000
651,-2980.000000,153.250000
652,-3085.000000,152.250000
653,-3165.000000,158.250000
654,-3260.000000,167.250000
655,-3365.000000,164.250000
656,-3460.000000,168.250000
657,-3545.000000,175.750000
658,-3630.000000,179.250000
659,-3730.000000,180.750000
660,-3785.000000,180.750000
661,-3875.000000,162.750000
662,-3935.000000,152.750000
663,-3965.000000,142.750000
664,-3995.000000,138.250000
665,-4035.000000,130.250000
666,-4045.000000,123.750000
667,-4080.000000,126.250000
668,-4075.000000,118.750000
669,-4090.000000,116.750000
670,-4100.000000,116.750000
671,-4110.000000,114.250000
672,-4110.000000,110.750000
673,-4125.000000,112.750000
674,-4130.000000,113.750000
675,-4125.000000,106.750000
676,-4135.000000,111.250000
677,-4120.000000,113.250000
678,-4120.000000,112.750000
679,-4105.000000,111.750000
680,-4100.000000,114.750000
681,-4125.000000,114.250000
682,-4135.000000,112.250000
683,-4130.000000,114.250000
684,-4115.000000,116.750000
685,-4110.000000,114.250000
686,-4110.000000,118.750000
687,-4105.000000,116.750000
688,-4105.000000,116.250000
689,-4090.000000,118.750000
690,-4085.000000,119.250000
691,-4100.000000,118.750000
692,-4080.000000,119.750000
693,-4075.000000,121.750000
694,-4075.000000,125.750000
695,-4065.000000,122.250000
696,-4075.000000,124.250000
697,-4035.000000,127.750000
698,-4060.000000,124.250000
699,-4050.000000,128.250000
700,-4045.000000,127.250000
701,-4025.000000,127.250000
702,-4030.000000,130.250000
703,-4025.000000,132.250000
704,-4010.000000,133.750000
705,-4015.000000,132.250000
706,-4005.000000,137.750000
707,-4015.000000,139.750000
708,-4005.000000,135.750000
709,-3990.000000,141.250000
710,-3965.000000,143.750000
711,-3980.000000,142.250000
712,-3965.000000,142.750000
713,-3965.000000,148.750000
714,-3940.000000,144.250000
715,-3940.000000,146.750000
716,-3940.000000,148.250000
717,-3930.000000,148.250000
