实验2_同轴电缆/data/4_2.csv

X,CH1,CH2,Start,Increment,
Sequence,Volt,Volt,-6.920000e-08,2.000000e-10,
0,0.000000e+00,0.000000e+00,
1,0.000000e+00,0.000000e+00,
2,0.000000e+00,0.000000e+00,
3,0.000000e+00,0.000000e+00,
4,0.000000e+00,0.000000e+00,
5,0.000000e+00,0.000000e+00,
6,0.000000e+00,0.000000e+00,
7,0.000000e+00,0.000000e+00,
8,0.000000e+00,0.000000e+00,
9,0.000000e+00,0.000000e+00,
10,0.000000e+00,8.000000e-02,
11,0.000000e+00,0.000000e+00,
12,0.000000e+00,0.000000e+00,
13,0.000000e+00,0.000000e+00,
14,0.000000e+00,0.000000e+00,
15,0.000000e+00,0.000000e+00,
16,0.000000e+00,0.000000e+00,
17,0.000000e+00,8.000000e-02,
18,0.000000e+00,8.000000e-02,
19,0.000000e+00,8.000000e-02,
20,0.000000e+00,8.000000e-02,
21,0.000000e+00,8.000000e-02,
22,0.000000e+00,8.000000e-02,
23,0.000000e+00,8.000000e-02,
24,0.000000e+00,8.000000e-02,
25,0.000000e+00,8.000000e-02,
26,0.000000e+00,0.000000e+00,
27,0.000000e+00,0.000000e+00,
28,0.000000e+00,0.000000e+00,
29,0.000000e+00,0.000000e+00,
30,0.000000e+00,0.000000e+00,
31,0.000000e+00,0.000000e+00,
32,0.000000e+00,8.000000e-02,
33,0.000000e+00,8.000000e-02,
34,0.000000e+00,8.000000e-02,
35,0.000000e+00,1.600000e-01,
36,0.000000e+00,8.000000e-02,
37,0.000000e+00,8.000000e-02,
38,0.000000e+00,8.000000e-02,
39,0.000000e+00,0.000000e+00,
40,0.000000e+00,0.000000e+00,
41,0.000000e+00,0.000000e+00,
42,0.000000e+00,0.000000e+00,
43,0.000000e+00,8.000000e-02,
44,0.000000e+00,8.000000e-02,
45,0.000000e+00,8.000000e-02,
46,0.000000e+00,8.000000e-02,
47,0.000000e+00,8.000000e-02,
48,0.000000e+00,8.000000e-02,
49,0.000000e+00,8.000000e-02,
50,0.000000e+00,8.000000e-02,
51,0.000000e+00,0.000000e+00,
52,0.000000e+00,0.000000e+00,
53,0.000000e+00,0.000000e+00,
54,0.000000e+00,0.000000e+00,
55,0.000000e+00,0.000000e+00,
56,0.000000e+00,0.000000e+00,
57,0.000000e+00,8.000000e-02,
58,0.000000e+00,0.000000e+00,
59,0.000000e+00,0.000000e+00,
60,0.000000e+00,0.000000e+00,
61,0.000000e+00,0.000000e+00,
62,0.000000e+00,0.000000e+00,
63,0.000000e+00,0.000000e+00,
64,0.000000e+00,0.000000e+00,
65,0.000000e+00,0.000000e+00,
66,0.000000e+00,0.000000e+00,
67,0.000000e+00,0.000000e+00,
68,0.000000e+00,0.000000e+00,
69,0.000000e+00,0.000000e+00,
70,0.000000e+00,0.000000e+00,
71,0.000000e+00,0.000000e+00,
72,0.000000e+00,0.000000e+00,
73,-8.000000e-02,0.000000e+00,
74,-8.000000e-02,0.000000e+00,
75,0.000000e+00,8.000000e-02,
76,0.000000e+00,0.000000e+00,
77,0.000000e+00,0.000000e+00,
78,0.000000e+00,0.000000e+00,
79,0.000000e+00,0.000000e+00,
80,8.000000e-02,0.000000e+00,
81,8.000000e-02,0.000000e+00,
82,8.000000e-02,8.000000e-02,
83,0.000000e+00,8.000000e-02,
84,0.000000e+00,8.000000e-02,
85,0.000000e+00,8.000000e-02,
86,0.000000e+00,8.000000e-02,
87,0.000000e+00,8.000000e-02,
88,-8.000000e-02,8.000000e-02,
89,-8.000000e-02,8.000000e-02,
90,0.000000e+00,8.000000e-02,
91,0.000000e+00,0.000000e+00,
92,0.000000e+00,0.000000e+00,
93,0.000000e+00,0.000000e+00,
94,0.000000e+00,0.000000e+00,
95,0.000000e+00,0.000000e+00,
96,0.000000e+00,0.000000e+00,
97,0.000000e+00,8.000000e-02,
98,0.000000e+00,0.000000e+00,
99,0.000000e+00,0.000000e+00,
100,0.000000e+00,0.000000e+00,
101,0.000000e+00,0.000000e+00,
102,0.000000e+00,0.000000e+00,
103,0.000000e+00,0.000000e+00,
104,0.000000e+00,0.000000e+00,
105,0.000000e+00,0.000000e+00,
106,0.000000e+00,0.000000e+00,
107,0.000000e+00,0.000000e+00,
108,0.000000e+00,0.000000e+00,
109,0.000000e+00,0.000000e+00,
110,0.000000e+00,8.000000e-02,
111,0.000000e+00,0.000000e+00,
112,0.000000e+00,0.000000e+00,
113,0.000000e+00,0.000000e+00,
114,0.000000e+00,0.000000e+00,
115,0.000000e+00,0.000000e+00,
116,0.000000e+00,0.000000e+00,
117,0.000000e+00,8.000000e-02,
118,0.000000e+00,8.000000e-02,
119,0.000000e+00,8.000000e-02,
120,0.000000e+00,8.000000e-02,
121,0.000000e+00,8.000000e-02,
122,0.000000e+00,8.000000e-02,
123,-8.000000e-02,8.000000e-02,
124,-8.000000e-02,8.000000e-02,
125,0.000000e+00,8.000000e-02,
126,0.000000e+00,0.000000e+00,
127,0.000000e+00,0.000000e+00,
128,0.000000e+00,0.000000e+00,
129,0.000000e+00,0.000000e+00,
130,8.000000e-02,0.000000e+00,
131,8.000000e-02,0.000000e+00,
132,8.000000e-02,8.000000e-02,
133,0.000000e+00,0.000000e+00,
134,0.000000e+00,0.000000e+00,
135,0.000000e+00,0.000000e+00,
136,0.000000e+00,0.000000e+00,
137,0.000000e+00,0.000000e+00,
138,-8.000000e-02,0.000000e+00,
139,-8.000000e-02,0.000000e+00,
140,0.000000e+00,0.000000e+00,
141,0.000000e+00,0.000000e+00,
142,0.000000e+00,0.000000e+00,
143,0.000000e+00,0.000000e+00,
144,0.000000e+00,0.000000e+00,
145,0.000000e+00,0.000000e+00,
146,0.000000e+00,0.000000e+00,
147,0.000000e+00,0.000000e+00,
148,0.000000e+00,0.000000e+00,
149,0.000000e+00,0.000000e+00,
150,0.000000e+00,8.000000e-02,
151,0.000000e+00,0.000000e+00,
152,0.000000e+00,0.000000e+00,
153,0.000000e+00,0.000000e+00,
154,0.000000e+00,0.000000e+00,
155,0.000000e+00,0.000000e+00,
156,0.000000e+00,0.000000e+00,
157,0.000000e+00,8.000000e-02,
158,0.000000e+00,8.000000e-02,
159,0.000000e+00,8.000000e-02,
160,0.000000e+00,8.000000e-02,
161,0.000000e+00,8.000000e-02,
162,0.000000e+00,8.000000e-02,
163,0.000000e+00,8.000000e-02,
164,0.000000e+00,8.000000e-02,
165,0.000000e+00,8.000000e-02,
166,0.000000e+00,0.000000e+00,
167,0.000000e+00,0.000000e+00,
168,0.000000e+00,0.000000e+00,
169,0.000000e+00,0.000000e+00,
170,0.000000e+00,0.000000e+00,
171,0.000000e+00,0.000000e+00,
172,0.000000e+00,8.000000e-02,
173,0.000000e+00,0.000000e+00,
174,0.000000e+00,0.000000e+00,
175,0.000000e+00,0.000000e+00,
176,0.000000e+00,0.000000e+00,
177,0.000000e+00,0.000000e+00,
178,0.000000e+00,0.000000e+00,
179,0.000000e+00,0.000000e+00,
180,0.000000e+00,0.000000e+00,
181,0.000000e+00,0.000000e+00,
182,0.000000e+00,0.000000e+00,
183,0.000000e+00,0.000000e+00,
184,0.000000e+00,0.000000e+00,
185,0.000000e+00,0.000000e+00,
186,0.000000e+00,0.000000e+00,
187,0.000000e+00,0.000000e+00,
188,0.000000e+00,0.000000e+00,
189,0.000000e+00,0.000000e+00,
190,0.000000e+00,0.000000e+00,
191,0.000000e+00,0.000000e+00,
192,0.000000e+00,0.000000e+00,
193,-8.000000e-02,0.000000e+00,
194,-8.000000e-02,0.000000e+00,
195,0.000000e+00,0.000000e+00,
196,0.000000e+00,0.000000e+00,
197,0.000000e+00,0.000000e+00,
198,0.000000e+00,0.000000e+00,
199,0.000000e+00,0.000000e+00,
200,8.000000e-02,0.000000e+00,
201,8.000000e-02,0.000000e+00,
202,8.000000e-02,0.000000e+00,
203,0.000000e+00,0.000000e+00,
204,0.000000e+00,0.000000e+00,
205,0.000000e+00,8.000000e-02,
206,0.000000e+00,0.000000e+00,
207,0.000000e+00,0.000000e+00,
208,-8.000000e-02,0.000000e+00,
209,-8.000000e-02,0.000000e+00,
210,0.000000e+00,0.000000e+00,
211,0.000000e+00,0.000000e+00,
212,0.000000e+00,8.000000e-02,
213,0.000000e+00,8.000000e-02,
214,0.000000e+00,8.000000e-02,
215,0.000000e+00,8.000000e-02,
216,0.000000e+00,8.000000e-02,
217,0.000000e+00,8.000000e-02,
218,-8.000000e-02,8.000000e-02,
219,-8.000000e-02,8.000000e-02,
220,0.000000e+00,0.000000e+00,
221,0.000000e+00,0.000000e+00,
222,0.000000e+00,0.000000e+00,
223,0.000000e+00,8.000000e-02,
224,0.000000e+00,8.000000e-02,
225,8.000000e-02,8.000000e-02,
226,8.000000e-02,8.000000e-02,
227,8.000000e-02,8.000000e-02,
228,0.000000e+00,8.000000e-02,
229,0.000000e+00,8.000000e-02,
230,0.000000e+00,8.000000e-02,
231,0.000000e+00,0.000000e+00,
232,0.000000e+00,0.000000e+00,
233,-8.000000e-02,0.000000e+00,
234,-8.000000e-02,0.000000e+00,
235,0.000000e+00,0.000000e+00,
236,0.000000e+00,0.000000e+00,
237,0.000000e+00,8.000000e-02,
238,0.000000e+00,0.000000e+00,
239,0.000000e+00,0.000000e+00,
240,0.000000e+00,8.000000e-02,
241,0.000000e+00,0.000000e+00,
242,0.000000e+00,0.000000e+00,
243,0.000000e+00,0.000000e+00,
244,0.000000e+00,0.000000e+00,
245,0.000000e+00,0.000000e+00,
246,0.000000e+00,0.000000e+00,
247,0.000000e+00,8.000000e-02,
248,0.000000e+00,8.000000e-02,
249,0.000000e+00,8.000000e-02,
250,0.000000e+00,8.000000e-02,
251,0.000000e+00,8.000000e-02,
252,0.000000e+00,1.600000e-01,
253,0.000000e+00,8.000000e-02,
254,0.000000e+00,8.000000e-02,
255,0.000000e+00,1.600000e-01,
256,0.000000e+00,8.000000e-02,
257,0.000000e+00,8.000000e-02,
258,0.000000e+00,8.000000e-02,
259,0.000000e+00,8.000000e-02,
260,0.000000e+00,8.000000e-02,
261,0.000000e+00,0.000000e+00,
262,0.000000e+00,0.000000e+00,
263,-8.000000e-02,0.000000e+00,
264,-8.000000e-02,0.000000e+00,
265,0.000000e+00,0.000000e+00,
266,0.000000e+00,0.000000e+00,
267,0.000000e+00,8.000000e-02,
268,0.000000e+00,8.000000e-02,
269,0.000000e+00,8.000000e-02,
270,8.000000e-02,8.000000e-02,
271,8.000000e-02,8.000000e-02,
272,8.000000e-02,8.000000e-02,
273,0.000000e+00,8.000000e-02,
274,0.000000e+00,8.000000e-02,
275,0.000000e+00,8.000000e-02,
276,0.000000e+00,0.000000e+00,
277,0.000000e+00,0.000000e+00,
278,-8.000000e-02,0.000000e+00,
279,-8.000000e-02,0.000000e+00,
280,0.000000e+00,0.000000e+00,
281,0.000000e+00,0.000000e+00,
282,0.000000e+00,8.000000e-02,
283,0.000000e+00,0.000000e+00,
284,0.000000e+00,0.000000e+00,
285,0.000000e+00,0.000000e+00,
286,0.000000e+00,0.000000e+00,
287,0.000000e+00,0.000000e+00,
288,0.000000e+00,0.000000e+00,
289,0.000000e+00,0.000000e+00,
290,0.000000e+00,0.000000e+00,
291,0.000000e+00,0.000000e+00,
292,0.000000e+00,0.000000e+00,
293,0.000000e+00,0.000000e+00,
294,0.000000e+00,0.000000e+00,
295,0.000000e+00,0.000000e+00,
296,0.000000e+00,0.000000e+00,
297,0.000000e+00,0.000000e+00,
298,0.000000e+00,0.000000e+00,
299,0.000000e+00,0.000000e+00,
300,0.000000e+00,0.000000e+00,
301,0.000000e+00,0.000000e+00,
302,0.000000e+00,0.000000e+00,
303,-8.000000e-02,0.000000e+00,
304,-8.000000e-02,0.000000e+00,
305,0.000000e+00,8.000000e-02,
306,0.000000e+00,0.000000e+00,
307,0.000000e+00,0.000000e+00,
308,-8.000000e-02,0.000000e+00,
309,-8.000000e-02,0.000000e+00,
310,0.000000e+00,0.000000e+00,
311,0.000000e+00,0.000000e+00,
312,0.000000e+00,8.000000e-02,
313,-8.000000e-02,8.000000e-02,
314,-8.000000e-02,8.000000e-02,
315,0.000000e+00,8.000000e-02,
316,8.000000e-02,8.000000e-02,
317,8.000000e-02,8.000000e-02,
318,8.000000e-02,8.000000e-02,
319,1.600000e-01,8.000000e-02,
320,3.200000e-01,8.000000e-02,
321,4.800000e-01,0.000000e+00,
322,5.600000e-01,0.000000e+00,
323,6.400000e-01,0.000000e+00,
324,7.200000e-01,0.000000e+00,
325,9.600000e-01,0.000000e+00,
326,1.200000e+00,0.000000e+00,
327,1.360000e+00,8.000000e-02,
328,1.520000e+00,0.000000e+00,
329,1.760000e+00,0.000000e+00,
330,2.080000e+00,0.000000e+00,
331,2.400000e+00,0.000000e+00,
332,2.720000e+00,0.000000e+00,
333,2.880000e+00,0.000000e+00,
334,3.200000e+00,0.000000e+00,
335,3.520000e+00,0.000000e+00,
336,3.760000e+00,0.000000e+00,
337,4.080000e+00,0.000000e+00,
338,4.240000e+00,0.000000e+00,
339,4.480000e+00,0.000000e+00,
340,4.800000e+00,0.000000e+00,
341,4.960000e+00,0.000000e+00,
342,5.200000e+00,0.000000e+00,
343,5.360000e+00,0.000000e+00,
344,5.520000e+00,0.000000e+00,
345,5.680000e+00,0.000000e+00,
346,5.680000e+00,0.000000e+00,
347,5.840000e+00,0.000000e+00,
348,5.840000e+00,0.000000e+00,
349,5.840000e+00,0.000000e+00,
350,5.920000e+00,0.000000e+00,
351,5.840000e+00,0.000000e+00,
352,5.920000e+00,0.000000e+00,
353,5.920000e+00,0.000000e+00,
354,5.920000e+00,0.000000e+00,
355,6.000000e+00,8.000000e-02,
356,5.920000e+00,0.000000e+00,
357,6.000000e+00,0.000000e+00,
358,5.920000e+00,0.000000e+00,
359,5.920000e+00,0.000000e+00,
360,6.000000e+00,0.000000e+00,
361,5.920000e+00,0.000000e+00,
362,5.920000e+00,8.000000e-02,
363,5.920000e+00,8.000000e-02,
364,5.840000e+00,8.000000e-02,
365,5.920000e+00,8.000000e-02,
366,5.840000e+00,8.000000e-02,
367,5.760000e+00,8.000000e-02,
368,5.680000e+00,8.000000e-02,
369,5.600000e+00,8.000000e-02,
370,5.600000e+00,8.000000e-02,
371,5.520000e+00,0.000000e+00,
372,5.440000e+00,0.000000e+00,
373,5.360000e+00,0.000000e+00,
374,5.360000e+00,0.000000e+00,
375,5.360000e+00,0.000000e+00,
376,5.280000e+00,0.000000e+00,
377,5.200000e+00,8.000000e-02,
378,5.120000e+00,0.000000e+00,
379,5.040000e+00,0.000000e+00,
380,5.040000e+00,0.000000e+00,
381,5.040000e+00,0.000000e+00,
382,5.040000e+00,0.000000e+00,
383,4.960000e+00,0.000000e+00,
384,4.960000e+00,0.000000e+00,
385,5.040000e+00,0.000000e+00,
386,5.040000e+00,0.000000e+00,
387,5.040000e+00,0.000000e+00,
388,4.960000e+00,0.000000e+00,
389,4.880000e+00,0.000000e+00,
390,4.880000e+00,0.000000e+00,
391,4.880000e+00,0.000000e+00,
392,4.880000e+00,0.000000e+00,
393,4.720000e+00,0.000000e+00,
394,4.720000e+00,0.000000e+00,
395,4.720000e+00,8.000000e-02,
396,4.720000e+00,0.000000e+00,
397,4.720000e+00,0.000000e+00,
398,4.560000e+00,0.000000e+00,
399,4.560000e+00,0.000000e+00,
400,4.640000e+00,0.000000e+00,
401,4.640000e+00,0.000000e+00,
402,4.640000e+00,8.000000e-02,
403,4.640000e+00,8.000000e-02,
404,4.720000e+00,8.000000e-02,
405,4.800000e+00,8.000000e-02,
406,4.800000e+00,8.000000e-02,
407,4.800000e+00,8.000000e-02,
408,4.720000e+00,8.000000e-02,
409,4.720000e+00,8.000000e-02,
410,4.720000e+00,8.000000e-02,
411,4.720000e+00,0.000000e+00,
412,4.720000e+00,0.000000e+00,
413,4.640000e+00,0.000000e+00,
414,4.720000e+00,0.000000e+00,
415,4.800000e+00,0.000000e+00,
416,4.800000e+00,0.000000e+00,
417,4.800000e+00,8.000000e-02,
418,4.720000e+00,0.000000e+00,
419,4.720000e+00,0.000000e+00,
420,4.800000e+00,0.000000e+00,
421,4.800000e+00,0.000000e+00,
422,4.800000e+00,0.000000e+00,
423,4.800000e+00,0.000000e+00,
424,4.800000e+00,0.000000e+00,
425,4.960000e+00,0.000000e+00,
426,4.960000e+00,0.000000e+00,
427,4.960000e+00,0.000000e+00,
428,4.960000e+00,0.000000e+00,
429,4.960000e+00,0.000000e+00,
430,4.960000e+00,8.000000e-02,
431,4.960000e+00,0.000000e+00,
432,4.960000e+00,0.000000e+00,
433,4.880000e+00,0.000000e+00,
434,4.880000e+00,0.000000e+00,
435,4.960000e+00,0.000000e+00,
436,4.960000e+00,0.000000e+00,
437,4.960000e+00,8.000000e-02,
438,4.880000e+00,8.000000e-02,
439,4.880000e+00,8.000000e-02,
440,4.960000e+00,8.000000e-02,
441,4.960000e+00,8.000000e-02,
442,4.960000e+00,8.000000e-02,
443,4.960000e+00,8.000000e-02,
444,4.960000e+00,8.000000e-02,
445,5.040000e+00,8.000000e-02,
446,5.040000e+00,0.000000e+00,
447,5.040000e+00,0.000000e+00,
448,4.960000e+00,0.000000e+00,
449,4.960000e+00,0.000000e+00,
450,4.960000e+00,0.000000e+00,
451,4.960000e+00,0.000000e+00,
452,4.960000e+00,0.000000e+00,
453,4.880000e+00,0.000000e+00,
454,4.880000e+00,0.000000e+00,
455,4.960000e+00,0.000000e+00,
456,4.960000e+00,0.000000e+00,
457,4.960000e+00,8.000000e-02,
458,4.880000e+00,8.000000e-02,
459,4.880000e+00,8.000000e-02,
460,4.960000e+00,8.000000e-02,
461,4.960000e+00,8.000000e-02,
462,4.960000e+00,8.000000e-02,
463,4.960000e+00,8.000000e-02,
464,4.960000e+00,8.000000e-02,
465,5.040000e+00,8.000000e-02,
466,5.040000e+00,0.000000e+00,
467,5.040000e+00,0.000000e+00,
468,4.960000e+00,0.000000e+00,
469,4.960000e+00,0.000000e+00,
470,5.040000e+00,0.000000e+00,
471,5.040000e+00,0.000000e+00,
472,5.040000e+00,8.000000e-02,
473,4.960000e+00,0.000000e+00,
474,5.040000e+00,0.000000e+00,
475,5.040000e+00,0.000000e+00,
476,5.040000e+00,0.000000e+00,
477,5.040000e+00,0.000000e+00,
478,4.960000e+00,0.000000e+00,
479,4.880000e+00,0.000000e+00,
480,4.960000e+00,0.000000e+00,
481,4.960000e+00,0.000000e+00,
482,4.960000e+00,0.000000e+00,
483,4.960000e+00,0.000000e+00,
484,4.960000e+00,0.000000e+00,
485,5.040000e+00,0.000000e+00,
486,5.040000e+00,0.000000e+00,
487,5.040000e+00,0.000000e+00,
488,4.960000e+00,0.000000e+00,
489,4.880000e+00,0.000000e+00,
490,4.960000e+00,0.000000e+00,
491,4.960000e+00,0.000000e+00,
492,4.960000e+00,0.000000e+00,
493,4.960000e+00,0.000000e+00,
494,4.960000e+00,0.000000e+00,
495,5.040000e+00,8.000000e-02,
496,5.040000e+00,0.000000e+00,
497,5.040000e+00,0.000000e+00,
498,4.960000e+00,0.000000e+00,
499,4.880000e+00,0.000000e+00,
500,4.880000e+00,0.000000e+00,
501,4.880000e+00,0.000000e+00,
502,4.880000e+00,8.000000e-02,
503,4.880000e+00,8.000000e-02,
504,4.880000e+00,8.000000e-02,
505,5.040000e+00,8.000000e-02,
506,5.040000e+00,8.000000e-02,
507,5.040000e+00,8.000000e-02,
508,4.960000e+00,8.000000e-02,
509,4.960000e+00,8.000000e-02,
510,4.960000e+00,8.000000e-02,
511,4.960000e+00,0.000000e+00,
512,4.960000e+00,0.000000e+00,
513,4.880000e+00,0.000000e+00,
514,4.880000e+00,0.000000e+00,
515,4.960000e+00,0.000000e+00,
516,4.960000e+00,0.000000e+00,
517,4.960000e+00,0.000000e+00,
518,4.880000e+00,0.000000e+00,
519,4.880000e+00,0.000000e+00,
520,4.960000e+00,0.000000e+00,
521,4.960000e+00,0.000000e+00,
522,4.960000e+00,8.000000e-02,
523,4.960000e+00,8.000000e-02,
524,4.960000e+00,8.000000e-02,
525,5.040000e+00,8.000000e-02,
526,5.040000e+00,8.000000e-02,
527,5.040000e+00,8.000000e-02,
528,4.960000e+00,8.000000e-02,
529,4.960000e+00,8.000000e-02,
530,4.960000e+00,8.000000e-02,
531,4.960000e+00,0.000000e+00,
532,4.960000e+00,0.000000e+00,
533,4.960000e+00,0.000000e+00,
534,4.960000e+00,0.000000e+00,
535,5.040000e+00,0.000000e+00,
536,5.040000e+00,0.000000e+00,
537,5.040000e+00,8.000000e-02,
538,4.960000e+00,0.000000e+00,
539,4.960000e+00,0.000000e+00,
540,4.960000e+00,0.000000e+00,
541,4.960000e+00,0.000000e+00,
542,4.960000e+00,0.000000e+00,
543,4.960000e+00,0.000000e+00,
544,4.960000e+00,0.000000e+00,
545,5.040000e+00,0.000000e+00,
546,5.040000e+00,0.000000e+00,
547,5.040000e+00,0.000000e+00,
548,4.960000e+00,0.000000e+00,
549,4.960000e+00,0.000000e+00,
550,4.960000e+00,0.000000e+00,
551,4.960000e+00,0.000000e+00,
552,4.960000e+00,0.000000e+00,
553,4.960000e+00,0.000000e+00,
554,4.960000e+00,0.000000e+00,
555,5.040000e+00,0.000000e+00,
556,5.040000e+00,0.000000e+00,
557,5.040000e+00,0.000000e+00,
558,4.960000e+00,0.000000e+00,
559,4.960000e+00,0.000000e+00,
560,4.960000e+00,8.000000e-02,
561,4.960000e+00,0.000000e+00,
562,4.960000e+00,0.000000e+00,
563,4.960000e+00,0.000000e+00,
564,4.960000e+00,0.000000e+00,
565,5.040000e+00,0.000000e+00,
566,5.040000e+00,0.000000e+00,
567,5.040000e+00,8.000000e-02,
568,4.960000e+00,8.000000e-02,
569,4.960000e+00,8.000000e-02,
570,4.960000e+00,8.000000e-02,
571,4.960000e+00,8.000000e-02,
572,4.960000e+00,8.000000e-02,
573,4.880000e+00,8.000000e-02,
574,4.880000e+00,8.000000e-02,
575,4.960000e+00,8.000000e-02,
576,4.960000e+00,0.000000e+00,
577,4.960000e+00,0.000000e+00,
578,4.880000e+00,0.000000e+00,
579,4.880000e+00,0.000000e+00,
580,4.960000e+00,0.000000e+00,
581,4.960000e+00,0.000000e+00,
582,4.960000e+00,8.000000e-02,
583,4.960000e+00,0.000000e+00,
584,4.960000e+00,0.000000e+00,
585,5.040000e+00,8.000000e-02,
586,5.040000e+00,0.000000e+00,
587,5.040000e+00,0.000000e+00,
588,4.960000e+00,0.000000e+00,
589,4.960000e+00,0.000000e+00,
590,4.960000e+00,0.000000e+00,
591,4.960000e+00,0.000000e+00,
592,4.960000e+00,8.000000e-02,
593,4.960000e+00,8.000000e-02,
594,4.960000e+00,8.000000e-02,
595,5.040000e+00,8.000000e-02,
596,5.040000e+00,8.000000e-02,
597,5.040000e+00,8.000000e-02,
598,4.960000e+00,8.000000e-02,
599,4.960000e+00,8.000000e-02,
600,4.960000e+00,8.000000e-02,
601,4.960000e+00,0.000000e+00,
602,4.960000e+00,0.000000e+00,
603,4.880000e+00,0.000000e+00,
604,4.880000e+00,0.000000e+00,
605,4.960000e+00,0.000000e+00,
606,4.960000e+00,0.000000e+00,
607,4.960000e+00,8.000000e-02,
608,4.880000e+00,0.000000e+00,
609,4.880000e+00,0.000000e+00,
610,4.960000e+00,0.000000e+00,
611,4.960000e+00,0.000000e+00,
612,4.960000e+00,0.000000e+00,
613,4.960000e+00,0.000000e+00,
614,4.960000e+00,0.000000e+00,
615,5.040000e+00,0.000000e+00,
616,5.040000e+00,0.000000e+00,
617,5.040000e+00,0.000000e+00,
618,4.960000e+00,0.000000e+00,
619,4.960000e+00,0.000000e+00,
620,4.960000e+00,0.000000e+00,
621,4.960000e+00,0.000000e+00,
622,4.960000e+00,0.000000e+00,
623,4.960000e+00,0.000000e+00,
624,4.960000e+00,0.000000e+00,
625,5.040000e+00,0.000000e+00,
626,5.040000e+00,0.000000e+00,
627,5.040000e+00,0.000000e+00,
628,4.960000e+00,0.000000e+00,
629,4.960000e+00,0.000000e+00,
630,4.960000e+00,0.000000e+00,
631,4.960000e+00,0.000000e+00,
632,4.960000e+00,0.000000e+00,
633,4.960000e+00,0.000000e+00,
634,4.960000e+00,0.000000e+00,
635,5.040000e+00,0.000000e+00,
636,5.040000e+00,0.000000e+00,
637,5.040000e+00,0.000000e+00,
638,4.960000e+00,0.000000e+00,
639,4.960000e+00,0.000000e+00,
640,4.960000e+00,0.000000e+00,
641,4.960000e+00,0.000000e+00,
642,4.960000e+00,0.000000e+00,
643,4.960000e+00,0.000000e+00,
644,4.960000e+00,0.000000e+00,
