实验2_同轴电缆/data/xh4.csv

X,CH1,CH2,Start,Increment,
Sequence,Volt,Volt,-1.400000e-04,2.000000e-07,
0,0.000000e+00,-8.000000e-02,
1,-8.000000e-02,8.000000e-02,
2,0.000000e+00,-8.000000e-02,
3,-8.000000e-02,8.000000e-02,
4,0.000000e+00,0.000000e+00,
5,-8.000000e-02,-8.000000e-02,
6,0.000000e+00,-8.000000e-02,
7,-8.000000e-02,8.000000e-02,
8,-8.000000e-02,0.000000e+00,
9,8.000000e-02,-8.000000e-02,
10,0.000000e+00,-8.000000e-02,
11,-1.600000e-01,8.000000e-02,
12,8.000000e-02,-8.000000e-02,
13,-1.600000e-01,8.000000e-02,
14,0.000000e+00,0.000000e+00,
15,-1.600000e-01,-8.000000e-02,
16,0.000000e+00,-8.000000e-02,
17,-8.000000e-02,8.000000e-02,
18,0.000000e+00,0.000000e+00,
19,-1.600000e-01,-8.000000e-02,
20,0.000000e+00,0.000000e+00,
21,-8.000000e-02,-8.000000e-02,
22,0.000000e+00,0.000000e+00,
23,-8.000000e-02,-8.000000e-02,
24,8.000000e-02,0.000000e+00,
25,-1.600000e-01,-8.000000e-02,
26,0.000000e+00,0.000000e+00,
27,-8.000000e-02,-8.000000e-02,
28,-1.600000e-01,0.000000e+00,
29,8.000000e-02,-8.000000e-02,
30,0.000000e+00,0.000000e+00,
31,-1.600000e-01,-8.000000e-02,
32,0.000000e+00,0.000000e+00,
33,-8.000000e-02,-8.000000e-02,
34,8.000000e-02,0.000000e+00,
35,-1.600000e-01,-8.000000e-02,
36,0.000000e+00,0.000000e+00,
37,-1.600000e-01,-8.000000e-02,
38,0.000000e+00,0.000000e+00,
39,-8.000000e-02,-8.000000e-02,
40,-8.000000e-02,0.000000e+00,
41,0.000000e+00,-8.000000e-02,
42,0.000000e+00,-8.000000e-02,
43,-1.600000e-01,8.000000e-02,
44,0.000000e+00,0.000000e+00,
45,-8.000000e-02,-8.000000e-02,
46,0.000000e+00,0.000000e+00,
47,-8.000000e-02,-8.000000e-02,
48,0.000000e+00,0.000000e+00,
49,-1.600000e-01,-8.000000e-02,
50,0.000000e+00,0.000000e+00,
51,-1.600000e-01,-8.000000e-02,
52,0.000000e+00,0.000000e+00,
53,-1.600000e-01,-8.000000e-02,
54,0.000000e+00,0.000000e+00,
55,-1.600000e-01,-8.000000e-02,
56,0.000000e+00,0.000000e+00,
57,-1.600000e-01,-8.000000e-02,
58,0.000000e+00,0.000000e+00,
59,-1.600000e-01,-8.000000e-02,
60,0.000000e+00,-8.000000e-02,
61,-8.000000e-02,8.000000e-02,
62,0.000000e+00,-8.000000e-02,
63,-1.600000e-01,0.000000e+00,
64,0.000000e+00,0.000000e+00,
65,-1.600000e-01,-8.000000e-02,
66,0.000000e+00,0.000000e+00,
67,-1.600000e-01,-8.000000e-02,
68,0.000000e+00,0.000000e+00,
69,-1.600000e-01,-8.000000e-02,
70,0.000000e+00,0.000000e+00,
71,-8.000000e-02,-8.000000e-02,
72,0.000000e+00,0.000000e+00,
73,-1.600000e-01,-8.000000e-02,
74,0.000000e+00,0.000000e+00,
75,-1.600000e-01,-8.000000e-02,
76,0.000000e+00,0.000000e+00,
77,-1.600000e-01,-8.000000e-02,
78,0.000000e+00,0.000000e+00,
79,-1.600000e-01,-8.000000e-02,
80,0.000000e+00,0.000000e+00,
81,-1.600000e-01,-8.000000e-02,
82,0.000000e+00,0.000000e+00,
83,-1.600000e-01,-8.000000e-02,
84,0.000000e+00,0.000000e+00,
85,-1.600000e-01,-8.000000e-02,
86,0.000000e+00,-8.000000e-02,
87,-8.000000e-02,8.000000e-02,
88,0.000000e+00,0.000000e+00,
89,-1.600000e-01,-8.000000e-02,
90,0.000000e+00,-8.000000e-02,
91,-1.600000e-01,0.000000e+00,
92,8.000000e-02,0.000000e+00,
93,-1.600000e-01,-8.000000e-02,
94,0.000000e+00,0.000000e+00,
95,-1.600000e-01,-8.000000e-02,
96,0.000000e+00,0.000000e+00,
97,-1.600000e-01,-8.000000e-02,
98,0.000000e+00,0.000000e+00,
99,-1.600000e-01,-8.000000e-02,
100,0.000000e+00,0.000000e+00,
101,-1.600000e-01,-8.000000e-02,
102,0.000000e+00,0.000000e+00,
103,-1.600000e-01,-8.000000e-02,
104,0.000000e+00,-8.000000e-02,
105,-1.600000e-01,0.000000e+00,
106,0.000000e+00,0.000000e+00,
107,-1.600000e-01,-8.000000e-02,
108,0.000000e+00,0.000000e+00,
109,-1.600000e-01,-8.000000e-02,
110,0.000000e+00,0.000000e+00,
111,-1.600000e-01,-8.000000e-02,
112,-1.600000e-01,0.000000e+00,
113,0.000000e+00,-8.000000e-02,
114,0.000000e+00,-8.000000e-02,
115,-1.600000e-01,8.000000e-02,
116,0.000000e+00,-8.000000e-02,
117,-1.600000e-01,0.000000e+00,
118,0.000000e+00,0.000000e+00,
119,-1.600000e-01,-8.000000e-02,
120,0.000000e+00,-8.000000e-02,
121,-1.600000e-01,0.000000e+00,
122,0.000000e+00,0.000000e+00,
123,-1.600000e-01,-8.000000e-02,
124,0.000000e+00,0.000000e+00,
125,-1.600000e-01,-8.000000e-02,
126,0.000000e+00,0.000000e+00,
127,-1.600000e-01,-8.000000e-02,
128,0.000000e+00,0.000000e+00,
129,-1.600000e-01,-8.000000e-02,
130,0.000000e+00,0.000000e+00,
131,-1.600000e-01,-8.000000e-02,
132,0.000000e+00,0.000000e+00,
133,-1.600000e-01,-8.000000e-02,
134,0.000000e+00,0.000000e+00,
135,-1.600000e-01,-8.000000e-02,
136,0.000000e+00,0.000000e+00,
137,-1.600000e-01,-8.000000e-02,
138,0.000000e+00,0.000000e+00,
139,-1.600000e-01,-8.000000e-02,
140,0.000000e+00,0.000000e+00,
141,-1.600000e-01,-8.000000e-02,
142,0.000000e+00,0.000000e+00,
143,-1.600000e-01,-8.000000e-02,
144,0.000000e+00,-8.000000e-02,
145,-1.600000e-01,0.000000e+00,
146,0.000000e+00,-8.000000e-02,
147,-1.600000e-01,8.000000e-02,
148,0.000000e+00,0.000000e+00,
149,-1.600000e-01,-8.000000e-02,
150,0.000000e+00,0.000000e+00,
151,-1.600000e-01,-8.000000e-02,
152,0.000000e+00,0.000000e+00,
153,-1.600000e-01,-8.000000e-02,
154,0.000000e+00,-8.000000e-02,
155,-1.600000e-01,0.000000e+00,
156,0.000000e+00,0.000000e+00,
157,-1.600000e-01,-8.000000e-02,
158,0.000000e+00,0.000000e+00,
159,-1.600000e-01,-8.000000e-02,
160,0.000000e+00,0.000000e+00,
161,-1.600000e-01,-8.000000e-02,
162,0.000000e+00,0.000000e+00,
163,-1.600000e-01,-8.000000e-02,
164,0.000000e+00,0.000000e+00,
165,-1.600000e-01,-8.000000e-02,
166,0.000000e+00,0.000000e+00,
167,-1.600000e-01,-8.000000e-02,
168,0.000000e+00,0.000000e+00,
169,-1.600000e-01,-8.000000e-02,
170,0.000000e+00,0.000000e+00,
171,-1.600000e-01,-8.000000e-02,
172,0.000000e+00,-8.000000e-02,
173,-1.600000e-01,0.000000e+00,
174,0.000000e+00,0.000000e+00,
175,-1.600000e-01,-8.000000e-02,
176,0.000000e+00,0.000000e+00,
177,-1.600000e-01,-8.000000e-02,
178,0.000000e+00,0.000000e+00,
179,-1.600000e-01,-8.000000e-02,
180,0.000000e+00,0.000000e+00,
181,-1.600000e-01,-8.000000e-02,
182,0.000000e+00,0.000000e+00,
183,-8.000000e-02,-8.000000e-02,
184,0.000000e+00,-8.000000e-02,
185,-1.600000e-01,0.000000e+00,
186,0.000000e+00,0.000000e+00,
187,-1.600000e-01,-8.000000e-02,
188,0.000000e+00,0.000000e+00,
189,-1.600000e-01,-8.000000e-02,
190,8.000000e-02,-8.000000e-02,
191,-1.600000e-01,0.000000e+00,
192,0.000000e+00,0.000000e+00,
193,-8.000000e-02,-8.000000e-02,
194,0.000000e+00,0.000000e+00,
195,-1.600000e-01,-8.000000e-02,
196,0.000000e+00,0.000000e+00,
197,-8.000000e-02,-8.000000e-02,
198,0.000000e+00,0.000000e+00,
199,-1.600000e-01,-8.000000e-02,
200,-8.000000e-02,-8.000000e-02,
201,5.360000e+00,6.640000e+00,
202,5.520000e+00,6.640000e+00,
203,4.720000e+00,4.480000e+00,
204,4.880000e+00,5.200000e+00,
205,5.040000e+00,4.960000e+00,
206,4.880000e+00,4.960000e+00,
207,5.040000e+00,5.120000e+00,
208,4.880000e+00,5.040000e+00,
209,5.040000e+00,4.960000e+00,
210,4.880000e+00,4.960000e+00,
211,5.040000e+00,5.120000e+00,
212,4.880000e+00,4.960000e+00,
213,5.040000e+00,5.040000e+00,
214,4.880000e+00,5.040000e+00,
215,5.040000e+00,4.960000e+00,
216,4.880000e+00,4.960000e+00,
217,5.040000e+00,5.120000e+00,
218,4.880000e+00,5.040000e+00,
219,5.040000e+00,4.960000e+00,
220,5.040000e+00,5.040000e+00,
221,4.880000e+00,4.960000e+00,
222,4.880000e+00,5.120000e+00,
223,5.040000e+00,4.880000e+00,
224,4.880000e+00,4.960000e+00,
225,5.040000e+00,5.040000e+00,
226,5.040000e+00,4.960000e+00,
227,4.880000e+00,5.040000e+00,
228,5.040000e+00,4.960000e+00,
229,4.880000e+00,5.120000e+00,
230,5.040000e+00,4.960000e+00,
231,4.880000e+00,5.120000e+00,
232,5.040000e+00,4.960000e+00,
233,4.880000e+00,5.120000e+00,
234,5.040000e+00,4.960000e+00,
235,4.880000e+00,5.120000e+00,
236,5.040000e+00,5.040000e+00,
237,4.880000e+00,4.960000e+00,
238,5.040000e+00,5.040000e+00,
239,4.880000e+00,4.960000e+00,
240,5.040000e+00,4.960000e+00,
241,4.880000e+00,5.120000e+00,
242,4.880000e+00,4.960000e+00,
243,5.040000e+00,5.120000e+00,
244,5.040000e+00,4.960000e+00,
245,4.880000e+00,5.120000e+00,
246,5.040000e+00,4.960000e+00,
247,4.880000e+00,5.120000e+00,
248,5.040000e+00,4.960000e+00,
249,4.880000e+00,5.120000e+00,
250,5.040000e+00,4.960000e+00,
251,4.880000e+00,5.120000e+00,
252,5.040000e+00,4.960000e+00,
253,4.880000e+00,5.120000e+00,
254,5.040000e+00,5.120000e+00,
255,4.880000e+00,4.960000e+00,
256,5.040000e+00,4.960000e+00,
257,4.880000e+00,5.120000e+00,
258,5.040000e+00,5.120000e+00,
259,4.880000e+00,4.960000e+00,
260,5.040000e+00,5.120000e+00,
261,4.880000e+00,4.960000e+00,
262,5.040000e+00,5.120000e+00,
263,4.880000e+00,4.960000e+00,
264,5.040000e+00,4.960000e+00,
265,4.880000e+00,5.120000e+00,
266,5.040000e+00,5.120000e+00,
267,4.880000e+00,4.960000e+00,
268,4.880000e+00,5.120000e+00,
269,5.120000e+00,4.960000e+00,
270,5.040000e+00,5.120000e+00,
271,4.880000e+00,4.960000e+00,
272,5.120000e+00,4.960000e+00,
273,4.880000e+00,5.120000e+00,
274,5.120000e+00,5.120000e+00,
275,4.880000e+00,4.960000e+00,
276,5.040000e+00,5.120000e+00,
277,4.880000e+00,4.960000e+00,
278,4.880000e+00,5.120000e+00,
279,5.120000e+00,4.960000e+00,
280,5.040000e+00,5.120000e+00,
281,4.880000e+00,4.960000e+00,
282,4.880000e+00,5.120000e+00,
283,5.120000e+00,4.960000e+00,
284,5.040000e+00,5.120000e+00,
285,4.880000e+00,4.960000e+00,
286,5.040000e+00,5.120000e+00,
287,4.880000e+00,4.960000e+00,
288,5.040000e+00,5.120000e+00,
289,4.960000e+00,4.960000e+00,
290,5.040000e+00,5.120000e+00,
291,4.880000e+00,4.960000e+00,
292,5.040000e+00,5.120000e+00,
293,4.960000e+00,4.960000e+00,
294,5.040000e+00,5.120000e+00,
295,4.880000e+00,4.960000e+00,
296,5.040000e+00,5.120000e+00,
297,4.880000e+00,4.960000e+00,
298,5.040000e+00,5.120000e+00,
299,4.880000e+00,4.960000e+00,
300,4.880000e+00,4.960000e+00,
301,5.120000e+00,5.120000e+00,
302,5.040000e+00,4.960000e+00,
303,4.880000e+00,5.120000e+00,
304,5.040000e+00,5.120000e+00,
305,4.960000e+00,5.040000e+00,
306,5.040000e+00,5.120000e+00,
307,4.960000e+00,4.960000e+00,
308,4.880000e+00,5.120000e+00,
309,5.120000e+00,5.040000e+00,
310,4.960000e+00,5.120000e+00,
311,5.120000e+00,4.960000e+00,
312,5.040000e+00,5.120000e+00,
313,4.960000e+00,4.960000e+00,
314,4.960000e+00,5.120000e+00,
315,5.120000e+00,4.960000e+00,
316,5.040000e+00,4.960000e+00,
317,4.880000e+00,5.120000e+00,
318,4.880000e+00,5.120000e+00,
319,5.120000e+00,4.960000e+00,
320,5.040000e+00,5.120000e+00,
321,4.880000e+00,4.960000e+00,
322,5.040000e+00,5.040000e+00,
323,4.880000e+00,5.120000e+00,
324,5.040000e+00,5.120000e+00,
325,4.880000e+00,4.960000e+00,
326,5.040000e+00,5.120000e+00,
327,4.960000e+00,4.960000e+00,
328,5.120000e+00,5.120000e+00,
329,4.880000e+00,4.960000e+00,
330,4.960000e+00,5.120000e+00,
331,5.120000e+00,4.960000e+00,
332,5.040000e+00,5.120000e+00,
333,4.960000e+00,4.960000e+00,
334,5.040000e+00,5.040000e+00,
335,4.880000e+00,5.120000e+00,
336,5.120000e+00,5.120000e+00,
337,4.880000e+00,4.960000e+00,
338,5.040000e+00,4.960000e+00,
339,4.960000e+00,5.120000e+00,
340,4.880000e+00,5.040000e+00,
341,5.120000e+00,5.120000e+00,
342,4.960000e+00,5.120000e+00,
343,5.120000e+00,4.960000e+00,
344,4.960000e+00,5.120000e+00,
345,5.120000e+00,5.040000e+00,
346,4.880000e+00,5.040000e+00,
347,5.120000e+00,5.120000e+00,
348,4.960000e+00,5.040000e+00,
349,5.120000e+00,5.120000e+00,
350,5.040000e+00,5.040000e+00,
351,4.960000e+00,5.120000e+00,
352,4.880000e+00,5.120000e+00,
353,5.120000e+00,4.960000e+00,
354,4.880000e+00,5.120000e+00,
355,5.120000e+00,4.960000e+00,
356,4.960000e+00,5.120000e+00,
357,5.040000e+00,4.960000e+00,
358,5.040000e+00,5.120000e+00,
359,4.880000e+00,4.960000e+00,
360,5.040000e+00,5.120000e+00,
361,4.960000e+00,5.040000e+00,
362,5.040000e+00,5.040000e+00,
363,4.960000e+00,5.120000e+00,
364,4.960000e+00,5.040000e+00,
365,5.120000e+00,5.120000e+00,
366,5.040000e+00,5.120000e+00,
367,4.880000e+00,4.960000e+00,
368,5.120000e+00,5.120000e+00,
369,4.880000e+00,4.960000e+00,
370,4.960000e+00,5.040000e+00,
371,5.120000e+00,5.120000e+00,
372,5.040000e+00,5.120000e+00,
373,4.960000e+00,4.960000e+00,
374,5.040000e+00,5.040000e+00,
375,4.880000e+00,5.120000e+00,
376,4.960000e+00,5.120000e+00,
377,5.120000e+00,4.960000e+00,
378,5.040000e+00,5.120000e+00,
379,4.880000e+00,4.960000e+00,
380,4.960000e+00,5.120000e+00,
381,5.120000e+00,4.960000e+00,
382,4.880000e+00,4.960000e+00,
383,5.120000e+00,5.120000e+00,
384,4.880000e+00,5.120000e+00,
385,5.120000e+00,4.960000e+00,
386,5.040000e+00,5.120000e+00,
387,4.960000e+00,4.960000e+00,
388,5.040000e+00,5.040000e+00,
389,4.880000e+00,5.120000e+00,
390,4.880000e+00,5.120000e+00,
391,5.120000e+00,4.960000e+00,
392,4.960000e+00,5.120000e+00,
393,5.120000e+00,4.960000e+00,
394,5.120000e+00,5.120000e+00,
395,4.880000e+00,4.960000e+00,
396,4.880000e+00,5.120000e+00,
397,5.120000e+00,4.960000e+00,
398,5.120000e+00,5.120000e+00,
399,4.880000e+00,4.960000e+00,
400,4.960000e+00,5.120000e+00,
401,5.040000e+00,4.960000e+00,
402,5.120000e+00,5.120000e+00,
403,4.880000e+00,4.960000e+00,
404,5.120000e+00,5.040000e+00,
405,4.880000e+00,5.120000e+00,
406,5.040000e+00,5.040000e+00,
407,4.960000e+00,5.120000e+00,
408,4.960000e+00,5.120000e+00,
409,5.120000e+00,5.040000e+00,
410,4.960000e+00,5.120000e+00,
411,5.120000e+00,5.040000e+00,
412,4.960000e+00,5.120000e+00,
413,5.120000e+00,4.960000e+00,
414,4.960000e+00,5.040000e+00,
415,5.120000e+00,5.120000e+00,
416,5.040000e+00,5.040000e+00,
417,4.960000e+00,5.120000e+00,
418,5.040000e+00,5.120000e+00,
419,4.880000e+00,4.960000e+00,
420,4.960000e+00,5.040000e+00,
421,5.120000e+00,5.120000e+00,
422,5.040000e+00,5.040000e+00,
423,4.880000e+00,5.120000e+00,
424,4.960000e+00,5.040000e+00,
425,5.120000e+00,5.120000e+00,
426,4.960000e+00,5.120000e+00,
427,5.120000e+00,5.040000e+00,
428,5.120000e+00,5.120000e+00,
429,4.960000e+00,4.960000e+00,
430,5.040000e+00,5.120000e+00,
431,4.960000e+00,5.040000e+00,
432,5.040000e+00,5.040000e+00,
433,4.960000e+00,5.120000e+00,
434,5.120000e+00,5.120000e+00,
435,4.880000e+00,4.960000e+00,
436,5.040000e+00,5.040000e+00,
437,4.960000e+00,5.120000e+00,
438,4.960000e+00,5.120000e+00,
439,5.120000e+00,5.040000e+00,
440,4.960000e+00,5.120000e+00,
441,5.120000e+00,4.960000e+00,
442,4.960000e+00,5.120000e+00,
443,5.120000e+00,4.960000e+00,
444,5.120000e+00,5.120000e+00,
445,4.880000e+00,5.040000e+00,
446,4.880000e+00,5.120000e+00,
447,5.120000e+00,4.960000e+00,
448,4.960000e+00,5.120000e+00,
449,5.040000e+00,5.040000e+00,
450,5.040000e+00,5.120000e+00,
451,-4.800000e-01,-1.600000e+00,
452,-5.600000e-01,-1.600000e+00,
453,1.600000e-01,5.600000e-01,
454,-1.600000e-01,-1.600000e-01,
455,8.000000e-02,8.000000e-02,
456,8.000000e-02,8.000000e-02,
457,-8.000000e-02,-8.000000e-02,
458,8.000000e-02,8.000000e-02,
459,-8.000000e-02,-8.000000e-02,
460,-8.000000e-02,8.000000e-02,
461,8.000000e-02,-8.000000e-02,
462,-8.000000e-02,8.000000e-02,
463,8.000000e-02,-8.000000e-02,
464,-8.000000e-02,-8.000000e-02,
465,8.000000e-02,8.000000e-02,
466,8.000000e-02,8.000000e-02,
467,-8.000000e-02,-8.000000e-02,
468,-8.000000e-02,8.000000e-02,
469,8.000000e-02,-8.000000e-02,
470,-8.000000e-02,8.000000e-02,
471,8.000000e-02,-8.000000e-02,
472,-8.000000e-02,-8.000000e-02,
473,8.000000e-02,8.000000e-02,
474,-8.000000e-02,-8.000000e-02,
475,8.000000e-02,8.000000e-02,
476,-8.000000e-02,8.000000e-02,
477,8.000000e-02,-8.000000e-02,
478,-8.000000e-02,-8.000000e-02,
479,8.000000e-02,8.000000e-02,
480,-8.000000e-02,-8.000000e-02,
481,8.000000e-02,8.000000e-02,
482,-8.000000e-02,-8.000000e-02,
483,8.000000e-02,8.000000e-02,
484,-8.000000e-02,-8.000000e-02,
485,8.000000e-02,8.000000e-02,
486,8.000000e-02,-8.000000e-02,
487,-8.000000e-02,8.000000e-02,
488,-8.000000e-02,-8.000000e-02,
489,8.000000e-02,8.000000e-02,
490,-8.000000e-02,-8.000000e-02,
491,8.000000e-02,8.000000e-02,
492,-8.000000e-02,-8.000000e-02,
493,8.000000e-02,8.000000e-02,
494,-8.000000e-02,0.000000e+00,
495,8.000000e-02,-8.000000e-02,
496,0.000000e+00,0.000000e+00,
497,-8.000000e-02,-8.000000e-02,
498,-8.000000e-02,-8.000000e-02,
499,8.000000e-02,8.000000e-02,
500,-1.600000e-01,-8.000000e-02,
501,8.000000e-02,8.000000e-02,
502,-8.000000e-02,-8.000000e-02,
503,8.000000e-02,8.000000e-02,
504,-1.600000e-01,0.000000e+00,
505,8.000000e-02,-8.000000e-02,
506,0.000000e+00,0.000000e+00,
507,-8.000000e-02,-8.000000e-02,
508,0.000000e+00,-8.000000e-02,
509,-8.000000e-02,8.000000e-02,
510,-8.000000e-02,0.000000e+00,
511,8.000000e-02,-8.000000e-02,
512,-8.000000e-02,0.000000e+00,
513,8.000000e-02,-8.000000e-02,
514,0.000000e+00,0.000000e+00,
515,-1.600000e-01,-8.000000e-02,
516,-8.000000e-02,0.000000e+00,
517,8.000000e-02,-8.000000e-02,
518,0.000000e+00,-8.000000e-02,
519,-1.600000e-01,8.000000e-02,
520,-8.000000e-02,0.000000e+00,
521,8.000000e-02,-8.000000e-02,
522,-1.600000e-01,-8.000000e-02,
523,8.000000e-02,0.000000e+00,
524,0.000000e+00,0.000000e+00,
525,-1.600000e-01,-8.000000e-02,
526,0.000000e+00,0.000000e+00,
527,-8.000000e-02,-8.000000e-02,
528,0.000000e+00,0.000000e+00,
529,-1.600000e-01,-8.000000e-02,
530,0.000000e+00,0.000000e+00,
531,-1.600000e-01,-8.000000e-02,
532,0.000000e+00,0.000000e+00,
533,-8.000000e-02,-8.000000e-02,
534,0.000000e+00,0.000000e+00,
535,-1.600000e-01,-8.000000e-02,
536,0.000000e+00,0.000000e+00,
537,-1.600000e-01,-8.000000e-02,
538,0.000000e+00,0.000000e+00,
539,-1.600000e-01,-8.000000e-02,
540,0.000000e+00,0.000000e+00,
541,-1.600000e-01,-8.000000e-02,
542,0.000000e+00,0.000000e+00,
543,-1.600000e-01,-8.000000e-02,
544,0.000000e+00,0.000000e+00,
545,-1.600000e-01,-8.000000e-02,
546,0.000000e+00,0.000000e+00,
547,-1.600000e-01,-8.000000e-02,
548,0.000000e+00,0.000000e+00,
549,-1.600000e-01,-8.000000e-02,
550,0.000000e+00,0.000000e+00,
551,-1.600000e-01,-8.000000e-02,
552,0.000000e+00,-8.000000e-02,
553,-1.600000e-01,8.000000e-02,
554,0.000000e+00,0.000000e+00,
555,-1.600000e-01,-8.000000e-02,
556,-8.000000e-02,-8.000000e-02,
557,8.000000e-02,8.000000e-02,
558,0.000000e+00,0.000000e+00,
559,-1.600000e-01,-8.000000e-02,
560,0.000000e+00,0.000000e+00,
561,-1.600000e-01,-8.000000e-02,
562,0.000000e+00,-8.000000e-02,
563,-1.600000e-01,8.000000e-02,
564,0.000000e+00,-8.000000e-02,
565,-1.600000e-01,0.000000e+00,
566,8.000000e-02,0.000000e+00,
567,-1.600000e-01,-8.000000e-02,
568,0.000000e+00,0.000000e+00,
569,-1.600000e-01,-8.000000e-02,
570,0.000000e+00,0.000000e+00,
571,-1.600000e-01,-8.000000e-02,
572,0.000000e+00,0.000000e+00,
573,-8.000000e-02,-8.000000e-02,
574,0.000000e+00,0.000000e+00,
575,-1.600000e-01,-8.000000e-02,
576,0.000000e+00,0.000000e+00,
577,-1.600000e-01,-8.000000e-02,
578,0.000000e+00,0.000000e+00,
579,-1.600000e-01,-8.000000e-02,
580,0.000000e+00,0.000000e+00,
581,-1.600000e-01,-8.000000e-02,
582,0.000000e+00,-8.000000e-02,
583,-1.600000e-01,0.000000e+00,
584,0.000000e+00,-8.000000e-02,
585,-1.600000e-01,0.000000e+00,
586,0.000000e+00,0.000000e+00,
587,-1.600000e-01,-8.000000e-02,
588,0.000000e+00,0.000000e+00,
589,-1.600000e-01,-8.000000e-02,
590,0.000000e+00,0.000000e+00,
591,-1.600000e-01,-8.000000e-02,
592,0.000000e+00,0.000000e+00,
593,-1.600000e-01,-8.000000e-02,
594,0.000000e+00,0.000000e+00,
595,-1.600000e-01,-8.000000e-02,
596,0.000000e+00,0.000000e+00,
597,-8.000000e-02,-8.000000e-02,
598,0.000000e+00,0.000000e+00,
599,-1.600000e-01,-8.000000e-02,
600,0.000000e+00,0.000000e+00,
601,-1.600000e-01,-8.000000e-02,
602,0.000000e+00,-8.000000e-02,
603,-8.000000e-02,0.000000e+00,
604,0.000000e+00,0.000000e+00,
605,-1.600000e-01,-8.000000e-02,
606,8.000000e-02,0.000000e+00,
607,-1.600000e-01,-8.000000e-02,
608,0.000000e+00,0.000000e+00,
609,-1.600000e-01,-8.000000e-02,
610,0.000000e+00,-8.000000e-02,
611,-1.600000e-01,0.000000e+00,
612,0.000000e+00,0.000000e+00,
613,-1.600000e-01,-8.000000e-02,
614,0.000000e+00,-8.000000e-02,
615,-1.600000e-01,0.000000e+00,
616,0.000000e+00,0.000000e+00,
617,-1.600000e-01,-8.000000e-02,
618,0.000000e+00,0.000000e+00,
619,-1.600000e-01,-8.000000e-02,
620,0.000000e+00,0.000000e+00,
621,-1.600000e-01,-8.000000e-02,
622,0.000000e+00,0.000000e+00,
623,-1.600000e-01,-8.000000e-02,
624,0.000000e+00,0.000000e+00,
625,-1.600000e-01,-8.000000e-02,
626,0.000000e+00,0.000000e+00,
627,-1.600000e-01,-8.000000e-02,
628,0.000000e+00,0.000000e+00,
629,-1.600000e-01,-8.000000e-02,
630,0.000000e+00,0.000000e+00,
631,-1.600000e-01,-8.000000e-02,
632,0.000000e+00,0.000000e+00,
