实验2/data/xh1_2.csv

X,CH1,CH2,Start,Increment,
Sequence,Volt,Volt,-1.400000e-04,2.000000e-07,
0,0.000000e+00,8.000000e-02,
1,-8.000000e-02,-8.000000e-02,
2,0.000000e+00,8.000000e-02,
3,-8.000000e-02,-8.000000e-02,
4,0.000000e+00,8.000000e-02,
5,-8.000000e-02,-8.000000e-02,
6,-8.000000e-02,8.000000e-02,
7,0.000000e+00,-8.000000e-02,
8,0.000000e+00,-8.000000e-02,
9,-8.000000e-02,8.000000e-02,
10,-8.000000e-02,8.000000e-02,
11,0.000000e+00,-8.000000e-02,
12,0.000000e+00,-8.000000e-02,
13,-8.000000e-02,8.000000e-02,
14,0.000000e+00,-8.000000e-02,
15,-1.600000e-01,8.000000e-02,
16,0.000000e+00,8.000000e-02,
17,-1.600000e-01,-8.000000e-02,
18,0.000000e+00,8.000000e-02,
19,-1.600000e-01,-8.000000e-02,
20,0.000000e+00,8.000000e-02,
21,-1.600000e-01,-8.000000e-02,
22,-8.000000e-02,-8.000000e-02,
23,0.000000e+00,8.000000e-02,
24,-8.000000e-02,-8.000000e-02,
25,0.000000e+00,8.000000e-02,
26,0.000000e+00,8.000000e-02,
27,-1.600000e-01,-8.000000e-02,
28,0.000000e+00,8.000000e-02,
29,-1.600000e-01,-8.000000e-02,
30,0.000000e+00,-8.000000e-02,
31,-1.600000e-01,8.000000e-02,
32,0.000000e+00,-8.000000e-02,
33,-1.600000e-01,8.000000e-02,
34,0.000000e+00,-8.000000e-02,
35,-1.600000e-01,8.000000e-02,
36,0.000000e+00,-8.000000e-02,
37,-1.600000e-01,8.000000e-02,
38,0.000000e+00,-8.000000e-02,
39,-1.600000e-01,0.000000e+00,
40,-8.000000e-02,-8.000000e-02,
41,0.000000e+00,8.000000e-02,
42,0.000000e+00,-8.000000e-02,
43,-1.600000e-01,0.000000e+00,
44,0.000000e+00,-8.000000e-02,
45,-1.600000e-01,8.000000e-02,
46,0.000000e+00,-8.000000e-02,
47,-1.600000e-01,8.000000e-02,
48,0.000000e+00,0.000000e+00,
49,-1.600000e-01,-8.000000e-02,
50,0.000000e+00,-8.000000e-02,
51,-1.600000e-01,8.000000e-02,
52,0.000000e+00,-8.000000e-02,
53,-1.600000e-01,8.000000e-02,
54,0.000000e+00,-8.000000e-02,
55,-1.600000e-01,8.000000e-02,
56,0.000000e+00,-8.000000e-02,
57,-1.600000e-01,8.000000e-02,
58,0.000000e+00,0.000000e+00,
59,-1.600000e-01,-8.000000e-02,
60,0.000000e+00,-8.000000e-02,
61,-1.600000e-01,8.000000e-02,
62,0.000000e+00,0.000000e+00,
63,-1.600000e-01,-8.000000e-02,
64,0.000000e+00,0.000000e+00,
65,-1.600000e-01,-8.000000e-02,
66,0.000000e+00,-8.000000e-02,
67,-8.000000e-02,8.000000e-02,
68,0.000000e+00,0.000000e+00,
69,-1.600000e-01,-8.000000e-02,
70,0.000000e+00,-8.000000e-02,
71,-8.000000e-02,8.000000e-02,
72,0.000000e+00,0.000000e+00,
73,-1.600000e-01,-8.000000e-02,
74,0.000000e+00,0.000000e+00,
75,-1.600000e-01,-8.000000e-02,
76,0.000000e+00,0.000000e+00,
77,-1.600000e-01,-8.000000e-02,
78,0.000000e+00,0.000000e+00,
79,-1.600000e-01,-8.000000e-02,
80,0.000000e+00,0.000000e+00,
81,-1.600000e-01,-8.000000e-02,
82,-1.600000e-01,-8.000000e-02,
83,0.000000e+00,0.000000e+00,
84,0.000000e+00,0.000000e+00,
85,-1.600000e-01,-8.000000e-02,
86,0.000000e+00,0.000000e+00,
87,-1.600000e-01,-8.000000e-02,
88,0.000000e+00,-8.000000e-02,
89,-1.600000e-01,8.000000e-02,
90,0.000000e+00,-8.000000e-02,
91,-1.600000e-01,8.000000e-02,
92,0.000000e+00,-8.000000e-02,
93,-1.600000e-01,8.000000e-02,
94,0.000000e+00,-8.000000e-02,
95,-1.600000e-01,8.000000e-02,
96,0.000000e+00,-8.000000e-02,
97,-1.600000e-01,0.000000e+00,
98,0.000000e+00,0.000000e+00,
99,-1.600000e-01,-8.000000e-02,
100,0.000000e+00,0.000000e+00,
101,-1.600000e-01,-8.000000e-02,
102,0.000000e+00,0.000000e+00,
103,-1.600000e-01,-8.000000e-02,
104,0.000000e+00,0.000000e+00,
105,-1.600000e-01,-8.000000e-02,
106,0.000000e+00,0.000000e+00,
107,-1.600000e-01,-8.000000e-02,
108,0.000000e+00,-8.000000e-02,
109,-1.600000e-01,8.000000e-02,
110,0.000000e+00,0.000000e+00,
111,-1.600000e-01,-8.000000e-02,
112,0.000000e+00,0.000000e+00,
113,-1.600000e-01,-8.000000e-02,
114,0.000000e+00,0.000000e+00,
115,-1.600000e-01,-8.000000e-02,
116,0.000000e+00,0.000000e+00,
117,-1.600000e-01,-8.000000e-02,
118,0.000000e+00,0.000000e+00,
119,-1.600000e-01,-8.000000e-02,
120,0.000000e+00,-8.000000e-02,
121,-1.600000e-01,8.000000e-02,
122,0.000000e+00,-8.000000e-02,
123,-1.600000e-01,8.000000e-02,
124,0.000000e+00,-8.000000e-02,
125,-1.600000e-01,8.000000e-02,
126,0.000000e+00,0.000000e+00,
127,-1.600000e-01,-8.000000e-02,
128,0.000000e+00,0.000000e+00,
129,-1.600000e-01,-8.000000e-02,
130,0.000000e+00,0.000000e+00,
131,-1.600000e-01,-8.000000e-02,
132,0.000000e+00,-8.000000e-02,
133,-1.600000e-01,8.000000e-02,
134,0.000000e+00,0.000000e+00,
135,-1.600000e-01,-8.000000e-02,
136,0.000000e+00,0.000000e+00,
137,-1.600000e-01,-8.000000e-02,
138,0.000000e+00,0.000000e+00,
139,-1.600000e-01,-8.000000e-02,
140,0.000000e+00,0.000000e+00,
141,-1.600000e-01,-8.000000e-02,
142,0.000000e+00,0.000000e+00,
143,-1.600000e-01,-8.000000e-02,
144,0.000000e+00,-8.000000e-02,
145,-1.600000e-01,8.000000e-02,
146,0.000000e+00,0.000000e+00,
147,-1.600000e-01,-8.000000e-02,
148,0.000000e+00,0.000000e+00,
149,-1.600000e-01,-8.000000e-02,
150,0.000000e+00,0.000000e+00,
151,-1.600000e-01,-8.000000e-02,
152,0.000000e+00,0.000000e+00,
153,-1.600000e-01,-8.000000e-02,
154,0.000000e+00,0.000000e+00,
155,-1.600000e-01,-8.000000e-02,
156,0.000000e+00,-8.000000e-02,
157,-1.600000e-01,0.000000e+00,
158,0.000000e+00,0.000000e+00,
159,-8.000000e-02,-8.000000e-02,
160,0.000000e+00,-8.000000e-02,
161,-1.600000e-01,8.000000e-02,
162,0.000000e+00,-8.000000e-02,
163,-1.600000e-01,8.000000e-02,
164,0.000000e+00,-8.000000e-02,
165,-1.600000e-01,8.000000e-02,
166,-1.600000e-01,-8.000000e-02,
167,0.000000e+00,8.000000e-02,
168,0.000000e+00,0.000000e+00,
169,-1.600000e-01,-8.000000e-02,
170,0.000000e+00,-8.000000e-02,
171,-1.600000e-01,8.000000e-02,
172,0.000000e+00,-8.000000e-02,
173,-1.600000e-01,8.000000e-02,
174,0.000000e+00,0.000000e+00,
175,-1.600000e-01,-8.000000e-02,
176,0.000000e+00,0.000000e+00,
177,-1.600000e-01,-8.000000e-02,
178,0.000000e+00,0.000000e+00,
179,-1.600000e-01,-8.000000e-02,
180,0.000000e+00,-8.000000e-02,
181,-1.600000e-01,0.000000e+00,
182,0.000000e+00,0.000000e+00,
183,-1.600000e-01,-8.000000e-02,
184,-1.600000e-01,0.000000e+00,
185,0.000000e+00,-8.000000e-02,
186,0.000000e+00,-8.000000e-02,
187,-1.600000e-01,8.000000e-02,
188,0.000000e+00,-8.000000e-02,
189,-1.600000e-01,0.000000e+00,
190,0.000000e+00,-8.000000e-02,
191,-1.600000e-01,0.000000e+00,
192,0.000000e+00,-8.000000e-02,
193,-1.600000e-01,8.000000e-02,
194,0.000000e+00,-8.000000e-02,
195,-1.600000e-01,8.000000e-02,
196,0.000000e+00,0.000000e+00,
197,-1.600000e-01,-8.000000e-02,
198,0.000000e+00,0.000000e+00,
199,-1.600000e-01,-8.000000e-02,
200,-1.600000e-01,-8.000000e-02,
201,5.920000e+00,4.960000e+00,
202,5.200000e+00,5.120000e+00,
203,5.040000e+00,4.800000e+00,
204,5.040000e+00,5.040000e+00,
205,5.200000e+00,4.880000e+00,
206,5.040000e+00,5.040000e+00,
207,5.200000e+00,4.880000e+00,
208,5.120000e+00,5.040000e+00,
209,5.040000e+00,4.960000e+00,
210,5.040000e+00,5.040000e+00,
211,5.200000e+00,4.880000e+00,
212,5.040000e+00,5.040000e+00,
213,5.120000e+00,4.960000e+00,
214,5.120000e+00,5.040000e+00,
215,5.040000e+00,4.960000e+00,
216,5.040000e+00,4.960000e+00,
217,5.120000e+00,5.040000e+00,
218,5.120000e+00,5.040000e+00,
219,5.040000e+00,4.960000e+00,
220,5.120000e+00,5.040000e+00,
221,5.040000e+00,4.960000e+00,
222,5.040000e+00,4.960000e+00,
223,5.200000e+00,5.120000e+00,
224,5.120000e+00,5.040000e+00,
225,5.040000e+00,4.960000e+00,
226,5.120000e+00,5.040000e+00,
227,5.040000e+00,4.960000e+00,
228,5.040000e+00,5.040000e+00,
229,5.200000e+00,4.960000e+00,
230,5.120000e+00,4.960000e+00,
231,5.040000e+00,5.120000e+00,
232,5.040000e+00,5.040000e+00,
233,5.200000e+00,4.960000e+00,
234,5.040000e+00,4.960000e+00,
235,5.200000e+00,5.120000e+00,
236,5.040000e+00,4.960000e+00,
237,5.200000e+00,5.120000e+00,
238,5.040000e+00,4.960000e+00,
239,5.200000e+00,5.120000e+00,
240,5.120000e+00,4.960000e+00,
241,5.040000e+00,5.120000e+00,
242,5.040000e+00,5.120000e+00,
243,5.200000e+00,4.960000e+00,
244,5.120000e+00,5.120000e+00,
245,5.040000e+00,4.960000e+00,
246,5.120000e+00,4.960000e+00,
247,5.040000e+00,5.120000e+00,
248,5.120000e+00,4.960000e+00,
249,5.040000e+00,5.120000e+00,
250,5.040000e+00,5.120000e+00,
251,5.200000e+00,4.960000e+00,
252,5.040000e+00,4.960000e+00,
253,5.200000e+00,5.120000e+00,
254,5.040000e+00,5.120000e+00,
255,5.200000e+00,4.960000e+00,
256,5.040000e+00,4.960000e+00,
257,5.200000e+00,5.120000e+00,
258,5.040000e+00,4.960000e+00,
259,5.200000e+00,5.120000e+00,
260,5.040000e+00,5.120000e+00,
261,5.200000e+00,4.960000e+00,
262,5.040000e+00,5.120000e+00,
263,5.200000e+00,4.960000e+00,
264,5.040000e+00,5.120000e+00,
265,5.200000e+00,4.960000e+00,
266,5.040000e+00,5.120000e+00,
267,5.200000e+00,4.960000e+00,
268,5.040000e+00,5.120000e+00,
269,5.200000e+00,4.960000e+00,
270,5.040000e+00,4.960000e+00,
271,5.200000e+00,5.120000e+00,
272,5.040000e+00,5.120000e+00,
273,5.200000e+00,4.960000e+00,
274,5.200000e+00,4.960000e+00,
275,5.040000e+00,5.120000e+00,
276,5.040000e+00,5.120000e+00,
277,5.200000e+00,4.960000e+00,
278,5.040000e+00,5.120000e+00,
279,5.200000e+00,4.960000e+00,
280,5.040000e+00,5.120000e+00,
281,5.200000e+00,4.960000e+00,
282,5.040000e+00,5.120000e+00,
283,5.200000e+00,4.960000e+00,
284,5.040000e+00,4.960000e+00,
285,5.200000e+00,5.120000e+00,
286,5.040000e+00,5.120000e+00,
287,5.200000e+00,4.960000e+00,
288,5.040000e+00,5.120000e+00,
289,5.200000e+00,4.960000e+00,
290,5.040000e+00,5.120000e+00,
291,5.200000e+00,4.960000e+00,
292,5.040000e+00,5.120000e+00,
293,5.200000e+00,4.960000e+00,
294,5.040000e+00,5.040000e+00,
295,5.200000e+00,5.120000e+00,
296,5.040000e+00,5.120000e+00,
297,5.200000e+00,4.960000e+00,
298,5.200000e+00,5.040000e+00,
299,5.040000e+00,5.120000e+00,
300,5.200000e+00,5.040000e+00,
301,5.040000e+00,5.120000e+00,
302,5.040000e+00,5.120000e+00,
303,5.200000e+00,4.960000e+00,
304,5.040000e+00,5.040000e+00,
305,5.200000e+00,5.120000e+00,
306,5.200000e+00,5.040000e+00,
307,5.040000e+00,5.120000e+00,
308,5.200000e+00,5.040000e+00,
309,5.040000e+00,5.120000e+00,
310,5.200000e+00,5.040000e+00,
311,5.040000e+00,5.120000e+00,
312,5.040000e+00,5.120000e+00,
313,5.200000e+00,4.960000e+00,
314,5.040000e+00,5.120000e+00,
315,5.200000e+00,4.960000e+00,
316,5.040000e+00,5.040000e+00,
317,5.200000e+00,5.120000e+00,
318,5.040000e+00,5.040000e+00,
319,5.200000e+00,5.120000e+00,
320,5.200000e+00,5.040000e+00,
321,5.040000e+00,5.120000e+00,
322,5.040000e+00,5.040000e+00,
323,5.200000e+00,5.120000e+00,
324,5.040000e+00,5.120000e+00,
325,5.200000e+00,4.960000e+00,
326,5.040000e+00,5.040000e+00,
327,5.200000e+00,5.120000e+00,
328,5.040000e+00,5.120000e+00,
329,5.200000e+00,4.960000e+00,
330,5.200000e+00,5.040000e+00,
331,5.040000e+00,5.120000e+00,
332,5.040000e+00,5.120000e+00,
333,5.200000e+00,5.040000e+00,
334,5.040000e+00,5.120000e+00,
335,5.200000e+00,5.040000e+00,
336,5.200000e+00,5.120000e+00,
337,5.040000e+00,5.040000e+00,
338,5.040000e+00,5.120000e+00,
339,5.200000e+00,5.040000e+00,
340,5.040000e+00,5.120000e+00,
341,5.200000e+00,4.960000e+00,
342,5.040000e+00,5.040000e+00,
343,5.200000e+00,5.120000e+00,
344,5.200000e+00,5.120000e+00,
345,5.040000e+00,5.040000e+00,
346,5.040000e+00,5.040000e+00,
347,5.200000e+00,5.120000e+00,
348,5.040000e+00,5.040000e+00,
349,5.200000e+00,5.120000e+00,
350,5.200000e+00,5.120000e+00,
351,5.040000e+00,4.960000e+00,
352,5.040000e+00,5.120000e+00,
353,5.200000e+00,4.960000e+00,
354,5.200000e+00,5.120000e+00,
355,5.040000e+00,5.040000e+00,
356,5.200000e+00,5.120000e+00,
357,5.040000e+00,5.040000e+00,
358,5.200000e+00,5.120000e+00,
359,5.040000e+00,5.040000e+00,
360,5.200000e+00,5.120000e+00,
361,5.040000e+00,5.040000e+00,
362,5.200000e+00,5.040000e+00,
363,5.040000e+00,5.120000e+00,
364,5.200000e+00,5.040000e+00,
365,5.040000e+00,5.120000e+00,
366,5.200000e+00,5.120000e+00,
367,5.040000e+00,5.040000e+00,
368,5.200000e+00,5.120000e+00,
369,5.040000e+00,5.040000e+00,
370,5.200000e+00,5.040000e+00,
371,5.040000e+00,5.120000e+00,
372,5.200000e+00,5.040000e+00,
373,5.040000e+00,5.120000e+00,
374,5.040000e+00,5.040000e+00,
375,5.200000e+00,5.120000e+00,
376,5.200000e+00,5.040000e+00,
377,5.040000e+00,5.120000e+00,
378,5.200000e+00,5.120000e+00,
379,5.040000e+00,5.040000e+00,
380,5.040000e+00,5.040000e+00,
381,5.200000e+00,5.120000e+00,
382,5.200000e+00,5.120000e+00,
383,5.040000e+00,4.960000e+00,
384,5.040000e+00,5.120000e+00,
385,5.200000e+00,4.960000e+00,
386,5.040000e+00,5.040000e+00,
387,5.200000e+00,5.120000e+00,
388,5.200000e+00,5.120000e+00,
389,5.040000e+00,5.040000e+00,
390,5.040000e+00,5.040000e+00,
391,5.200000e+00,5.120000e+00,
392,5.200000e+00,5.120000e+00,
393,5.040000e+00,4.960000e+00,
394,5.200000e+00,5.120000e+00,
395,5.040000e+00,4.960000e+00,
396,5.040000e+00,5.040000e+00,
397,5.200000e+00,5.120000e+00,
398,5.200000e+00,5.040000e+00,
399,5.040000e+00,5.120000e+00,
400,5.040000e+00,5.120000e+00,
401,5.200000e+00,4.960000e+00,
402,5.040000e+00,5.040000e+00,
403,5.200000e+00,5.120000e+00,
404,5.040000e+00,5.040000e+00,
405,5.200000e+00,5.120000e+00,
406,5.200000e+00,5.040000e+00,
407,5.040000e+00,5.120000e+00,
408,5.040000e+00,5.120000e+00,
409,5.200000e+00,5.040000e+00,
410,5.200000e+00,5.040000e+00,
411,5.040000e+00,5.120000e+00,
412,5.200000e+00,5.040000e+00,
413,5.040000e+00,5.120000e+00,
414,5.200000e+00,5.120000e+00,
415,5.040000e+00,5.040000e+00,
416,5.040000e+00,5.120000e+00,
417,5.200000e+00,5.040000e+00,
418,5.040000e+00,5.120000e+00,
419,5.200000e+00,5.040000e+00,
420,5.200000e+00,5.040000e+00,
421,5.040000e+00,5.120000e+00,
422,5.040000e+00,5.120000e+00,
423,5.200000e+00,4.960000e+00,
424,5.200000e+00,5.120000e+00,
425,5.040000e+00,5.040000e+00,
426,5.040000e+00,5.120000e+00,
427,5.200000e+00,4.960000e+00,
428,5.200000e+00,5.040000e+00,
429,5.040000e+00,5.120000e+00,
430,5.200000e+00,5.120000e+00,
431,5.040000e+00,5.040000e+00,
432,5.200000e+00,5.120000e+00,
433,5.040000e+00,4.960000e+00,
434,5.200000e+00,5.120000e+00,
435,5.040000e+00,4.960000e+00,
436,5.200000e+00,5.040000e+00,
437,5.040000e+00,5.120000e+00,
438,5.040000e+00,5.040000e+00,
439,5.200000e+00,5.120000e+00,
440,5.200000e+00,5.120000e+00,
441,5.040000e+00,5.040000e+00,
442,5.040000e+00,5.040000e+00,
443,5.200000e+00,5.120000e+00,
444,5.200000e+00,5.120000e+00,
445,5.040000e+00,5.040000e+00,
446,5.040000e+00,5.120000e+00,
447,5.200000e+00,5.040000e+00,
448,5.200000e+00,5.040000e+00,
449,5.040000e+00,5.120000e+00,
450,5.200000e+00,5.120000e+00,
451,-6.400000e-01,8.000000e-02,
452,-1.600000e-01,-8.000000e-02,
453,0.000000e+00,2.400000e-01,
454,0.000000e+00,8.000000e-02,
455,-8.000000e-02,0.000000e+00,
456,-8.000000e-02,8.000000e-02,
457,0.000000e+00,0.000000e+00,
458,-8.000000e-02,8.000000e-02,
459,0.000000e+00,0.000000e+00,
460,0.000000e+00,8.000000e-02,
461,-8.000000e-02,0.000000e+00,
462,0.000000e+00,8.000000e-02,
463,-8.000000e-02,0.000000e+00,
464,-8.000000e-02,8.000000e-02,
465,8.000000e-02,-8.000000e-02,
466,0.000000e+00,8.000000e-02,
467,-8.000000e-02,0.000000e+00,
468,0.000000e+00,8.000000e-02,
469,-8.000000e-02,0.000000e+00,
470,0.000000e+00,0.000000e+00,
471,-8.000000e-02,8.000000e-02,
472,-8.000000e-02,8.000000e-02,
473,0.000000e+00,0.000000e+00,
474,0.000000e+00,8.000000e-02,
475,-8.000000e-02,0.000000e+00,
476,0.000000e+00,8.000000e-02,
477,-8.000000e-02,0.000000e+00,
478,0.000000e+00,8.000000e-02,
479,-8.000000e-02,-8.000000e-02,
480,0.000000e+00,8.000000e-02,
481,-1.600000e-01,0.000000e+00,
482,-8.000000e-02,8.000000e-02,
483,8.000000e-02,-8.000000e-02,
484,0.000000e+00,8.000000e-02,
485,-8.000000e-02,-8.000000e-02,
486,0.000000e+00,8.000000e-02,
487,-8.000000e-02,-8.000000e-02,
488,0.000000e+00,0.000000e+00,
489,-8.000000e-02,8.000000e-02,
490,-8.000000e-02,8.000000e-02,
491,0.000000e+00,-8.000000e-02,
492,0.000000e+00,8.000000e-02,
493,-8.000000e-02,-8.000000e-02,
494,0.000000e+00,8.000000e-02,
495,-1.600000e-01,-8.000000e-02,
496,-8.000000e-02,8.000000e-02,
497,0.000000e+00,-8.000000e-02,
498,-8.000000e-02,8.000000e-02,
499,0.000000e+00,-8.000000e-02,
500,0.000000e+00,-8.000000e-02,
501,-8.000000e-02,8.000000e-02,
502,0.000000e+00,8.000000e-02,
503,-8.000000e-02,-8.000000e-02,
504,0.000000e+00,8.000000e-02,
505,-1.600000e-01,-8.000000e-02,
506,-8.000000e-02,-8.000000e-02,
507,0.000000e+00,8.000000e-02,
508,0.000000e+00,8.000000e-02,
509,-8.000000e-02,-8.000000e-02,
510,0.000000e+00,-8.000000e-02,
511,-8.000000e-02,8.000000e-02,
512,0.000000e+00,8.000000e-02,
513,-1.600000e-01,-8.000000e-02,
514,0.000000e+00,-8.000000e-02,
515,-1.600000e-01,8.000000e-02,
516,0.000000e+00,-8.000000e-02,
517,-1.600000e-01,8.000000e-02,
518,0.000000e+00,-8.000000e-02,
519,-1.600000e-01,8.000000e-02,
520,0.000000e+00,-8.000000e-02,
521,-8.000000e-02,8.000000e-02,
522,0.000000e+00,-8.000000e-02,
523,-1.600000e-01,8.000000e-02,
524,0.000000e+00,-8.000000e-02,
525,-1.600000e-01,8.000000e-02,
526,0.000000e+00,-8.000000e-02,
527,-1.600000e-01,8.000000e-02,
528,0.000000e+00,-8.000000e-02,
529,-1.600000e-01,8.000000e-02,
530,0.000000e+00,-8.000000e-02,
531,-1.600000e-01,8.000000e-02,
532,0.000000e+00,0.000000e+00,
533,-1.600000e-01,-8.000000e-02,
534,0.000000e+00,-8.000000e-02,
535,-8.000000e-02,8.000000e-02,
536,0.000000e+00,-8.000000e-02,
537,-1.600000e-01,8.000000e-02,
538,0.000000e+00,0.000000e+00,
539,-1.600000e-01,-8.000000e-02,
540,0.000000e+00,0.000000e+00,
541,-1.600000e-01,-8.000000e-02,
542,0.000000e+00,0.000000e+00,
543,-1.600000e-01,-8.000000e-02,
544,0.000000e+00,-8.000000e-02,
545,-1.600000e-01,8.000000e-02,
546,0.000000e+00,-8.000000e-02,
547,-1.600000e-01,8.000000e-02,
548,-8.000000e-02,-8.000000e-02,
549,0.000000e+00,8.000000e-02,
550,0.000000e+00,8.000000e-02,
551,-8.000000e-02,-8.000000e-02,
552,0.000000e+00,-8.000000e-02,
553,-1.600000e-01,8.000000e-02,
554,0.000000e+00,-8.000000e-02,
555,-1.600000e-01,8.000000e-02,
556,0.000000e+00,0.000000e+00,
557,-1.600000e-01,-8.000000e-02,
558,0.000000e+00,-8.000000e-02,
559,-1.600000e-01,8.000000e-02,
560,0.000000e+00,0.000000e+00,
561,-1.600000e-01,-8.000000e-02,
562,0.000000e+00,0.000000e+00,
563,-1.600000e-01,-8.000000e-02,
564,0.000000e+00,-8.000000e-02,
565,-1.600000e-01,8.000000e-02,
566,0.000000e+00,-8.000000e-02,
567,-1.600000e-01,8.000000e-02,
568,0.000000e+00,0.000000e+00,
569,-1.600000e-01,-8.000000e-02,
570,0.000000e+00,-8.000000e-02,
571,-1.600000e-01,8.000000e-02,
572,0.000000e+00,-8.000000e-02,
573,-1.600000e-01,8.000000e-02,
574,0.000000e+00,0.000000e+00,
575,-1.600000e-01,-8.000000e-02,
576,0.000000e+00,-8.000000e-02,
577,-1.600000e-01,8.000000e-02,
578,0.000000e+00,-8.000000e-02,
579,-1.600000e-01,8.000000e-02,
580,0.000000e+00,0.000000e+00,
581,-1.600000e-01,-8.000000e-02,
582,0.000000e+00,-8.000000e-02,
583,-1.600000e-01,8.000000e-02,
584,0.000000e+00,0.000000e+00,
585,-8.000000e-02,-8.000000e-02,
586,0.000000e+00,0.000000e+00,
587,-1.600000e-01,-8.000000e-02,
588,0.000000e+00,-8.000000e-02,
589,-1.600000e-01,0.000000e+00,
590,0.000000e+00,-8.000000e-02,
591,-1.600000e-01,8.000000e-02,
592,0.000000e+00,-8.000000e-02,
593,-1.600000e-01,0.000000e+00,
594,0.000000e+00,0.000000e+00,
595,-1.600000e-01,-8.000000e-02,
596,0.000000e+00,0.000000e+00,
597,-1.600000e-01,-8.000000e-02,
598,0.000000e+00,0.000000e+00,
599,-1.600000e-01,-8.000000e-02,
600,0.000000e+00,-8.000000e-02,
601,-1.600000e-01,8.000000e-02,
602,0.000000e+00,0.000000e+00,
603,-1.600000e-01,-8.000000e-02,
604,0.000000e+00,0.000000e+00,
605,-1.600000e-01,-8.000000e-02,
606,-8.000000e-02,0.000000e+00,
607,0.000000e+00,-8.000000e-02,
608,0.000000e+00,-8.000000e-02,
609,-1.600000e-01,8.000000e-02,
610,0.000000e+00,0.000000e+00,
611,-1.600000e-01,-8.000000e-02,
612,0.000000e+00,-8.000000e-02,
613,-1.600000e-01,8.000000e-02,
614,0.000000e+00,-8.000000e-02,
615,-1.600000e-01,8.000000e-02,
616,0.000000e+00,-8.000000e-02,
617,-1.600000e-01,8.000000e-02,
618,0.000000e+00,0.000000e+00,
619,-1.600000e-01,-8.000000e-02,
620,0.000000e+00,0.000000e+00,
621,-1.600000e-01,-8.000000e-02,
622,0.000000e+00,0.000000e+00,
623,-1.600000e-01,-8.000000e-02,
624,0.000000e+00,0.000000e+00,
625,-1.600000e-01,-8.000000e-02,
626,0.000000e+00,0.000000e+00,
627,-1.600000e-01,-8.000000e-02,
628,0.000000e+00,-8.000000e-02,
629,-1.600000e-01,8.000000e-02,
630,0.000000e+00,0.000000e+00,
631,-1.600000e-01,-8.000000e-02,
632,0.000000e+00,0.000000e+00,
633,-1.600000e-01,-8.000000e-02,
