实验2/data/xh3_.csv

X,CH1,CH2,Start,Increment,
Sequence,Volt,Volt,-1.400000e-04,2.000000e-07,
0,0.000000e+00,-8.000000e-02,
1,-8.000000e-02,8.000000e-02,
2,0.000000e+00,-8.000000e-02,
3,-8.000000e-02,8.000000e-02,
4,0.000000e+00,-8.000000e-02,
5,-1.600000e-01,8.000000e-02,
6,0.000000e+00,8.000000e-02,
7,-1.600000e-01,-8.000000e-02,
8,0.000000e+00,8.000000e-02,
9,-8.000000e-02,-8.000000e-02,
10,0.000000e+00,8.000000e-02,
11,-8.000000e-02,-8.000000e-02,
12,0.000000e+00,-8.000000e-02,
13,-8.000000e-02,8.000000e-02,
14,0.000000e+00,-8.000000e-02,
15,-1.600000e-01,8.000000e-02,
16,0.000000e+00,-8.000000e-02,
17,-1.600000e-01,8.000000e-02,
18,0.000000e+00,0.000000e+00,
19,-8.000000e-02,-8.000000e-02,
20,-8.000000e-02,0.000000e+00,
21,0.000000e+00,-8.000000e-02,
22,0.000000e+00,-8.000000e-02,
23,-8.000000e-02,8.000000e-02,
24,0.000000e+00,8.000000e-02,
25,-8.000000e-02,-8.000000e-02,
26,0.000000e+00,-8.000000e-02,
27,-1.600000e-01,8.000000e-02,
28,-1.600000e-01,0.000000e+00,
29,8.000000e-02,-8.000000e-02,
30,0.000000e+00,0.000000e+00,
31,-8.000000e-02,-8.000000e-02,
32,0.000000e+00,-8.000000e-02,
33,-1.600000e-01,8.000000e-02,
34,0.000000e+00,0.000000e+00,
35,-8.000000e-02,-8.000000e-02,
36,0.000000e+00,0.000000e+00,
37,-8.000000e-02,-8.000000e-02,
38,0.000000e+00,-8.000000e-02,
39,-1.600000e-01,8.000000e-02,
40,-8.000000e-02,0.000000e+00,
41,8.000000e-02,-8.000000e-02,
42,0.000000e+00,-8.000000e-02,
43,-1.600000e-01,8.000000e-02,
44,0.000000e+00,-8.000000e-02,
45,-8.000000e-02,8.000000e-02,
46,0.000000e+00,-8.000000e-02,
47,-8.000000e-02,8.000000e-02,
48,0.000000e+00,-8.000000e-02,
49,-1.600000e-01,8.000000e-02,
50,0.000000e+00,-8.000000e-02,
51,-1.600000e-01,8.000000e-02,
52,0.000000e+00,-8.000000e-02,
53,-8.000000e-02,8.000000e-02,
54,0.000000e+00,-8.000000e-02,
55,-8.000000e-02,8.000000e-02,
56,0.000000e+00,8.000000e-02,
57,-1.600000e-01,-8.000000e-02,
58,0.000000e+00,-8.000000e-02,
59,-8.000000e-02,8.000000e-02,
60,0.000000e+00,-8.000000e-02,
61,-1.600000e-01,8.000000e-02,
62,0.000000e+00,-8.000000e-02,
63,-8.000000e-02,8.000000e-02,
64,0.000000e+00,0.000000e+00,
65,-8.000000e-02,-8.000000e-02,
66,0.000000e+00,8.000000e-02,
67,-1.600000e-01,-8.000000e-02,
68,-8.000000e-02,-8.000000e-02,
69,8.000000e-02,8.000000e-02,
70,-8.000000e-02,-8.000000e-02,
71,0.000000e+00,8.000000e-02,
72,0.000000e+00,-8.000000e-02,
73,-8.000000e-02,8.000000e-02,
74,0.000000e+00,-8.000000e-02,
75,-8.000000e-02,8.000000e-02,
76,0.000000e+00,-8.000000e-02,
77,-1.600000e-01,8.000000e-02,
78,-8.000000e-02,8.000000e-02,
79,8.000000e-02,-8.000000e-02,
80,0.000000e+00,-8.000000e-02,
81,-8.000000e-02,8.000000e-02,
82,0.000000e+00,-8.000000e-02,
83,-8.000000e-02,8.000000e-02,
84,0.000000e+00,-8.000000e-02,
85,-8.000000e-02,8.000000e-02,
86,0.000000e+00,-8.000000e-02,
87,-8.000000e-02,8.000000e-02,
88,0.000000e+00,-8.000000e-02,
89,-1.600000e-01,8.000000e-02,
90,-8.000000e-02,-8.000000e-02,
91,8.000000e-02,8.000000e-02,
92,0.000000e+00,-8.000000e-02,
93,-8.000000e-02,8.000000e-02,
94,0.000000e+00,8.000000e-02,
95,-8.000000e-02,-8.000000e-02,
96,0.000000e+00,-8.000000e-02,
97,-8.000000e-02,8.000000e-02,
98,0.000000e+00,0.000000e+00,
99,-8.000000e-02,-8.000000e-02,
100,0.000000e+00,-8.000000e-02,
101,-8.000000e-02,8.000000e-02,
102,0.000000e+00,-8.000000e-02,
103,-1.600000e-01,8.000000e-02,
104,-8.000000e-02,-8.000000e-02,
105,0.000000e+00,8.000000e-02,
106,0.000000e+00,0.000000e+00,
107,-8.000000e-02,-8.000000e-02,
108,0.000000e+00,-8.000000e-02,
109,-8.000000e-02,8.000000e-02,
110,0.000000e+00,-8.000000e-02,
111,-8.000000e-02,8.000000e-02,
112,0.000000e+00,-8.000000e-02,
113,-8.000000e-02,8.000000e-02,
114,0.000000e+00,0.000000e+00,
115,-8.000000e-02,-8.000000e-02,
116,-8.000000e-02,-8.000000e-02,
117,8.000000e-02,8.000000e-02,
118,0.000000e+00,-8.000000e-02,
119,-1.600000e-01,8.000000e-02,
120,-8.000000e-02,-8.000000e-02,
121,0.000000e+00,8.000000e-02,
122,0.000000e+00,-8.000000e-02,
123,-8.000000e-02,8.000000e-02,
124,0.000000e+00,-8.000000e-02,
125,-8.000000e-02,8.000000e-02,
126,0.000000e+00,0.000000e+00,
127,-1.600000e-01,-8.000000e-02,
128,0.000000e+00,-8.000000e-02,
129,-8.000000e-02,8.000000e-02,
130,0.000000e+00,-8.000000e-02,
131,-8.000000e-02,8.000000e-02,
132,0.000000e+00,-8.000000e-02,
133,-1.600000e-01,8.000000e-02,
134,0.000000e+00,-8.000000e-02,
135,-8.000000e-02,8.000000e-02,
136,8.000000e-02,-8.000000e-02,
137,-1.600000e-01,8.000000e-02,
138,0.000000e+00,-8.000000e-02,
139,-8.000000e-02,8.000000e-02,
140,-1.600000e-01,-8.000000e-02,
141,8.000000e-02,8.000000e-02,
142,0.000000e+00,-8.000000e-02,
143,-1.600000e-01,8.000000e-02,
144,0.000000e+00,-8.000000e-02,
145,-8.000000e-02,8.000000e-02,
146,0.000000e+00,0.000000e+00,
147,-1.600000e-01,-8.000000e-02,
148,0.000000e+00,-8.000000e-02,
149,-8.000000e-02,8.000000e-02,
150,0.000000e+00,-8.000000e-02,
151,-8.000000e-02,8.000000e-02,
152,0.000000e+00,-8.000000e-02,
153,-8.000000e-02,0.000000e+00,
154,0.000000e+00,0.000000e+00,
155,-8.000000e-02,-8.000000e-02,
156,0.000000e+00,-8.000000e-02,
157,-8.000000e-02,8.000000e-02,
158,-8.000000e-02,-8.000000e-02,
159,0.000000e+00,8.000000e-02,
160,0.000000e+00,0.000000e+00,
161,-8.000000e-02,-8.000000e-02,
162,0.000000e+00,0.000000e+00,
163,-1.600000e-01,-8.000000e-02,
164,0.000000e+00,-8.000000e-02,
165,-1.600000e-01,8.000000e-02,
166,0.000000e+00,8.000000e-02,
167,-1.600000e-01,-8.000000e-02,
168,0.000000e+00,-8.000000e-02,
169,-1.600000e-01,8.000000e-02,
170,-8.000000e-02,0.000000e+00,
171,8.000000e-02,-8.000000e-02,
172,0.000000e+00,-8.000000e-02,
173,-8.000000e-02,8.000000e-02,
174,0.000000e+00,-8.000000e-02,
175,-8.000000e-02,8.000000e-02,
176,0.000000e+00,-8.000000e-02,
177,-8.000000e-02,8.000000e-02,
178,0.000000e+00,-8.000000e-02,
179,-1.600000e-01,8.000000e-02,
180,0.000000e+00,0.000000e+00,
181,-8.000000e-02,-8.000000e-02,
182,0.000000e+00,0.000000e+00,
183,-8.000000e-02,-8.000000e-02,
184,0.000000e+00,-8.000000e-02,
185,-8.000000e-02,8.000000e-02,
186,0.000000e+00,-8.000000e-02,
187,-1.600000e-01,8.000000e-02,
188,0.000000e+00,-8.000000e-02,
189,-8.000000e-02,8.000000e-02,
190,0.000000e+00,0.000000e+00,
191,-8.000000e-02,-8.000000e-02,
192,0.000000e+00,-8.000000e-02,
193,-8.000000e-02,8.000000e-02,
194,0.000000e+00,0.000000e+00,
195,-8.000000e-02,-8.000000e-02,
196,0.000000e+00,-8.000000e-02,
197,-8.000000e-02,8.000000e-02,
198,0.000000e+00,-8.000000e-02,
199,-8.000000e-02,8.000000e-02,
200,-8.000000e-02,-8.000000e-02,
201,5.920000e+00,1.360000e+00,
202,6.400000e-01,2.400000e-01,
203,-8.000000e-02,-1.600000e-01,
204,3.200000e-01,8.000000e-02,
205,2.400000e-01,-8.000000e-02,
206,3.200000e-01,8.000000e-02,
207,1.600000e-01,-8.000000e-02,
208,1.600000e-01,0.000000e+00,
209,3.200000e-01,8.000000e-02,
210,1.600000e-01,8.000000e-02,
211,2.400000e-01,0.000000e+00,
212,2.400000e-01,0.000000e+00,
213,1.600000e-01,8.000000e-02,
214,2.400000e-01,8.000000e-02,
215,1.600000e-01,0.000000e+00,
216,2.400000e-01,0.000000e+00,
217,8.000000e-02,1.600000e-01,
218,2.400000e-01,8.000000e-02,
219,1.600000e-01,0.000000e+00,
220,1.600000e-01,0.000000e+00,
221,2.400000e-01,1.600000e-01,
222,2.400000e-01,0.000000e+00,
223,1.600000e-01,1.600000e-01,
224,2.400000e-01,0.000000e+00,
225,1.600000e-01,1.600000e-01,
226,1.600000e-01,0.000000e+00,
227,2.400000e-01,1.600000e-01,
228,2.400000e-01,0.000000e+00,
229,1.600000e-01,1.600000e-01,
230,2.400000e-01,0.000000e+00,
231,1.600000e-01,1.600000e-01,
232,2.400000e-01,1.600000e-01,
233,1.600000e-01,0.000000e+00,
234,1.600000e-01,0.000000e+00,
235,2.400000e-01,1.600000e-01,
236,2.400000e-01,0.000000e+00,
237,1.600000e-01,1.600000e-01,
238,2.400000e-01,1.600000e-01,
239,8.000000e-02,0.000000e+00,
240,2.400000e-01,1.600000e-01,
241,8.000000e-02,0.000000e+00,
242,2.400000e-01,0.000000e+00,
243,8.000000e-02,1.600000e-01,
244,2.400000e-01,1.600000e-01,
245,8.000000e-02,0.000000e+00,
246,2.400000e-01,0.000000e+00,
247,8.000000e-02,1.600000e-01,
248,2.400000e-01,0.000000e+00,
249,1.600000e-01,1.600000e-01,
250,2.400000e-01,0.000000e+00,
251,1.600000e-01,1.600000e-01,
252,2.400000e-01,0.000000e+00,
253,8.000000e-02,1.600000e-01,
254,2.400000e-01,1.600000e-01,
255,8.000000e-02,0.000000e+00,
256,2.400000e-01,0.000000e+00,
257,8.000000e-02,1.600000e-01,
258,2.400000e-01,1.600000e-01,
259,1.600000e-01,0.000000e+00,
260,2.400000e-01,1.600000e-01,
261,1.600000e-01,0.000000e+00,
262,2.400000e-01,1.600000e-01,
263,1.600000e-01,0.000000e+00,
264,1.600000e-01,0.000000e+00,
265,2.400000e-01,1.600000e-01,
266,2.400000e-01,1.600000e-01,
267,1.600000e-01,0.000000e+00,
268,2.400000e-01,1.600000e-01,
269,8.000000e-02,0.000000e+00,
270,2.400000e-01,0.000000e+00,
271,8.000000e-02,1.600000e-01,
272,1.600000e-01,0.000000e+00,
273,2.400000e-01,1.600000e-01,
274,2.400000e-01,1.600000e-01,
275,1.600000e-01,0.000000e+00,
276,2.400000e-01,1.600000e-01,
277,8.000000e-02,0.000000e+00,
278,2.400000e-01,1.600000e-01,
279,8.000000e-02,0.000000e+00,
280,1.600000e-01,1.600000e-01,
281,2.400000e-01,0.000000e+00,
282,2.400000e-01,1.600000e-01,
283,1.600000e-01,0.000000e+00,
284,2.400000e-01,1.600000e-01,
285,8.000000e-02,0.000000e+00,
286,2.400000e-01,1.600000e-01,
287,1.600000e-01,0.000000e+00,
288,2.400000e-01,0.000000e+00,
289,1.600000e-01,1.600000e-01,
290,2.400000e-01,0.000000e+00,
291,1.600000e-01,1.600000e-01,
292,1.600000e-01,0.000000e+00,
293,2.400000e-01,1.600000e-01,
294,1.600000e-01,1.600000e-01,
295,2.400000e-01,0.000000e+00,
296,2.400000e-01,1.600000e-01,
297,8.000000e-02,0.000000e+00,
298,1.600000e-01,0.000000e+00,
299,2.400000e-01,1.600000e-01,
300,2.400000e-01,1.600000e-01,
301,8.000000e-02,0.000000e+00,
302,2.400000e-01,1.600000e-01,
303,8.000000e-02,0.000000e+00,
304,2.400000e-01,1.600000e-01,
305,1.600000e-01,0.000000e+00,
306,2.400000e-01,0.000000e+00,
307,1.600000e-01,1.600000e-01,
308,2.400000e-01,0.000000e+00,
309,8.000000e-02,1.600000e-01,
310,2.400000e-01,0.000000e+00,
311,1.600000e-01,1.600000e-01,
312,2.400000e-01,0.000000e+00,
313,8.000000e-02,1.600000e-01,
314,2.400000e-01,1.600000e-01,
315,1.600000e-01,0.000000e+00,
316,1.600000e-01,1.600000e-01,
317,2.400000e-01,0.000000e+00,
318,2.400000e-01,1.600000e-01,
319,1.600000e-01,0.000000e+00,
320,2.400000e-01,0.000000e+00,
321,8.000000e-02,1.600000e-01,
322,2.400000e-01,1.600000e-01,
323,8.000000e-02,0.000000e+00,
324,2.400000e-01,0.000000e+00,
325,8.000000e-02,1.600000e-01,
326,2.400000e-01,1.600000e-01,
327,8.000000e-02,0.000000e+00,
328,2.400000e-01,0.000000e+00,
329,1.600000e-01,1.600000e-01,
330,2.400000e-01,1.600000e-01,
331,8.000000e-02,0.000000e+00,
332,2.400000e-01,1.600000e-01,
333,8.000000e-02,0.000000e+00,
334,2.400000e-01,1.600000e-01,
335,8.000000e-02,0.000000e+00,
336,2.400000e-01,1.600000e-01,
337,8.000000e-02,0.000000e+00,
338,2.400000e-01,1.600000e-01,
339,1.600000e-01,0.000000e+00,
340,2.400000e-01,1.600000e-01,
341,8.000000e-02,0.000000e+00,
342,2.400000e-01,0.000000e+00,
343,8.000000e-02,1.600000e-01,
344,1.600000e-01,0.000000e+00,
345,2.400000e-01,1.600000e-01,
346,2.400000e-01,1.600000e-01,
347,8.000000e-02,0.000000e+00,
348,2.400000e-01,1.600000e-01,
349,8.000000e-02,0.000000e+00,
350,1.600000e-01,1.600000e-01,
351,2.400000e-01,0.000000e+00,
352,2.400000e-01,1.600000e-01,
353,8.000000e-02,0.000000e+00,
354,1.600000e-01,0.000000e+00,
355,2.400000e-01,1.600000e-01,
356,2.400000e-01,1.600000e-01,
357,8.000000e-02,0.000000e+00,
358,2.400000e-01,1.600000e-01,
359,1.600000e-01,0.000000e+00,
360,2.400000e-01,0.000000e+00,
361,1.600000e-01,1.600000e-01,
362,2.400000e-01,1.600000e-01,
363,8.000000e-02,0.000000e+00,
364,1.600000e-01,1.600000e-01,
365,2.400000e-01,0.000000e+00,
366,2.400000e-01,1.600000e-01,
367,8.000000e-02,0.000000e+00,
368,2.400000e-01,1.600000e-01,
369,8.000000e-02,0.000000e+00,
370,2.400000e-01,1.600000e-01,
371,8.000000e-02,0.000000e+00,
372,1.600000e-01,1.600000e-01,
373,2.400000e-01,0.000000e+00,
374,1.600000e-01,0.000000e+00,
375,2.400000e-01,1.600000e-01,
376,2.400000e-01,0.000000e+00,
377,1.600000e-01,1.600000e-01,
378,2.400000e-01,1.600000e-01,
379,1.600000e-01,0.000000e+00,
380,2.400000e-01,0.000000e+00,
381,8.000000e-02,1.600000e-01,
382,1.600000e-01,1.600000e-01,
383,2.400000e-01,0.000000e+00,
384,2.400000e-01,1.600000e-01,
385,1.600000e-01,0.000000e+00,
386,2.400000e-01,1.600000e-01,
387,8.000000e-02,0.000000e+00,
388,1.600000e-01,1.600000e-01,
389,2.400000e-01,0.000000e+00,
390,2.400000e-01,0.000000e+00,
391,8.000000e-02,1.600000e-01,
392,2.400000e-01,1.600000e-01,
393,1.600000e-01,0.000000e+00,
394,1.600000e-01,0.000000e+00,
395,2.400000e-01,1.600000e-01,
396,2.400000e-01,1.600000e-01,
397,1.600000e-01,0.000000e+00,
398,2.400000e-01,1.600000e-01,
399,1.600000e-01,0.000000e+00,
400,2.400000e-01,1.600000e-01,
401,8.000000e-02,0.000000e+00,
402,2.400000e-01,0.000000e+00,
403,1.600000e-01,1.600000e-01,
404,2.400000e-01,1.600000e-01,
405,8.000000e-02,0.000000e+00,
406,2.400000e-01,1.600000e-01,
407,8.000000e-02,0.000000e+00,
408,2.400000e-01,0.000000e+00,
409,8.000000e-02,1.600000e-01,
410,2.400000e-01,0.000000e+00,
411,8.000000e-02,1.600000e-01,
412,2.400000e-01,1.600000e-01,
413,8.000000e-02,0.000000e+00,
414,2.400000e-01,1.600000e-01,
415,1.600000e-01,0.000000e+00,
416,2.400000e-01,1.600000e-01,
417,8.000000e-02,0.000000e+00,
418,2.400000e-01,1.600000e-01,
419,8.000000e-02,0.000000e+00,
420,1.600000e-01,1.600000e-01,
421,2.400000e-01,0.000000e+00,
422,2.400000e-01,1.600000e-01,
423,8.000000e-02,0.000000e+00,
424,1.600000e-01,1.600000e-01,
425,2.400000e-01,0.000000e+00,
426,2.400000e-01,1.600000e-01,
427,1.600000e-01,0.000000e+00,
428,2.400000e-01,0.000000e+00,
429,1.600000e-01,1.600000e-01,
430,2.400000e-01,1.600000e-01,
431,8.000000e-02,0.000000e+00,
432,2.400000e-01,1.600000e-01,
433,8.000000e-02,0.000000e+00,
434,2.400000e-01,1.600000e-01,
435,1.600000e-01,0.000000e+00,
436,2.400000e-01,0.000000e+00,
437,8.000000e-02,1.600000e-01,
438,2.400000e-01,0.000000e+00,
439,8.000000e-02,1.600000e-01,
440,2.400000e-01,1.600000e-01,
441,8.000000e-02,0.000000e+00,
442,2.400000e-01,1.600000e-01,
443,8.000000e-02,0.000000e+00,
444,2.400000e-01,1.600000e-01,
445,8.000000e-02,0.000000e+00,
446,2.400000e-01,1.600000e-01,
447,1.600000e-01,0.000000e+00,
448,2.400000e-01,1.600000e-01,
449,8.000000e-02,0.000000e+00,
450,2.400000e-01,1.600000e-01,
451,-5.600000e+00,-1.280000e+00,
452,-4.800000e-01,-1.600000e-01,
453,2.400000e-01,2.400000e-01,
454,-8.000000e-02,8.000000e-02,
455,-2.400000e-01,0.000000e+00,
456,-1.600000e-01,8.000000e-02,
457,0.000000e+00,0.000000e+00,
458,-1.600000e-01,8.000000e-02,
459,0.000000e+00,0.000000e+00,
460,0.000000e+00,8.000000e-02,
461,-1.600000e-01,0.000000e+00,
462,0.000000e+00,8.000000e-02,
463,-1.600000e-01,0.000000e+00,
464,0.000000e+00,8.000000e-02,
465,-1.600000e-01,-8.000000e-02,
466,0.000000e+00,0.000000e+00,
467,-1.600000e-01,8.000000e-02,
468,0.000000e+00,0.000000e+00,
469,-1.600000e-01,8.000000e-02,
470,0.000000e+00,8.000000e-02,
471,-1.600000e-01,-8.000000e-02,
472,0.000000e+00,8.000000e-02,
473,-8.000000e-02,-8.000000e-02,
474,0.000000e+00,8.000000e-02,
475,-1.600000e-01,-8.000000e-02,
476,-8.000000e-02,8.000000e-02,
477,0.000000e+00,-8.000000e-02,
478,0.000000e+00,-8.000000e-02,
479,-1.600000e-01,8.000000e-02,
480,0.000000e+00,8.000000e-02,
481,-8.000000e-02,-8.000000e-02,
482,0.000000e+00,-8.000000e-02,
483,-1.600000e-01,8.000000e-02,
484,0.000000e+00,-8.000000e-02,
485,-1.600000e-01,8.000000e-02,
486,0.000000e+00,-8.000000e-02,
487,-1.600000e-01,8.000000e-02,
488,0.000000e+00,-8.000000e-02,
489,-8.000000e-02,8.000000e-02,
490,0.000000e+00,-8.000000e-02,
491,-1.600000e-01,8.000000e-02,
492,0.000000e+00,-8.000000e-02,
493,-8.000000e-02,8.000000e-02,
494,-8.000000e-02,-8.000000e-02,
495,8.000000e-02,8.000000e-02,
496,0.000000e+00,-8.000000e-02,
497,-8.000000e-02,8.000000e-02,
498,-8.000000e-02,-8.000000e-02,
499,0.000000e+00,8.000000e-02,
500,-8.000000e-02,0.000000e+00,
501,8.000000e-02,-8.000000e-02,
502,0.000000e+00,-8.000000e-02,
503,-1.600000e-01,8.000000e-02,
504,0.000000e+00,-8.000000e-02,
505,-8.000000e-02,8.000000e-02,
506,0.000000e+00,0.000000e+00,
507,-1.600000e-01,-8.000000e-02,
508,0.000000e+00,-8.000000e-02,
509,-8.000000e-02,8.000000e-02,
510,0.000000e+00,-8.000000e-02,
511,-8.000000e-02,8.000000e-02,
512,0.000000e+00,-8.000000e-02,
513,-8.000000e-02,8.000000e-02,
514,0.000000e+00,-8.000000e-02,
515,-8.000000e-02,8.000000e-02,
516,-8.000000e-02,0.000000e+00,
517,0.000000e+00,-8.000000e-02,
518,0.000000e+00,-8.000000e-02,
519,-8.000000e-02,8.000000e-02,
520,0.000000e+00,-8.000000e-02,
521,-8.000000e-02,8.000000e-02,
522,-8.000000e-02,-8.000000e-02,
523,0.000000e+00,8.000000e-02,
524,0.000000e+00,8.000000e-02,
525,-8.000000e-02,-8.000000e-02,
526,-1.600000e-01,-8.000000e-02,
527,8.000000e-02,8.000000e-02,
528,0.000000e+00,8.000000e-02,
529,-8.000000e-02,-8.000000e-02,
530,0.000000e+00,-8.000000e-02,
531,-8.000000e-02,8.000000e-02,
532,0.000000e+00,-8.000000e-02,
533,-8.000000e-02,8.000000e-02,
534,0.000000e+00,-8.000000e-02,
535,-1.600000e-01,8.000000e-02,
536,0.000000e+00,0.000000e+00,
537,-8.000000e-02,-8.000000e-02,
538,0.000000e+00,8.000000e-02,
539,-1.600000e-01,-8.000000e-02,
540,0.000000e+00,-8.000000e-02,
541,-1.600000e-01,8.000000e-02,
542,0.000000e+00,-8.000000e-02,
543,-8.000000e-02,8.000000e-02,
544,0.000000e+00,-8.000000e-02,
545,-8.000000e-02,8.000000e-02,
546,0.000000e+00,-8.000000e-02,
547,-8.000000e-02,8.000000e-02,
548,0.000000e+00,0.000000e+00,
549,-1.600000e-01,-8.000000e-02,
550,-8.000000e-02,-8.000000e-02,
551,0.000000e+00,8.000000e-02,
552,0.000000e+00,-8.000000e-02,
553,-8.000000e-02,8.000000e-02,
554,0.000000e+00,-8.000000e-02,
555,-8.000000e-02,8.000000e-02,
556,0.000000e+00,-8.000000e-02,
557,-8.000000e-02,8.000000e-02,
558,0.000000e+00,-8.000000e-02,
559,-8.000000e-02,8.000000e-02,
560,0.000000e+00,8.000000e-02,
561,-8.000000e-02,-8.000000e-02,
562,0.000000e+00,8.000000e-02,
563,-1.600000e-01,-8.000000e-02,
564,-1.600000e-01,-8.000000e-02,
565,8.000000e-02,8.000000e-02,
566,0.000000e+00,-8.000000e-02,
567,-1.600000e-01,8.000000e-02,
568,0.000000e+00,-8.000000e-02,
569,-1.600000e-01,8.000000e-02,
570,0.000000e+00,8.000000e-02,
571,-8.000000e-02,-8.000000e-02,
572,0.000000e+00,-8.000000e-02,
573,-8.000000e-02,8.000000e-02,
574,-8.000000e-02,0.000000e+00,
575,0.000000e+00,-8.000000e-02,
576,0.000000e+00,-8.000000e-02,
577,-8.000000e-02,8.000000e-02,
578,-8.000000e-02,-8.000000e-02,
579,0.000000e+00,8.000000e-02,
580,0.000000e+00,-8.000000e-02,
581,-1.600000e-01,8.000000e-02,
582,0.000000e+00,-8.000000e-02,
583,-8.000000e-02,8.000000e-02,
584,-8.000000e-02,-8.000000e-02,
585,0.000000e+00,8.000000e-02,
586,0.000000e+00,0.000000e+00,
587,-8.000000e-02,-8.000000e-02,
588,0.000000e+00,-8.000000e-02,
589,-8.000000e-02,8.000000e-02,
590,0.000000e+00,-8.000000e-02,
591,-8.000000e-02,8.000000e-02,
592,0.000000e+00,-8.000000e-02,
593,-1.600000e-01,8.000000e-02,
594,0.000000e+00,-8.000000e-02,
595,-8.000000e-02,8.000000e-02,
596,0.000000e+00,-8.000000e-02,
597,-1.600000e-01,8.000000e-02,
598,0.000000e+00,0.000000e+00,
599,-8.000000e-02,-8.000000e-02,
600,0.000000e+00,0.000000e+00,
601,-1.600000e-01,-8.000000e-02,
602,0.000000e+00,0.000000e+00,
603,-8.000000e-02,-8.000000e-02,
604,0.000000e+00,0.000000e+00,
605,-8.000000e-02,-8.000000e-02,
606,8.000000e-02,-8.000000e-02,
607,-8.000000e-02,8.000000e-02,
608,0.000000e+00,-8.000000e-02,
609,-1.600000e-01,8.000000e-02,
610,0.000000e+00,-8.000000e-02,
611,-1.600000e-01,8.000000e-02,
612,0.000000e+00,-8.000000e-02,
613,-8.000000e-02,8.000000e-02,
614,0.000000e+00,-8.000000e-02,
615,-1.600000e-01,8.000000e-02,
616,0.000000e+00,0.000000e+00,
617,-1.600000e-01,-8.000000e-02,
618,0.000000e+00,-8.000000e-02,
619,-8.000000e-02,8.000000e-02,
620,0.000000e+00,-8.000000e-02,
621,-8.000000e-02,8.000000e-02,
622,0.000000e+00,-8.000000e-02,
623,-1.600000e-01,8.000000e-02,
624,0.000000e+00,-8.000000e-02,
625,-8.000000e-02,8.000000e-02,
626,0.000000e+00,-8.000000e-02,
627,-1.600000e-01,8.000000e-02,
628,0.000000e+00,-8.000000e-02,
629,-8.000000e-02,8.000000e-02,
630,0.000000e+00,0.000000e+00,
631,-1.600000e-01,-8.000000e-02,
632,-8.000000e-02,0.000000e+00,
