实验2/data/xh5_.csv

X,CH1,CH2,Start,Increment,
Sequence,Volt,Volt,-1.400000e-04,2.000000e-07,
0,0.000000e+00,8.000000e-02,
1,-1.600000e-01,-8.000000e-02,
2,0.000000e+00,8.000000e-02,
3,-1.600000e-01,-8.000000e-02,
4,-1.600000e-01,8.000000e-02,
5,0.000000e+00,-8.000000e-02,
6,-1.600000e-01,-8.000000e-02,
7,0.000000e+00,8.000000e-02,
8,-1.600000e-01,8.000000e-02,
9,0.000000e+00,-8.000000e-02,
10,-1.600000e-01,-8.000000e-02,
11,0.000000e+00,8.000000e-02,
12,-1.600000e-01,-8.000000e-02,
13,0.000000e+00,8.000000e-02,
14,-1.600000e-01,8.000000e-02,
15,0.000000e+00,-8.000000e-02,
16,-1.600000e-01,-8.000000e-02,
17,0.000000e+00,8.000000e-02,
18,0.000000e+00,-8.000000e-02,
19,-1.600000e-01,8.000000e-02,
20,-1.600000e-01,-8.000000e-02,
21,0.000000e+00,8.000000e-02,
22,-1.600000e-01,8.000000e-02,
23,0.000000e+00,-8.000000e-02,
24,-1.600000e-01,8.000000e-02,
25,0.000000e+00,-8.000000e-02,
26,-1.600000e-01,-8.000000e-02,
27,0.000000e+00,8.000000e-02,
28,-1.600000e-01,-8.000000e-02,
29,0.000000e+00,8.000000e-02,
30,-1.600000e-01,-8.000000e-02,
31,0.000000e+00,8.000000e-02,
32,-1.600000e-01,-8.000000e-02,
33,0.000000e+00,8.000000e-02,
34,-1.600000e-01,-8.000000e-02,
35,0.000000e+00,8.000000e-02,
36,-1.600000e-01,-8.000000e-02,
37,0.000000e+00,8.000000e-02,
38,-1.600000e-01,-8.000000e-02,
39,0.000000e+00,8.000000e-02,
40,-1.600000e-01,-8.000000e-02,
41,0.000000e+00,8.000000e-02,
42,-1.600000e-01,-8.000000e-02,
43,0.000000e+00,8.000000e-02,
44,0.000000e+00,8.000000e-02,
45,-1.600000e-01,-8.000000e-02,
46,-1.600000e-01,8.000000e-02,
47,0.000000e+00,-8.000000e-02,
48,0.000000e+00,-8.000000e-02,
49,-1.600000e-01,8.000000e-02,
50,0.000000e+00,8.000000e-02,
51,-1.600000e-01,-8.000000e-02,
52,0.000000e+00,-8.000000e-02,
53,-1.600000e-01,8.000000e-02,
54,-1.600000e-01,-8.000000e-02,
55,0.000000e+00,8.000000e-02,
56,0.000000e+00,-8.000000e-02,
57,-1.600000e-01,8.000000e-02,
58,-1.600000e-01,-8.000000e-02,
59,0.000000e+00,8.000000e-02,
60,0.000000e+00,-8.000000e-02,
61,-1.600000e-01,8.000000e-02,
62,0.000000e+00,-8.000000e-02,
63,-1.600000e-01,8.000000e-02,
64,-1.600000e-01,-8.000000e-02,
65,0.000000e+00,8.000000e-02,
66,-1.600000e-01,-8.000000e-02,
67,0.000000e+00,8.000000e-02,
68,0.000000e+00,-8.000000e-02,
69,-1.600000e-01,8.000000e-02,
70,0.000000e+00,-8.000000e-02,
71,-1.600000e-01,8.000000e-02,
72,0.000000e+00,-8.000000e-02,
73,-1.600000e-01,8.000000e-02,
74,-1.600000e-01,8.000000e-02,
75,0.000000e+00,-8.000000e-02,
76,-1.600000e-01,-8.000000e-02,
77,0.000000e+00,8.000000e-02,
78,0.000000e+00,-8.000000e-02,
79,-1.600000e-01,8.000000e-02,
80,0.000000e+00,-8.000000e-02,
81,-1.600000e-01,8.000000e-02,
82,-1.600000e-01,-8.000000e-02,
83,0.000000e+00,8.000000e-02,
84,-1.600000e-01,-8.000000e-02,
85,0.000000e+00,8.000000e-02,
86,0.000000e+00,-8.000000e-02,
87,-1.600000e-01,8.000000e-02,
88,-1.600000e-01,-8.000000e-02,
89,0.000000e+00,8.000000e-02,
90,-1.600000e-01,-8.000000e-02,
91,0.000000e+00,8.000000e-02,
92,0.000000e+00,-8.000000e-02,
93,-1.600000e-01,8.000000e-02,
94,-1.600000e-01,-8.000000e-02,
95,0.000000e+00,8.000000e-02,
96,-1.600000e-01,-8.000000e-02,
97,0.000000e+00,8.000000e-02,
98,0.000000e+00,-8.000000e-02,
99,-1.600000e-01,8.000000e-02,
100,0.000000e+00,-8.000000e-02,
101,-1.600000e-01,8.000000e-02,
102,0.000000e+00,-8.000000e-02,
103,-1.600000e-01,8.000000e-02,
104,-1.600000e-01,-8.000000e-02,
105,0.000000e+00,8.000000e-02,
106,0.000000e+00,-8.000000e-02,
107,-1.600000e-01,8.000000e-02,
108,0.000000e+00,-8.000000e-02,
109,-1.600000e-01,8.000000e-02,
110,-1.600000e-01,-8.000000e-02,
111,0.000000e+00,8.000000e-02,
112,0.000000e+00,-8.000000e-02,
113,-1.600000e-01,8.000000e-02,
114,-1.600000e-01,-8.000000e-02,
115,0.000000e+00,8.000000e-02,
116,-1.600000e-01,8.000000e-02,
117,0.000000e+00,-8.000000e-02,
118,-1.600000e-01,-8.000000e-02,
119,0.000000e+00,8.000000e-02,
120,-1.600000e-01,-8.000000e-02,
121,0.000000e+00,8.000000e-02,
122,-1.600000e-01,-8.000000e-02,
123,0.000000e+00,8.000000e-02,
124,-1.600000e-01,0.000000e+00,
125,0.000000e+00,-8.000000e-02,
126,-1.600000e-01,-8.000000e-02,
127,0.000000e+00,8.000000e-02,
128,-1.600000e-01,-8.000000e-02,
129,0.000000e+00,8.000000e-02,
130,-1.600000e-01,-8.000000e-02,
131,0.000000e+00,8.000000e-02,
132,-1.600000e-01,-8.000000e-02,
133,0.000000e+00,8.000000e-02,
134,-1.600000e-01,-8.000000e-02,
135,0.000000e+00,8.000000e-02,
136,0.000000e+00,-8.000000e-02,
137,-1.600000e-01,8.000000e-02,
138,0.000000e+00,-8.000000e-02,
139,-1.600000e-01,8.000000e-02,
140,-1.600000e-01,-8.000000e-02,
141,0.000000e+00,8.000000e-02,
142,-1.600000e-01,-8.000000e-02,
143,0.000000e+00,8.000000e-02,
144,-1.600000e-01,8.000000e-02,
145,0.000000e+00,-8.000000e-02,
146,-1.600000e-01,-8.000000e-02,
147,0.000000e+00,8.000000e-02,
148,-1.600000e-01,8.000000e-02,
149,0.000000e+00,-8.000000e-02,
150,-1.600000e-01,8.000000e-02,
151,0.000000e+00,-8.000000e-02,
152,-1.600000e-01,-8.000000e-02,
153,0.000000e+00,8.000000e-02,
154,-1.600000e-01,-8.000000e-02,
155,0.000000e+00,8.000000e-02,
156,-1.600000e-01,-8.000000e-02,
157,0.000000e+00,8.000000e-02,
158,-1.600000e-01,-8.000000e-02,
159,0.000000e+00,8.000000e-02,
160,-1.600000e-01,-8.000000e-02,
161,0.000000e+00,8.000000e-02,
162,0.000000e+00,8.000000e-02,
163,-1.600000e-01,-8.000000e-02,
164,-1.600000e-01,-8.000000e-02,
165,0.000000e+00,8.000000e-02,
166,-1.600000e-01,-8.000000e-02,
167,0.000000e+00,8.000000e-02,
168,0.000000e+00,-8.000000e-02,
169,-1.600000e-01,8.000000e-02,
170,-1.600000e-01,-8.000000e-02,
171,0.000000e+00,8.000000e-02,
172,-1.600000e-01,8.000000e-02,
173,0.000000e+00,-8.000000e-02,
174,-1.600000e-01,-8.000000e-02,
175,0.000000e+00,8.000000e-02,
176,0.000000e+00,-8.000000e-02,
177,-1.600000e-01,8.000000e-02,
178,-1.600000e-01,-8.000000e-02,
179,0.000000e+00,8.000000e-02,
180,-1.600000e-01,-8.000000e-02,
181,0.000000e+00,8.000000e-02,
182,-1.600000e-01,-8.000000e-02,
183,0.000000e+00,8.000000e-02,
184,-1.600000e-01,-8.000000e-02,
185,0.000000e+00,8.000000e-02,
186,-1.600000e-01,-8.000000e-02,
187,0.000000e+00,8.000000e-02,
188,-1.600000e-01,-8.000000e-02,
189,0.000000e+00,8.000000e-02,
190,-1.600000e-01,-8.000000e-02,
191,0.000000e+00,8.000000e-02,
192,-1.600000e-01,-8.000000e-02,
193,0.000000e+00,8.000000e-02,
194,-1.600000e-01,8.000000e-02,
195,0.000000e+00,-8.000000e-02,
196,-1.600000e-01,-8.000000e-02,
197,0.000000e+00,8.000000e-02,
198,-1.600000e-01,-8.000000e-02,
199,0.000000e+00,8.000000e-02,
200,-1.600000e-01,-8.000000e-02,
201,4.320000e+00,9.600000e-01,
202,1.360000e+00,-8.000000e-02,
203,4.000000e-01,3.200000e-01,
204,4.800000e-01,8.000000e-02,
205,2.400000e-01,0.000000e+00,
206,3.200000e-01,0.000000e+00,
207,1.600000e-01,8.000000e-02,
208,2.400000e-01,8.000000e-02,
209,1.600000e-01,0.000000e+00,
210,2.400000e-01,8.000000e-02,
211,8.000000e-02,0.000000e+00,
212,2.400000e-01,0.000000e+00,
213,8.000000e-02,8.000000e-02,
214,8.000000e-02,8.000000e-02,
215,2.400000e-01,0.000000e+00,
216,8.000000e-02,0.000000e+00,
217,2.400000e-01,8.000000e-02,
218,8.000000e-02,8.000000e-02,
219,2.400000e-01,0.000000e+00,
220,8.000000e-02,8.000000e-02,
221,2.400000e-01,0.000000e+00,
222,1.600000e-01,8.000000e-02,
223,8.000000e-02,0.000000e+00,
224,1.600000e-01,0.000000e+00,
225,8.000000e-02,1.600000e-01,
226,8.000000e-02,0.000000e+00,
227,2.400000e-01,1.600000e-01,
228,8.000000e-02,1.600000e-01,
229,2.400000e-01,0.000000e+00,
230,8.000000e-02,0.000000e+00,
231,2.400000e-01,1.600000e-01,
232,8.000000e-02,1.600000e-01,
233,2.400000e-01,0.000000e+00,
234,8.000000e-02,0.000000e+00,
235,2.400000e-01,1.600000e-01,
236,1.600000e-01,0.000000e+00,
237,8.000000e-02,1.600000e-01,
238,8.000000e-02,0.000000e+00,
239,2.400000e-01,1.600000e-01,
240,8.000000e-02,0.000000e+00,
241,2.400000e-01,1.600000e-01,
242,8.000000e-02,0.000000e+00,
243,2.400000e-01,1.600000e-01,
244,1.600000e-01,0.000000e+00,
245,8.000000e-02,1.600000e-01,
246,1.600000e-01,0.000000e+00,
247,8.000000e-02,1.600000e-01,
248,1.600000e-01,0.000000e+00,
249,8.000000e-02,1.600000e-01,
250,1.600000e-01,0.000000e+00,
251,8.000000e-02,1.600000e-01,
252,1.600000e-01,1.600000e-01,
253,8.000000e-02,0.000000e+00,
254,1.600000e-01,0.000000e+00,
255,8.000000e-02,1.600000e-01,
256,8.000000e-02,0.000000e+00,
257,2.400000e-01,1.600000e-01,
258,8.000000e-02,0.000000e+00,
259,2.400000e-01,1.600000e-01,
260,8.000000e-02,0.000000e+00,
261,2.400000e-01,1.600000e-01,
262,8.000000e-02,0.000000e+00,
263,1.600000e-01,1.600000e-01,
264,1.600000e-01,0.000000e+00,
265,8.000000e-02,1.600000e-01,
266,2.400000e-01,0.000000e+00,
267,8.000000e-02,1.600000e-01,
268,8.000000e-02,1.600000e-01,
269,2.400000e-01,0.000000e+00,
270,8.000000e-02,1.600000e-01,
271,1.600000e-01,0.000000e+00,
272,1.600000e-01,0.000000e+00,
273,8.000000e-02,1.600000e-01,
274,1.600000e-01,1.600000e-01,
275,8.000000e-02,0.000000e+00,
276,0.000000e+00,0.000000e+00,
277,2.400000e-01,1.600000e-01,
278,8.000000e-02,1.600000e-01,
279,2.400000e-01,0.000000e+00,
280,8.000000e-02,0.000000e+00,
281,2.400000e-01,1.600000e-01,
282,8.000000e-02,0.000000e+00,
283,1.600000e-01,1.600000e-01,
284,1.600000e-01,0.000000e+00,
285,8.000000e-02,1.600000e-01,
286,8.000000e-02,1.600000e-01,
287,1.600000e-01,0.000000e+00,
288,1.600000e-01,1.600000e-01,
289,8.000000e-02,0.000000e+00,
290,8.000000e-02,1.600000e-01,
291,1.600000e-01,0.000000e+00,
292,8.000000e-02,1.600000e-01,
293,2.400000e-01,0.000000e+00,
294,8.000000e-02,0.000000e+00,
295,2.400000e-01,1.600000e-01,
296,1.600000e-01,0.000000e+00,
297,8.000000e-02,1.600000e-01,
298,1.600000e-01,0.000000e+00,
299,8.000000e-02,1.600000e-01,
300,8.000000e-02,0.000000e+00,
301,2.400000e-01,1.600000e-01,
302,8.000000e-02,1.600000e-01,
303,2.400000e-01,0.000000e+00,
304,8.000000e-02,0.000000e+00,
305,2.400000e-01,1.600000e-01,
306,1.600000e-01,0.000000e+00,
307,8.000000e-02,1.600000e-01,
308,8.000000e-02,1.600000e-01,
309,2.400000e-01,0.000000e+00,
310,8.000000e-02,1.600000e-01,
311,1.600000e-01,0.000000e+00,
312,1.600000e-01,0.000000e+00,
313,8.000000e-02,1.600000e-01,
314,1.600000e-01,1.600000e-01,
315,8.000000e-02,0.000000e+00,
316,1.600000e-01,0.000000e+00,
317,8.000000e-02,1.600000e-01,
318,8.000000e-02,0.000000e+00,
319,2.400000e-01,1.600000e-01,
320,8.000000e-02,0.000000e+00,
321,2.400000e-01,1.600000e-01,
322,8.000000e-02,1.600000e-01,
323,2.400000e-01,0.000000e+00,
324,1.600000e-01,0.000000e+00,
325,8.000000e-02,1.600000e-01,
326,8.000000e-02,0.000000e+00,
327,2.400000e-01,1.600000e-01,
328,1.600000e-01,0.000000e+00,
329,8.000000e-02,1.600000e-01,
330,1.600000e-01,0.000000e+00,
331,8.000000e-02,1.600000e-01,
332,1.600000e-01,1.600000e-01,
333,8.000000e-02,0.000000e+00,
334,1.600000e-01,0.000000e+00,
335,8.000000e-02,1.600000e-01,
336,8.000000e-02,1.600000e-01,
337,2.400000e-01,0.000000e+00,
338,8.000000e-02,0.000000e+00,
339,2.400000e-01,1.600000e-01,
340,1.600000e-01,0.000000e+00,
341,8.000000e-02,1.600000e-01,
342,1.600000e-01,0.000000e+00,
343,8.000000e-02,1.600000e-01,
344,1.600000e-01,1.600000e-01,
345,8.000000e-02,0.000000e+00,
346,8.000000e-02,1.600000e-01,
347,2.400000e-01,0.000000e+00,
348,8.000000e-02,0.000000e+00,
349,2.400000e-01,1.600000e-01,
350,8.000000e-02,0.000000e+00,
351,2.400000e-01,1.600000e-01,
352,8.000000e-02,0.000000e+00,
353,2.400000e-01,1.600000e-01,
354,8.000000e-02,1.600000e-01,
355,2.400000e-01,0.000000e+00,
356,1.600000e-01,1.600000e-01,
357,8.000000e-02,0.000000e+00,
358,8.000000e-02,0.000000e+00,
359,2.400000e-01,1.600000e-01,
360,1.600000e-01,1.600000e-01,
361,8.000000e-02,0.000000e+00,
362,8.000000e-02,1.600000e-01,
363,2.400000e-01,0.000000e+00,
364,8.000000e-02,0.000000e+00,
365,2.400000e-01,1.600000e-01,
366,1.600000e-01,1.600000e-01,
367,8.000000e-02,0.000000e+00,
368,1.600000e-01,1.600000e-01,
369,8.000000e-02,0.000000e+00,
370,8.000000e-02,1.600000e-01,
371,1.600000e-01,0.000000e+00,
372,1.600000e-01,0.000000e+00,
373,8.000000e-02,1.600000e-01,
374,8.000000e-02,1.600000e-01,
375,2.400000e-01,0.000000e+00,
376,1.600000e-01,0.000000e+00,
377,8.000000e-02,1.600000e-01,
378,1.600000e-01,0.000000e+00,
379,8.000000e-02,1.600000e-01,
380,1.600000e-01,1.600000e-01,
381,8.000000e-02,0.000000e+00,
382,1.600000e-01,0.000000e+00,
383,8.000000e-02,1.600000e-01,
384,8.000000e-02,1.600000e-01,
385,2.400000e-01,0.000000e+00,
386,1.600000e-01,1.600000e-01,
387,8.000000e-02,0.000000e+00,
388,1.600000e-01,1.600000e-01,
389,8.000000e-02,0.000000e+00,
390,1.600000e-01,1.600000e-01,
391,8.000000e-02,0.000000e+00,
392,8.000000e-02,0.000000e+00,
393,2.400000e-01,1.600000e-01,
394,1.600000e-01,0.000000e+00,
395,8.000000e-02,1.600000e-01,
396,8.000000e-02,0.000000e+00,
397,2.400000e-01,1.600000e-01,
398,1.600000e-01,0.000000e+00,
399,8.000000e-02,1.600000e-01,
400,1.600000e-01,1.600000e-01,
401,8.000000e-02,0.000000e+00,
402,8.000000e-02,1.600000e-01,
403,1.600000e-01,0.000000e+00,
404,1.600000e-01,0.000000e+00,
405,0.000000e+00,1.600000e-01,
406,8.000000e-02,1.600000e-01,
407,1.600000e-01,0.000000e+00,
408,1.600000e-01,0.000000e+00,
409,8.000000e-02,1.600000e-01,
410,1.600000e-01,1.600000e-01,
411,8.000000e-02,0.000000e+00,
412,1.600000e-01,1.600000e-01,
413,8.000000e-02,0.000000e+00,
414,1.600000e-01,1.600000e-01,
415,0.000000e+00,0.000000e+00,
416,1.600000e-01,1.600000e-01,
417,8.000000e-02,0.000000e+00,
418,8.000000e-02,1.600000e-01,
419,2.400000e-01,0.000000e+00,
420,8.000000e-02,1.600000e-01,
421,2.400000e-01,0.000000e+00,
422,1.600000e-01,1.600000e-01,
423,8.000000e-02,0.000000e+00,
424,1.600000e-01,0.000000e+00,
425,8.000000e-02,1.600000e-01,
426,1.600000e-01,0.000000e+00,
427,8.000000e-02,1.600000e-01,
428,8.000000e-02,1.600000e-01,
429,2.400000e-01,0.000000e+00,
430,8.000000e-02,0.000000e+00,
431,2.400000e-01,1.600000e-01,
432,8.000000e-02,0.000000e+00,
433,2.400000e-01,1.600000e-01,
434,1.600000e-01,1.600000e-01,
435,8.000000e-02,0.000000e+00,
436,8.000000e-02,1.600000e-01,
437,2.400000e-01,0.000000e+00,
438,1.600000e-01,1.600000e-01,
439,8.000000e-02,0.000000e+00,
440,1.600000e-01,1.600000e-01,
441,8.000000e-02,0.000000e+00,
442,1.600000e-01,1.600000e-01,
443,8.000000e-02,0.000000e+00,
444,8.000000e-02,1.600000e-01,
445,2.400000e-01,0.000000e+00,
446,1.600000e-01,0.000000e+00,
447,8.000000e-02,1.600000e-01,
448,8.000000e-02,0.000000e+00,
449,2.400000e-01,1.600000e-01,
450,2.400000e-01,-9.600000e-01,
451,-4.160000e+00,2.400000e-01,
452,-1.280000e+00,-1.600000e-01,
453,-3.200000e-01,1.600000e-01,
454,-4.000000e-01,8.000000e-02,
455,-1.600000e-01,0.000000e+00,
456,-2.400000e-01,8.000000e-02,
457,-8.000000e-02,0.000000e+00,
458,-2.400000e-01,0.000000e+00,
459,-8.000000e-02,8.000000e-02,
460,-1.600000e-01,8.000000e-02,
461,-8.000000e-02,0.000000e+00,
462,-8.000000e-02,0.000000e+00,
463,-1.600000e-01,8.000000e-02,
464,-1.600000e-01,8.000000e-02,
465,0.000000e+00,0.000000e+00,
466,-1.600000e-01,0.000000e+00,
467,0.000000e+00,8.000000e-02,
468,-1.600000e-01,8.000000e-02,
469,0.000000e+00,-8.000000e-02,
470,-1.600000e-01,8.000000e-02,
471,0.000000e+00,-8.000000e-02,
472,-1.600000e-01,8.000000e-02,
473,0.000000e+00,-8.000000e-02,
474,-1.600000e-01,0.000000e+00,
475,0.000000e+00,8.000000e-02,
476,-1.600000e-01,8.000000e-02,
477,0.000000e+00,-8.000000e-02,
478,-1.600000e-01,8.000000e-02,
479,0.000000e+00,-8.000000e-02,
480,-1.600000e-01,8.000000e-02,
481,0.000000e+00,-8.000000e-02,
482,-1.600000e-01,8.000000e-02,
483,0.000000e+00,-8.000000e-02,
484,-1.600000e-01,0.000000e+00,
485,0.000000e+00,8.000000e-02,
486,0.000000e+00,8.000000e-02,
487,-1.600000e-01,-8.000000e-02,
488,-1.600000e-01,8.000000e-02,
489,0.000000e+00,-8.000000e-02,
490,-1.600000e-01,8.000000e-02,
491,0.000000e+00,-8.000000e-02,
492,-1.600000e-01,8.000000e-02,
493,0.000000e+00,-8.000000e-02,
494,-1.600000e-01,8.000000e-02,
495,0.000000e+00,-8.000000e-02,
496,-1.600000e-01,-8.000000e-02,
497,0.000000e+00,8.000000e-02,
498,-1.600000e-01,-8.000000e-02,
499,0.000000e+00,8.000000e-02,
500,0.000000e+00,8.000000e-02,
501,-1.600000e-01,-8.000000e-02,
502,-1.600000e-01,-8.000000e-02,
503,0.000000e+00,8.000000e-02,
504,-1.600000e-01,8.000000e-02,
505,0.000000e+00,-8.000000e-02,
506,-1.600000e-01,8.000000e-02,
507,0.000000e+00,-8.000000e-02,
508,-1.600000e-01,8.000000e-02,
509,0.000000e+00,-8.000000e-02,
510,0.000000e+00,8.000000e-02,
511,-1.600000e-01,-8.000000e-02,
512,-1.600000e-01,-8.000000e-02,
513,0.000000e+00,8.000000e-02,
514,0.000000e+00,8.000000e-02,
515,-1.600000e-01,-8.000000e-02,
516,-1.600000e-01,-8.000000e-02,
517,0.000000e+00,8.000000e-02,
518,-1.600000e-01,8.000000e-02,
519,0.000000e+00,-8.000000e-02,
520,-1.600000e-01,-8.000000e-02,
521,0.000000e+00,8.000000e-02,
522,0.000000e+00,-8.000000e-02,
523,-1.600000e-01,8.000000e-02,
524,-1.600000e-01,-8.000000e-02,
525,0.000000e+00,8.000000e-02,
526,0.000000e+00,8.000000e-02,
527,-1.600000e-01,-8.000000e-02,
528,-1.600000e-01,-8.000000e-02,
529,0.000000e+00,8.000000e-02,
530,0.000000e+00,-8.000000e-02,
531,-1.600000e-01,8.000000e-02,
532,-1.600000e-01,-8.000000e-02,
533,0.000000e+00,8.000000e-02,
534,-1.600000e-01,-8.000000e-02,
535,0.000000e+00,8.000000e-02,
536,-1.600000e-01,-8.000000e-02,
537,0.000000e+00,8.000000e-02,
538,0.000000e+00,8.000000e-02,
539,-1.600000e-01,-8.000000e-02,
540,-1.600000e-01,-8.000000e-02,
541,0.000000e+00,8.000000e-02,
542,0.000000e+00,-8.000000e-02,
543,-1.600000e-01,8.000000e-02,
544,-1.600000e-01,-8.000000e-02,
545,0.000000e+00,8.000000e-02,
546,-1.600000e-01,-8.000000e-02,
547,0.000000e+00,8.000000e-02,
548,-1.600000e-01,8.000000e-02,
549,0.000000e+00,-8.000000e-02,
550,-1.600000e-01,-8.000000e-02,
551,0.000000e+00,8.000000e-02,
552,-1.600000e-01,-8.000000e-02,
553,0.000000e+00,8.000000e-02,
554,0.000000e+00,8.000000e-02,
555,-1.600000e-01,-8.000000e-02,
556,0.000000e+00,-8.000000e-02,
557,-1.600000e-01,8.000000e-02,
558,-1.600000e-01,-8.000000e-02,
559,0.000000e+00,8.000000e-02,
560,0.000000e+00,8.000000e-02,
561,-1.600000e-01,-8.000000e-02,
562,-1.600000e-01,-8.000000e-02,
563,0.000000e+00,8.000000e-02,
564,-1.600000e-01,-8.000000e-02,
565,0.000000e+00,8.000000e-02,
566,-1.600000e-01,-8.000000e-02,
567,0.000000e+00,8.000000e-02,
568,-1.600000e-01,-8.000000e-02,
569,0.000000e+00,8.000000e-02,
570,-1.600000e-01,-8.000000e-02,
571,0.000000e+00,8.000000e-02,
572,-1.600000e-01,8.000000e-02,
573,0.000000e+00,-8.000000e-02,
574,-1.600000e-01,8.000000e-02,
575,0.000000e+00,-8.000000e-02,
576,-1.600000e-01,-8.000000e-02,
577,0.000000e+00,8.000000e-02,
578,-1.600000e-01,-8.000000e-02,
579,0.000000e+00,8.000000e-02,
580,-1.600000e-01,8.000000e-02,
581,0.000000e+00,-8.000000e-02,
582,-1.600000e-01,8.000000e-02,
583,0.000000e+00,-8.000000e-02,
584,-1.600000e-01,-8.000000e-02,
585,0.000000e+00,8.000000e-02,
586,-1.600000e-01,-8.000000e-02,
587,0.000000e+00,8.000000e-02,
588,0.000000e+00,-8.000000e-02,
589,-1.600000e-01,8.000000e-02,
590,-1.600000e-01,0.000000e+00,
591,0.000000e+00,-8.000000e-02,
592,-1.600000e-01,-8.000000e-02,
593,0.000000e+00,8.000000e-02,
594,-1.600000e-01,-8.000000e-02,
595,0.000000e+00,8.000000e-02,
596,-1.600000e-01,-8.000000e-02,
597,0.000000e+00,8.000000e-02,
598,-1.600000e-01,-8.000000e-02,
599,0.000000e+00,8.000000e-02,
600,-1.600000e-01,8.000000e-02,
601,0.000000e+00,-8.000000e-02,
602,-1.600000e-01,-8.000000e-02,
603,0.000000e+00,8.000000e-02,
604,0.000000e+00,-8.000000e-02,
605,-1.600000e-01,8.000000e-02,
606,-1.600000e-01,8.000000e-02,
607,0.000000e+00,-8.000000e-02,
608,-1.600000e-01,-8.000000e-02,
609,0.000000e+00,8.000000e-02,
610,-1.600000e-01,-8.000000e-02,
611,0.000000e+00,8.000000e-02,
612,0.000000e+00,-8.000000e-02,
613,-1.600000e-01,8.000000e-02,
614,0.000000e+00,-8.000000e-02,
615,-1.600000e-01,8.000000e-02,
616,-1.600000e-01,-8.000000e-02,
617,0.000000e+00,8.000000e-02,
618,-1.600000e-01,-8.000000e-02,
619,0.000000e+00,8.000000e-02,
620,-1.600000e-01,-8.000000e-02,
621,0.000000e+00,8.000000e-02,
622,-1.600000e-01,8.000000e-02,
623,0.000000e+00,-8.000000e-02,
624,-1.600000e-01,-8.000000e-02,
625,0.000000e+00,8.000000e-02,
626,-1.600000e-01,8.000000e-02,
627,0.000000e+00,-8.000000e-02,
628,-1.600000e-01,-8.000000e-02,
629,0.000000e+00,8.000000e-02,
630,-1.600000e-01,-8.000000e-02,
631,0.000000e+00,8.000000e-02,
632,-1.600000e-01,8.000000e-02,
