实验2/data/xh66_.csv

X,CH1,CH2,Start,Increment,
Sequence,Volt,Volt,-1.378040e-04,2.000000e-07,
0,0.000000e+00,8.000000e-02,
1,-8.000000e-02,0.000000e+00,
2,0.000000e+00,8.000000e-02,
3,-8.000000e-02,0.000000e+00,
4,0.000000e+00,0.000000e+00,
5,-8.000000e-02,8.000000e-02,
6,-1.600000e-01,8.000000e-02,
7,8.000000e-02,0.000000e+00,
8,-8.000000e-02,8.000000e-02,
9,8.000000e-02,0.000000e+00,
10,8.000000e-02,8.000000e-02,
11,-1.600000e-01,0.000000e+00,
12,-8.000000e-02,8.000000e-02,
13,8.000000e-02,0.000000e+00,
14,-8.000000e-02,8.000000e-02,
15,8.000000e-02,0.000000e+00,
16,0.000000e+00,0.000000e+00,
17,-1.600000e-01,8.000000e-02,
18,-8.000000e-02,0.000000e+00,
19,8.000000e-02,8.000000e-02,
20,0.000000e+00,8.000000e-02,
21,-8.000000e-02,0.000000e+00,
22,0.000000e+00,8.000000e-02,
23,-8.000000e-02,0.000000e+00,
24,0.000000e+00,8.000000e-02,
25,-8.000000e-02,0.000000e+00,
26,0.000000e+00,8.000000e-02,
27,-1.600000e-01,0.000000e+00,
28,0.000000e+00,0.000000e+00,
29,-8.000000e-02,8.000000e-02,
30,8.000000e-02,8.000000e-02,
31,-1.600000e-01,-8.000000e-02,
32,0.000000e+00,8.000000e-02,
33,-1.600000e-01,0.000000e+00,
34,-1.600000e-01,0.000000e+00,
35,8.000000e-02,8.000000e-02,
36,0.000000e+00,8.000000e-02,
37,-8.000000e-02,0.000000e+00,
38,0.000000e+00,0.000000e+00,
39,-1.600000e-01,8.000000e-02,
40,0.000000e+00,8.000000e-02,
41,-1.600000e-01,0.000000e+00,
42,0.000000e+00,0.000000e+00,
43,-1.600000e-01,8.000000e-02,
44,0.000000e+00,8.000000e-02,
45,-1.600000e-01,0.000000e+00,
46,0.000000e+00,0.000000e+00,
47,-1.600000e-01,8.000000e-02,
48,0.000000e+00,8.000000e-02,
49,-1.600000e-01,0.000000e+00,
50,0.000000e+00,8.000000e-02,
51,-1.600000e-01,0.000000e+00,
52,0.000000e+00,0.000000e+00,
53,-1.600000e-01,8.000000e-02,
54,0.000000e+00,8.000000e-02,
55,-1.600000e-01,-8.000000e-02,
56,0.000000e+00,8.000000e-02,
57,-1.600000e-01,-8.000000e-02,
58,0.000000e+00,0.000000e+00,
59,-1.600000e-01,8.000000e-02,
60,0.000000e+00,8.000000e-02,
61,-1.600000e-01,-8.000000e-02,
62,0.000000e+00,8.000000e-02,
63,-1.600000e-01,-8.000000e-02,
64,0.000000e+00,0.000000e+00,
65,-1.600000e-01,8.000000e-02,
66,0.000000e+00,0.000000e+00,
67,-1.600000e-01,8.000000e-02,
68,0.000000e+00,0.000000e+00,
69,-1.600000e-01,8.000000e-02,
70,0.000000e+00,0.000000e+00,
71,-1.600000e-01,8.000000e-02,
72,0.000000e+00,8.000000e-02,
73,-1.600000e-01,-8.000000e-02,
74,0.000000e+00,8.000000e-02,
75,-1.600000e-01,-8.000000e-02,
76,0.000000e+00,8.000000e-02,
77,-1.600000e-01,0.000000e+00,
78,0.000000e+00,8.000000e-02,
79,-1.600000e-01,-8.000000e-02,
80,0.000000e+00,8.000000e-02,
81,-1.600000e-01,-8.000000e-02,
82,0.000000e+00,8.000000e-02,
83,-1.600000e-01,-8.000000e-02,
84,0.000000e+00,8.000000e-02,
85,-1.600000e-01,-8.000000e-02,
86,0.000000e+00,0.000000e+00,
87,-1.600000e-01,8.000000e-02,
88,0.000000e+00,8.000000e-02,
89,-1.600000e-01,-8.000000e-02,
90,0.000000e+00,8.000000e-02,
91,-1.600000e-01,0.000000e+00,
92,0.000000e+00,0.000000e+00,
93,-1.600000e-01,8.000000e-02,
94,0.000000e+00,0.000000e+00,
95,-1.600000e-01,8.000000e-02,
96,0.000000e+00,8.000000e-02,
97,-1.600000e-01,-8.000000e-02,
98,0.000000e+00,8.000000e-02,
99,-1.600000e-01,-8.000000e-02,
100,0.000000e+00,0.000000e+00,
101,-1.600000e-01,8.000000e-02,
102,0.000000e+00,8.000000e-02,
103,-1.600000e-01,-8.000000e-02,
104,0.000000e+00,0.000000e+00,
105,-1.600000e-01,8.000000e-02,
106,0.000000e+00,8.000000e-02,
107,-1.600000e-01,0.000000e+00,
108,0.000000e+00,0.000000e+00,
109,-1.600000e-01,8.000000e-02,
110,0.000000e+00,8.000000e-02,
111,-1.600000e-01,0.000000e+00,
112,0.000000e+00,0.000000e+00,
113,-1.600000e-01,8.000000e-02,
114,0.000000e+00,0.000000e+00,
115,-1.600000e-01,8.000000e-02,
116,0.000000e+00,8.000000e-02,
117,-1.600000e-01,0.000000e+00,
118,0.000000e+00,8.000000e-02,
119,-1.600000e-01,0.000000e+00,
120,0.000000e+00,8.000000e-02,
121,-1.600000e-01,0.000000e+00,
122,0.000000e+00,8.000000e-02,
123,-1.600000e-01,-8.000000e-02,
124,0.000000e+00,8.000000e-02,
125,-1.600000e-01,0.000000e+00,
126,0.000000e+00,0.000000e+00,
127,-1.600000e-01,8.000000e-02,
128,0.000000e+00,0.000000e+00,
129,-1.600000e-01,8.000000e-02,
130,0.000000e+00,8.000000e-02,
131,-1.600000e-01,0.000000e+00,
132,0.000000e+00,0.000000e+00,
133,-1.600000e-01,8.000000e-02,
134,0.000000e+00,0.000000e+00,
135,-1.600000e-01,8.000000e-02,
136,0.000000e+00,8.000000e-02,
137,-1.600000e-01,-8.000000e-02,
138,0.000000e+00,0.000000e+00,
139,-1.600000e-01,8.000000e-02,
140,0.000000e+00,0.000000e+00,
141,-1.600000e-01,8.000000e-02,
142,0.000000e+00,8.000000e-02,
143,-1.600000e-01,-8.000000e-02,
144,0.000000e+00,0.000000e+00,
145,-1.600000e-01,8.000000e-02,
146,0.000000e+00,0.000000e+00,
147,-1.600000e-01,8.000000e-02,
148,0.000000e+00,8.000000e-02,
149,-1.600000e-01,-8.000000e-02,
150,0.000000e+00,8.000000e-02,
151,-1.600000e-01,-8.000000e-02,
152,0.000000e+00,0.000000e+00,
153,-1.600000e-01,8.000000e-02,
154,0.000000e+00,8.000000e-02,
155,-1.600000e-01,-8.000000e-02,
156,-1.600000e-01,8.000000e-02,
157,8.000000e-02,-8.000000e-02,
158,0.000000e+00,8.000000e-02,
159,-1.600000e-01,-8.000000e-02,
160,0.000000e+00,0.000000e+00,
161,-1.600000e-01,8.000000e-02,
162,0.000000e+00,8.000000e-02,
163,-1.600000e-01,0.000000e+00,
164,0.000000e+00,0.000000e+00,
165,-1.600000e-01,8.000000e-02,
166,0.000000e+00,0.000000e+00,
167,-1.600000e-01,8.000000e-02,
168,0.000000e+00,8.000000e-02,
169,-1.600000e-01,0.000000e+00,
170,0.000000e+00,8.000000e-02,
171,-1.600000e-01,-8.000000e-02,
172,0.000000e+00,0.000000e+00,
173,-1.600000e-01,8.000000e-02,
174,0.000000e+00,0.000000e+00,
175,-1.600000e-01,8.000000e-02,
176,0.000000e+00,8.000000e-02,
177,-1.600000e-01,-8.000000e-02,
178,0.000000e+00,8.000000e-02,
179,-1.600000e-01,-8.000000e-02,
180,0.000000e+00,8.000000e-02,
181,-1.600000e-01,0.000000e+00,
182,0.000000e+00,0.000000e+00,
183,-1.600000e-01,8.000000e-02,
184,0.000000e+00,0.000000e+00,
185,-1.600000e-01,8.000000e-02,
186,0.000000e+00,8.000000e-02,
187,-1.600000e-01,-8.000000e-02,
188,-1.600000e-01,0.000000e+00,
189,8.000000e-01,8.000000e-02,
190,7.200000e-01,0.000000e+00,
191,3.280000e+00,3.120000e+00,
192,3.280000e+00,3.040000e+00,
193,4.800000e+00,5.200000e+00,
194,4.720000e+00,5.120000e+00,
195,6.320000e+00,6.560000e+00,
196,6.240000e+00,6.480000e+00,
197,7.360000e+00,7.440000e+00,
198,7.360000e+00,7.440000e+00,
199,8.160000e+00,8.160000e+00,
200,8.000000e+00,8.160000e+00,
201,8.720000e+00,8.720000e+00,
202,8.559999e+00,8.639999e+00,
203,9.040000e+00,9.120000e+00,
204,8.960000e+00,9.040000e+00,
205,9.280000e+00,9.360000e+00,
206,9.200000e+00,9.360000e+00,
207,9.520000e+00,9.599999e+00,
208,9.360000e+00,9.520000e+00,
209,9.679999e+00,9.760000e+00,
210,9.520000e+00,9.679999e+00,
211,9.760000e+00,9.840000e+00,
212,9.599999e+00,9.760000e+00,
213,9.840000e+00,9.920000e+00,
214,9.679999e+00,9.840000e+00,
215,9.920000e+00,1.000000e+01,
216,9.920000e+00,9.920000e+00,
217,9.760000e+00,1.008000e+01,
218,9.840000e+00,1.008000e+01,
219,1.000000e+01,9.920000e+00,
220,9.840000e+00,1.008000e+01,
221,1.000000e+01,1.000000e+01,
222,9.840000e+00,1.000000e+01,
223,1.000000e+01,1.016000e+01,
224,1.000000e+01,1.000000e+01,
225,9.840000e+00,1.016000e+01,
226,1.000000e+01,1.000000e+01,
227,9.840000e+00,1.016000e+01,
228,1.000000e+01,1.000000e+01,
229,9.920000e+00,1.016000e+01,
230,9.920000e+00,1.016000e+01,
231,1.008000e+01,1.000000e+01,
232,9.920000e+00,1.016000e+01,
233,1.008000e+01,1.000000e+01,
234,9.920000e+00,1.016000e+01,
235,1.008000e+01,1.000000e+01,
236,9.920000e+00,1.016000e+01,
237,1.008000e+01,1.000000e+01,
238,9.920000e+00,1.016000e+01,
239,1.008000e+01,1.000000e+01,
240,9.920000e+00,1.008000e+01,
241,1.008000e+01,1.024000e+01,
242,9.920000e+00,1.016000e+01,
243,1.008000e+01,1.008000e+01,
244,1.008000e+01,1.008000e+01,
245,9.920000e+00,1.024000e+01,
246,9.920000e+00,1.008000e+01,
247,1.008000e+01,1.024000e+01,
248,1.008000e+01,1.016000e+01,
249,9.920000e+00,1.008000e+01,
250,1.008000e+01,1.008000e+01,
251,9.920000e+00,1.024000e+01,
252,1.008000e+01,1.016000e+01,
253,9.920000e+00,1.008000e+01,
254,1.008000e+01,1.016000e+01,
255,9.920000e+00,1.008000e+01,
256,1.008000e+01,1.008000e+01,
257,9.920000e+00,1.024000e+01,
258,1.008000e+01,1.008000e+01,
259,9.920000e+00,1.024000e+01,
260,1.008000e+01,1.008000e+01,
261,9.920000e+00,1.024000e+01,
262,1.008000e+01,1.016000e+01,
263,9.920000e+00,1.008000e+01,
264,1.008000e+01,1.008000e+01,
265,9.920000e+00,1.024000e+01,
266,1.008000e+01,1.008000e+01,
267,9.920000e+00,1.024000e+01,
268,1.008000e+01,1.008000e+01,
269,9.920000e+00,1.024000e+01,
270,1.008000e+01,1.008000e+01,
271,9.920000e+00,1.024000e+01,
272,1.008000e+01,1.008000e+01,
273,9.920000e+00,1.024000e+01,
274,1.008000e+01,1.008000e+01,
275,9.920000e+00,1.024000e+01,
276,1.008000e+01,1.008000e+01,
277,9.920000e+00,1.024000e+01,
278,1.008000e+01,1.008000e+01,
279,9.920000e+00,1.024000e+01,
280,1.008000e+01,1.008000e+01,
281,9.920000e+00,1.024000e+01,
282,1.008000e+01,1.008000e+01,
283,9.920000e+00,1.024000e+01,
284,1.008000e+01,1.008000e+01,
285,9.920000e+00,1.024000e+01,
286,1.008000e+01,1.008000e+01,
287,9.920000e+00,1.024000e+01,
288,1.008000e+01,1.008000e+01,
289,9.920000e+00,1.024000e+01,
290,1.008000e+01,1.008000e+01,
291,9.920000e+00,1.024000e+01,
292,1.008000e+01,1.008000e+01,
293,9.920000e+00,1.024000e+01,
294,1.008000e+01,1.008000e+01,
295,9.920000e+00,1.024000e+01,
296,1.008000e+01,1.008000e+01,
297,9.920000e+00,1.024000e+01,
298,1.008000e+01,1.008000e+01,
299,9.920000e+00,1.024000e+01,
300,9.920000e+00,1.008000e+01,
301,1.016000e+01,1.024000e+01,
302,1.008000e+01,1.008000e+01,
303,9.920000e+00,1.024000e+01,
304,1.008000e+01,1.008000e+01,
305,9.920000e+00,1.024000e+01,
306,1.008000e+01,1.008000e+01,
307,9.920000e+00,1.024000e+01,
308,1.008000e+01,1.024000e+01,
309,9.920000e+00,1.008000e+01,
310,1.008000e+01,1.008000e+01,
311,9.920000e+00,1.024000e+01,
312,1.008000e+01,1.008000e+01,
313,9.920000e+00,1.024000e+01,
314,1.008000e+01,1.024000e+01,
315,9.920000e+00,1.008000e+01,
316,1.008000e+01,1.024000e+01,
317,9.920000e+00,1.008000e+01,
318,1.008000e+01,1.008000e+01,
319,9.920000e+00,1.024000e+01,
320,9.920000e+00,1.008000e+01,
321,1.016000e+01,1.024000e+01,
322,1.008000e+01,1.008000e+01,
323,9.920000e+00,1.024000e+01,
324,1.008000e+01,1.024000e+01,
325,9.920000e+00,1.008000e+01,
326,1.008000e+01,1.008000e+01,
327,9.920000e+00,1.024000e+01,
328,1.008000e+01,1.008000e+01,
329,1.000000e+01,1.024000e+01,
330,1.008000e+01,1.008000e+01,
331,1.000000e+01,1.024000e+01,
332,1.008000e+01,1.008000e+01,
333,1.000000e+01,1.024000e+01,
334,1.000000e+01,1.008000e+01,
335,1.016000e+01,1.024000e+01,
336,1.008000e+01,1.024000e+01,
337,1.000000e+01,1.008000e+01,
338,1.008000e+01,1.008000e+01,
339,1.000000e+01,1.024000e+01,
340,1.008000e+01,1.008000e+01,
341,9.920000e+00,1.024000e+01,
342,9.920000e+00,1.024000e+01,
343,1.016000e+01,1.008000e+01,
344,1.000000e+01,1.008000e+01,
345,1.016000e+01,1.024000e+01,
346,1.008000e+01,1.008000e+01,
347,1.000000e+01,1.024000e+01,
348,1.000000e+01,1.024000e+01,
349,1.016000e+01,1.008000e+01,
350,1.008000e+01,1.024000e+01,
351,9.920000e+00,1.008000e+01,
352,1.000000e+01,1.008000e+01,
353,1.016000e+01,1.024000e+01,
354,1.000000e+01,1.024000e+01,
355,1.016000e+01,1.008000e+01,
356,1.008000e+01,1.024000e+01,
357,9.920000e+00,1.008000e+01,
358,1.016000e+01,1.024000e+01,
359,9.920000e+00,1.008000e+01,
360,1.008000e+01,1.024000e+01,
361,1.000000e+01,1.008000e+01,
362,1.008000e+01,1.008000e+01,
363,9.920000e+00,1.024000e+01,
364,1.000000e+01,1.008000e+01,
365,1.016000e+01,1.024000e+01,
366,1.000000e+01,1.024000e+01,
367,1.016000e+01,1.008000e+01,
368,1.000000e+01,1.024000e+01,
369,1.016000e+01,1.008000e+01,
370,1.000000e+01,1.024000e+01,
371,1.016000e+01,1.008000e+01,
372,1.008000e+01,1.024000e+01,
373,1.000000e+01,1.008000e+01,
374,1.008000e+01,1.008000e+01,
375,9.920000e+00,1.024000e+01,
376,1.000000e+01,1.008000e+01,
377,1.016000e+01,1.024000e+01,
378,1.008000e+01,1.008000e+01,
379,1.000000e+01,1.024000e+01,
380,1.016000e+01,1.008000e+01,
381,9.920000e+00,1.024000e+01,
382,1.008000e+01,1.008000e+01,
383,1.000000e+01,1.024000e+01,
384,1.008000e+01,1.024000e+01,
385,1.000000e+01,1.008000e+01,
386,1.008000e+01,1.008000e+01,
387,1.000000e+01,1.024000e+01,
388,1.008000e+01,1.008000e+01,
389,1.000000e+01,1.024000e+01,
390,1.008000e+01,1.008000e+01,
391,1.000000e+01,1.024000e+01,
392,1.008000e+01,1.008000e+01,
393,1.000000e+01,1.024000e+01,
394,1.008000e+01,1.008000e+01,
395,9.920000e+00,1.024000e+01,
396,1.008000e+01,1.008000e+01,
397,1.000000e+01,1.024000e+01,
398,1.008000e+01,1.008000e+01,
399,9.920000e+00,1.024000e+01,
400,1.016000e+01,1.008000e+01,
401,9.920000e+00,1.024000e+01,
402,1.000000e+01,1.024000e+01,
403,1.016000e+01,1.008000e+01,
404,1.000000e+01,1.024000e+01,
405,1.016000e+01,1.008000e+01,
406,1.000000e+01,1.008000e+01,
407,1.016000e+01,1.024000e+01,
408,1.000000e+01,1.024000e+01,
409,1.016000e+01,1.008000e+01,
410,1.000000e+01,1.024000e+01,
411,1.016000e+01,1.008000e+01,
412,1.008000e+01,1.024000e+01,
413,9.920000e+00,1.008000e+01,
414,1.008000e+01,1.024000e+01,
415,1.000000e+01,1.008000e+01,
416,1.000000e+01,1.008000e+01,
417,1.016000e+01,1.024000e+01,
418,1.000000e+01,1.024000e+01,
419,1.016000e+01,1.008000e+01,
420,1.008000e+01,1.024000e+01,
421,1.000000e+01,1.008000e+01,
422,1.000000e+01,1.008000e+01,
423,1.016000e+01,1.024000e+01,
424,1.008000e+01,1.008000e+01,
425,1.000000e+01,1.024000e+01,
426,1.008000e+01,1.008000e+01,
427,1.000000e+01,1.024000e+01,
428,1.008000e+01,1.024000e+01,
429,1.000000e+01,1.008000e+01,
430,1.008000e+01,1.008000e+01,
431,9.920000e+00,1.024000e+01,
432,1.008000e+01,1.024000e+01,
433,1.000000e+01,1.008000e+01,
434,1.008000e+01,1.024000e+01,
435,1.000000e+01,1.008000e+01,
436,1.016000e+01,1.024000e+01,
437,9.920000e+00,1.008000e+01,
438,1.008000e+01,1.008000e+01,
439,9.120000e+00,1.024000e+01,
440,9.280000e+00,1.016000e+01,
441,6.800000e+00,7.120000e+00,
442,6.800000e+00,7.120000e+00,
443,5.280000e+00,5.040000e+00,
444,5.360000e+00,5.120000e+00,
445,3.760000e+00,3.600000e+00,
446,3.840000e+00,3.680000e+00,
447,2.640000e+00,2.720000e+00,
448,2.720000e+00,2.720000e+00,
449,1.920000e+00,2.000000e+00,
450,1.920000e+00,2.080000e+00,
451,1.360000e+00,1.440000e+00,
452,1.440000e+00,1.520000e+00,
453,1.040000e+00,1.040000e+00,
454,1.040000e+00,1.120000e+00,
455,7.200000e-01,8.000000e-01,
456,8.000000e-01,8.000000e-01,
457,4.800000e-01,5.600000e-01,
458,6.400000e-01,6.400000e-01,
459,3.200000e-01,4.000000e-01,
460,4.800000e-01,4.800000e-01,
461,2.400000e-01,3.200000e-01,
462,3.200000e-01,4.000000e-01,
463,1.600000e-01,2.400000e-01,
464,2.400000e-01,3.200000e-01,
465,8.000000e-02,1.600000e-01,
466,2.400000e-01,2.400000e-01,
467,8.000000e-02,1.600000e-01,
468,1.600000e-01,2.400000e-01,
469,0.000000e+00,8.000000e-02,
470,1.600000e-01,2.400000e-01,
471,0.000000e+00,8.000000e-02,
472,0.000000e+00,1.600000e-01,
473,1.600000e-01,8.000000e-02,
474,8.000000e-02,1.600000e-01,
475,0.000000e+00,0.000000e+00,
476,8.000000e-02,1.600000e-01,
477,-8.000000e-02,0.000000e+00,
478,8.000000e-02,1.600000e-01,
479,-8.000000e-02,0.000000e+00,
480,8.000000e-02,1.600000e-01,
481,-8.000000e-02,0.000000e+00,
482,8.000000e-02,0.000000e+00,
483,-8.000000e-02,1.600000e-01,
484,8.000000e-02,0.000000e+00,
485,-8.000000e-02,1.600000e-01,
486,-8.000000e-02,0.000000e+00,
487,8.000000e-02,1.600000e-01,
488,-8.000000e-02,0.000000e+00,
489,8.000000e-02,1.600000e-01,
490,-8.000000e-02,0.000000e+00,
491,8.000000e-02,1.600000e-01,
492,-8.000000e-02,8.000000e-02,
493,8.000000e-02,0.000000e+00,
494,-8.000000e-02,0.000000e+00,
495,8.000000e-02,8.000000e-02,
496,-8.000000e-02,0.000000e+00,
497,8.000000e-02,8.000000e-02,
498,8.000000e-02,0.000000e+00,
499,-8.000000e-02,1.600000e-01,
500,-8.000000e-02,0.000000e+00,
501,8.000000e-02,1.600000e-01,
502,-8.000000e-02,8.000000e-02,
503,8.000000e-02,0.000000e+00,
504,0.000000e+00,0.000000e+00,
505,-8.000000e-02,1.600000e-01,
506,-8.000000e-02,8.000000e-02,
507,8.000000e-02,0.000000e+00,
508,-1.600000e-01,8.000000e-02,
509,8.000000e-02,0.000000e+00,
510,-8.000000e-02,8.000000e-02,
511,8.000000e-02,0.000000e+00,
512,-8.000000e-02,8.000000e-02,
513,8.000000e-02,0.000000e+00,
514,-8.000000e-02,8.000000e-02,
515,8.000000e-02,-8.000000e-02,
516,0.000000e+00,8.000000e-02,
517,-8.000000e-02,0.000000e+00,
518,-8.000000e-02,8.000000e-02,
519,8.000000e-02,0.000000e+00,
520,0.000000e+00,8.000000e-02,
521,-1.600000e-01,0.000000e+00,
522,0.000000e+00,8.000000e-02,
523,-8.000000e-02,0.000000e+00,
524,8.000000e-02,0.000000e+00,
525,-1.600000e-01,8.000000e-02,
526,0.000000e+00,8.000000e-02,
527,-1.600000e-01,0.000000e+00,
528,0.000000e+00,8.000000e-02,
529,-1.600000e-01,0.000000e+00,
530,0.000000e+00,0.000000e+00,
531,-8.000000e-02,8.000000e-02,
532,0.000000e+00,8.000000e-02,
533,-1.600000e-01,0.000000e+00,
534,0.000000e+00,8.000000e-02,
535,-1.600000e-01,0.000000e+00,
536,0.000000e+00,8.000000e-02,
537,-1.600000e-01,0.000000e+00,
538,0.000000e+00,8.000000e-02,
539,-8.000000e-02,0.000000e+00,
540,0.000000e+00,0.000000e+00,
541,-1.600000e-01,8.000000e-02,
542,0.000000e+00,0.000000e+00,
543,-1.600000e-01,8.000000e-02,
544,0.000000e+00,0.000000e+00,
545,-1.600000e-01,8.000000e-02,
546,-1.600000e-01,8.000000e-02,
547,8.000000e-02,-8.000000e-02,
548,0.000000e+00,0.000000e+00,
549,-1.600000e-01,8.000000e-02,
550,0.000000e+00,8.000000e-02,
551,-1.600000e-01,0.000000e+00,
552,0.000000e+00,0.000000e+00,
553,-1.600000e-01,8.000000e-02,
554,0.000000e+00,8.000000e-02,
555,-1.600000e-01,0.000000e+00,
556,0.000000e+00,0.000000e+00,
557,-1.600000e-01,8.000000e-02,
558,0.000000e+00,0.000000e+00,
559,-1.600000e-01,8.000000e-02,
560,0.000000e+00,8.000000e-02,
561,-1.600000e-01,0.000000e+00,
562,0.000000e+00,8.000000e-02,
563,-1.600000e-01,-8.000000e-02,
564,0.000000e+00,8.000000e-02,
565,-1.600000e-01,0.000000e+00,
566,0.000000e+00,8.000000e-02,
567,-1.600000e-01,0.000000e+00,
568,0.000000e+00,0.000000e+00,
569,-1.600000e-01,8.000000e-02,
570,0.000000e+00,8.000000e-02,
571,-1.600000e-01,0.000000e+00,
572,0.000000e+00,0.000000e+00,
573,-1.600000e-01,8.000000e-02,
574,0.000000e+00,8.000000e-02,
575,-1.600000e-01,0.000000e+00,
576,0.000000e+00,8.000000e-02,
577,-1.600000e-01,-8.000000e-02,
578,-1.600000e-01,0.000000e+00,
579,0.000000e+00,8.000000e-02,
580,0.000000e+00,0.000000e+00,
581,-1.600000e-01,8.000000e-02,
582,0.000000e+00,8.000000e-02,
583,-1.600000e-01,0.000000e+00,
584,0.000000e+00,8.000000e-02,
585,-1.600000e-01,-8.000000e-02,
586,0.000000e+00,8.000000e-02,
587,-1.600000e-01,0.000000e+00,
588,0.000000e+00,8.000000e-02,
589,-1.600000e-01,-8.000000e-02,
590,0.000000e+00,8.000000e-02,
591,-1.600000e-01,-8.000000e-02,
592,0.000000e+00,0.000000e+00,
593,-1.600000e-01,8.000000e-02,
594,0.000000e+00,8.000000e-02,
595,-1.600000e-01,-8.000000e-02,
596,0.000000e+00,0.000000e+00,
597,-1.600000e-01,8.000000e-02,
598,0.000000e+00,0.000000e+00,
599,-1.600000e-01,8.000000e-02,
600,0.000000e+00,8.000000e-02,
601,-1.600000e-01,-8.000000e-02,
602,0.000000e+00,0.000000e+00,
603,-1.600000e-01,8.000000e-02,
604,0.000000e+00,8.000000e-02,
605,-1.600000e-01,-8.000000e-02,
606,0.000000e+00,8.000000e-02,
607,-1.600000e-01,-8.000000e-02,
608,0.000000e+00,8.000000e-02,
609,-1.600000e-01,-8.000000e-02,
610,0.000000e+00,8.000000e-02,
611,-1.600000e-01,-8.000000e-02,
612,0.000000e+00,8.000000e-02,
613,-1.600000e-01,0.000000e+00,
614,0.000000e+00,8.000000e-02,
615,-1.600000e-01,-8.000000e-02,
616,0.000000e+00,8.000000e-02,
617,-1.600000e-01,0.000000e+00,
618,0.000000e+00,8.000000e-02,
619,-1.600000e-01,-8.000000e-02,
620,0.000000e+00,0.000000e+00,
621,-1.600000e-01,8.000000e-02,
622,0.000000e+00,8.000000e-02,
623,-1.600000e-01,-8.000000e-02,
624,0.000000e+00,8.000000e-02,
625,-1.600000e-01,-8.000000e-02,
626,0.000000e+00,8.000000e-02,
627,-1.600000e-01,0.000000e+00,
628,0.000000e+00,0.000000e+00,
629,-1.600000e-01,8.000000e-02,
630,-1.600000e-01,8.000000e-02,
631,0.000000e+00,-8.000000e-02,
632,0.000000e+00,8.000000e-02,
633,-1.600000e-01,0.000000e+00,
634,0.000000e+00,8.000000e-02,
635,-1.600000e-01,-8.000000e-02,
636,0.000000e+00,0.000000e+00,
637,-1.600000e-01,8.000000e-02,
638,0.000000e+00,0.000000e+00,
