实验2/data/xh8.csv

X,CH1,CH2,Start,Increment,
Sequence,Volt,Volt,-3.820000e-07,1.000000e-09,
0,0.000000e+00,0.000000e+00,
1,0.000000e+00,0.000000e+00,
2,0.000000e+00,0.000000e+00,
3,0.000000e+00,0.000000e+00,
4,0.000000e+00,0.000000e+00,
5,0.000000e+00,0.000000e+00,
6,0.000000e+00,0.000000e+00,
7,0.000000e+00,0.000000e+00,
8,0.000000e+00,0.000000e+00,
9,0.000000e+00,0.000000e+00,
10,0.000000e+00,0.000000e+00,
11,0.000000e+00,0.000000e+00,
12,0.000000e+00,0.000000e+00,
13,0.000000e+00,0.000000e+00,
14,-8.000000e-02,8.000000e-02,
15,0.000000e+00,0.000000e+00,
16,0.000000e+00,0.000000e+00,
17,0.000000e+00,8.000000e-02,
18,0.000000e+00,0.000000e+00,
19,0.000000e+00,0.000000e+00,
20,0.000000e+00,0.000000e+00,
21,0.000000e+00,8.000000e-02,
22,0.000000e+00,0.000000e+00,
23,0.000000e+00,0.000000e+00,
24,0.000000e+00,8.000000e-02,
25,0.000000e+00,0.000000e+00,
26,0.000000e+00,8.000000e-02,
27,0.000000e+00,0.000000e+00,
28,0.000000e+00,0.000000e+00,
29,0.000000e+00,0.000000e+00,
30,0.000000e+00,8.000000e-02,
31,0.000000e+00,0.000000e+00,
32,0.000000e+00,0.000000e+00,
33,0.000000e+00,8.000000e-02,
34,0.000000e+00,0.000000e+00,
35,0.000000e+00,0.000000e+00,
36,0.000000e+00,0.000000e+00,
37,0.000000e+00,8.000000e-02,
38,-8.000000e-02,0.000000e+00,
39,0.000000e+00,0.000000e+00,
40,0.000000e+00,0.000000e+00,
41,8.000000e-02,0.000000e+00,
42,0.000000e+00,8.000000e-02,
43,0.000000e+00,0.000000e+00,
44,0.000000e+00,0.000000e+00,
45,0.000000e+00,0.000000e+00,
46,0.000000e+00,0.000000e+00,
47,0.000000e+00,8.000000e-02,
48,-8.000000e-02,0.000000e+00,
49,8.000000e-02,8.000000e-02,
50,0.000000e+00,8.000000e-02,
51,0.000000e+00,0.000000e+00,
52,0.000000e+00,0.000000e+00,
53,0.000000e+00,8.000000e-02,
54,0.000000e+00,8.000000e-02,
55,0.000000e+00,0.000000e+00,
56,0.000000e+00,0.000000e+00,
57,0.000000e+00,8.000000e-02,
58,0.000000e+00,0.000000e+00,
59,0.000000e+00,0.000000e+00,
60,0.000000e+00,8.000000e-02,
61,0.000000e+00,8.000000e-02,
62,0.000000e+00,0.000000e+00,
63,8.000000e-02,0.000000e+00,
64,0.000000e+00,0.000000e+00,
65,0.000000e+00,0.000000e+00,
66,0.000000e+00,8.000000e-02,
67,0.000000e+00,0.000000e+00,
68,0.000000e+00,0.000000e+00,
69,0.000000e+00,0.000000e+00,
70,0.000000e+00,0.000000e+00,
71,8.000000e-02,0.000000e+00,
72,0.000000e+00,0.000000e+00,
73,0.000000e+00,8.000000e-02,
74,0.000000e+00,0.000000e+00,
75,0.000000e+00,0.000000e+00,
76,0.000000e+00,8.000000e-02,
77,0.000000e+00,0.000000e+00,
78,0.000000e+00,0.000000e+00,
79,0.000000e+00,8.000000e-02,
80,0.000000e+00,0.000000e+00,
81,0.000000e+00,0.000000e+00,
82,0.000000e+00,8.000000e-02,
83,0.000000e+00,0.000000e+00,
84,0.000000e+00,0.000000e+00,
85,0.000000e+00,0.000000e+00,
86,0.000000e+00,0.000000e+00,
87,0.000000e+00,8.000000e-02,
88,0.000000e+00,0.000000e+00,
89,0.000000e+00,0.000000e+00,
90,0.000000e+00,0.000000e+00,
91,0.000000e+00,0.000000e+00,
92,0.000000e+00,8.000000e-02,
93,0.000000e+00,0.000000e+00,
94,0.000000e+00,0.000000e+00,
95,0.000000e+00,0.000000e+00,
96,0.000000e+00,0.000000e+00,
97,0.000000e+00,0.000000e+00,
98,0.000000e+00,8.000000e-02,
99,0.000000e+00,0.000000e+00,
100,0.000000e+00,8.000000e-02,
101,0.000000e+00,0.000000e+00,
102,0.000000e+00,0.000000e+00,
103,0.000000e+00,0.000000e+00,
104,0.000000e+00,0.000000e+00,
105,0.000000e+00,0.000000e+00,
106,0.000000e+00,0.000000e+00,
107,0.000000e+00,0.000000e+00,
108,0.000000e+00,0.000000e+00,
109,0.000000e+00,0.000000e+00,
110,0.000000e+00,0.000000e+00,
111,0.000000e+00,0.000000e+00,
112,0.000000e+00,0.000000e+00,
113,0.000000e+00,0.000000e+00,
114,0.000000e+00,8.000000e-02,
115,0.000000e+00,0.000000e+00,
116,0.000000e+00,0.000000e+00,
117,0.000000e+00,0.000000e+00,
118,0.000000e+00,8.000000e-02,
119,0.000000e+00,8.000000e-02,
120,0.000000e+00,0.000000e+00,
121,0.000000e+00,8.000000e-02,
122,0.000000e+00,8.000000e-02,
123,0.000000e+00,8.000000e-02,
124,0.000000e+00,0.000000e+00,
125,0.000000e+00,0.000000e+00,
126,0.000000e+00,0.000000e+00,
127,0.000000e+00,0.000000e+00,
128,0.000000e+00,0.000000e+00,
129,0.000000e+00,0.000000e+00,
130,0.000000e+00,0.000000e+00,
131,0.000000e+00,0.000000e+00,
132,0.000000e+00,0.000000e+00,
133,0.000000e+00,8.000000e-02,
134,0.000000e+00,8.000000e-02,
135,0.000000e+00,0.000000e+00,
136,0.000000e+00,0.000000e+00,
137,0.000000e+00,8.000000e-02,
138,0.000000e+00,0.000000e+00,
139,0.000000e+00,0.000000e+00,
140,0.000000e+00,0.000000e+00,
141,0.000000e+00,8.000000e-02,
142,0.000000e+00,0.000000e+00,
143,0.000000e+00,8.000000e-02,
144,0.000000e+00,0.000000e+00,
145,0.000000e+00,0.000000e+00,
146,0.000000e+00,0.000000e+00,
147,0.000000e+00,8.000000e-02,
148,0.000000e+00,0.000000e+00,
149,0.000000e+00,8.000000e-02,
150,0.000000e+00,0.000000e+00,
151,8.000000e-02,0.000000e+00,
152,0.000000e+00,0.000000e+00,
153,0.000000e+00,8.000000e-02,
154,8.000000e-02,0.000000e+00,
155,0.000000e+00,0.000000e+00,
156,0.000000e+00,0.000000e+00,
157,0.000000e+00,0.000000e+00,
158,0.000000e+00,8.000000e-02,
159,0.000000e+00,0.000000e+00,
160,0.000000e+00,0.000000e+00,
161,0.000000e+00,0.000000e+00,
162,0.000000e+00,0.000000e+00,
163,0.000000e+00,0.000000e+00,
164,0.000000e+00,0.000000e+00,
165,0.000000e+00,8.000000e-02,
166,0.000000e+00,8.000000e-02,
167,0.000000e+00,0.000000e+00,
168,-8.000000e-02,8.000000e-02,
169,0.000000e+00,0.000000e+00,
170,0.000000e+00,0.000000e+00,
171,0.000000e+00,0.000000e+00,
172,0.000000e+00,0.000000e+00,
173,0.000000e+00,0.000000e+00,
174,0.000000e+00,0.000000e+00,
175,0.000000e+00,0.000000e+00,
176,0.000000e+00,0.000000e+00,
177,0.000000e+00,8.000000e-02,
178,0.000000e+00,0.000000e+00,
179,0.000000e+00,0.000000e+00,
180,0.000000e+00,8.000000e-02,
181,8.000000e-02,0.000000e+00,
182,-8.000000e-02,0.000000e+00,
183,8.000000e-02,0.000000e+00,
184,0.000000e+00,0.000000e+00,
185,0.000000e+00,8.000000e-02,
186,-8.000000e-02,0.000000e+00,
187,0.000000e+00,0.000000e+00,
188,0.000000e+00,0.000000e+00,
189,0.000000e+00,0.000000e+00,
190,0.000000e+00,0.000000e+00,
191,0.000000e+00,0.000000e+00,
192,0.000000e+00,0.000000e+00,
193,0.000000e+00,0.000000e+00,
194,0.000000e+00,8.000000e-02,
195,8.000000e-02,0.000000e+00,
196,0.000000e+00,0.000000e+00,
197,0.000000e+00,0.000000e+00,
198,0.000000e+00,0.000000e+00,
199,0.000000e+00,8.000000e-02,
200,-8.000000e-02,0.000000e+00,
201,0.000000e+00,8.000000e-02,
202,-8.000000e-02,8.000000e-02,
203,0.000000e+00,0.000000e+00,
204,0.000000e+00,8.000000e-02,
205,0.000000e+00,0.000000e+00,
206,0.000000e+00,0.000000e+00,
207,0.000000e+00,0.000000e+00,
208,0.000000e+00,0.000000e+00,
209,0.000000e+00,0.000000e+00,
210,0.000000e+00,0.000000e+00,
211,0.000000e+00,0.000000e+00,
212,0.000000e+00,0.000000e+00,
213,0.000000e+00,0.000000e+00,
214,0.000000e+00,0.000000e+00,
215,0.000000e+00,0.000000e+00,
216,-8.000000e-02,0.000000e+00,
217,8.000000e-02,0.000000e+00,
218,0.000000e+00,0.000000e+00,
219,0.000000e+00,0.000000e+00,
220,0.000000e+00,0.000000e+00,
221,0.000000e+00,0.000000e+00,
222,0.000000e+00,8.000000e-02,
223,0.000000e+00,0.000000e+00,
224,0.000000e+00,8.000000e-02,
225,0.000000e+00,0.000000e+00,
226,0.000000e+00,0.000000e+00,
227,0.000000e+00,8.000000e-02,
228,0.000000e+00,0.000000e+00,
229,0.000000e+00,0.000000e+00,
230,0.000000e+00,0.000000e+00,
231,0.000000e+00,0.000000e+00,
232,0.000000e+00,0.000000e+00,
233,0.000000e+00,0.000000e+00,
234,-8.000000e-02,0.000000e+00,
235,0.000000e+00,8.000000e-02,
236,0.000000e+00,0.000000e+00,
237,0.000000e+00,8.000000e-02,
238,0.000000e+00,8.000000e-02,
239,8.000000e-02,0.000000e+00,
240,0.000000e+00,0.000000e+00,
241,0.000000e+00,0.000000e+00,
242,0.000000e+00,0.000000e+00,
243,8.000000e-02,0.000000e+00,
244,0.000000e+00,8.000000e-02,
245,0.000000e+00,8.000000e-02,
246,-8.000000e-02,0.000000e+00,
247,0.000000e+00,0.000000e+00,
248,0.000000e+00,8.000000e-02,
249,0.000000e+00,0.000000e+00,
250,0.000000e+00,0.000000e+00,
251,0.000000e+00,0.000000e+00,
252,0.000000e+00,0.000000e+00,
253,0.000000e+00,0.000000e+00,
254,0.000000e+00,0.000000e+00,
255,0.000000e+00,0.000000e+00,
256,0.000000e+00,8.000000e-02,
257,0.000000e+00,8.000000e-02,
258,0.000000e+00,0.000000e+00,
259,0.000000e+00,8.000000e-02,
260,0.000000e+00,0.000000e+00,
261,0.000000e+00,0.000000e+00,
262,0.000000e+00,0.000000e+00,
263,0.000000e+00,8.000000e-02,
264,0.000000e+00,8.000000e-02,
265,0.000000e+00,8.000000e-02,
266,0.000000e+00,0.000000e+00,
267,0.000000e+00,0.000000e+00,
268,0.000000e+00,0.000000e+00,
269,0.000000e+00,0.000000e+00,
270,0.000000e+00,0.000000e+00,
271,0.000000e+00,0.000000e+00,
272,0.000000e+00,0.000000e+00,
273,0.000000e+00,0.000000e+00,
274,0.000000e+00,0.000000e+00,
275,0.000000e+00,8.000000e-02,
276,0.000000e+00,0.000000e+00,
277,0.000000e+00,8.000000e-02,
278,0.000000e+00,0.000000e+00,
279,0.000000e+00,0.000000e+00,
280,0.000000e+00,0.000000e+00,
281,0.000000e+00,0.000000e+00,
282,0.000000e+00,0.000000e+00,
283,0.000000e+00,8.000000e-02,
284,0.000000e+00,0.000000e+00,
285,0.000000e+00,0.000000e+00,
286,0.000000e+00,8.000000e-02,
287,8.000000e-02,0.000000e+00,
288,0.000000e+00,0.000000e+00,
289,0.000000e+00,8.000000e-02,
290,0.000000e+00,0.000000e+00,
291,0.000000e+00,8.000000e-02,
292,0.000000e+00,0.000000e+00,
293,0.000000e+00,8.000000e-02,
294,0.000000e+00,8.000000e-02,
295,0.000000e+00,8.000000e-02,
296,0.000000e+00,0.000000e+00,
297,0.000000e+00,0.000000e+00,
298,0.000000e+00,0.000000e+00,
299,0.000000e+00,0.000000e+00,
300,0.000000e+00,0.000000e+00,
301,0.000000e+00,8.000000e-02,
302,0.000000e+00,0.000000e+00,
303,0.000000e+00,0.000000e+00,
304,0.000000e+00,0.000000e+00,
305,0.000000e+00,0.000000e+00,
306,0.000000e+00,0.000000e+00,
307,0.000000e+00,0.000000e+00,
308,0.000000e+00,0.000000e+00,
309,0.000000e+00,0.000000e+00,
310,0.000000e+00,0.000000e+00,
311,0.000000e+00,0.000000e+00,
312,0.000000e+00,0.000000e+00,
313,0.000000e+00,0.000000e+00,
314,0.000000e+00,8.000000e-02,
315,0.000000e+00,8.000000e-02,
316,0.000000e+00,0.000000e+00,
317,0.000000e+00,8.000000e-02,
318,0.000000e+00,8.000000e-02,
319,0.000000e+00,0.000000e+00,
320,0.000000e+00,0.000000e+00,
321,0.000000e+00,0.000000e+00,
322,-8.000000e-02,0.000000e+00,
323,0.000000e+00,0.000000e+00,
324,0.000000e+00,0.000000e+00,
325,0.000000e+00,8.000000e-02,
326,0.000000e+00,0.000000e+00,
327,0.000000e+00,0.000000e+00,
328,-8.000000e-02,8.000000e-02,
329,0.000000e+00,0.000000e+00,
330,0.000000e+00,8.000000e-02,
331,0.000000e+00,0.000000e+00,
332,0.000000e+00,0.000000e+00,
333,0.000000e+00,0.000000e+00,
334,0.000000e+00,0.000000e+00,
335,0.000000e+00,0.000000e+00,
336,0.000000e+00,0.000000e+00,
337,0.000000e+00,0.000000e+00,
338,0.000000e+00,8.000000e-02,
339,0.000000e+00,0.000000e+00,
340,0.000000e+00,0.000000e+00,
341,0.000000e+00,8.000000e-02,
342,0.000000e+00,0.000000e+00,
343,0.000000e+00,0.000000e+00,
344,8.000000e-02,0.000000e+00,
345,0.000000e+00,0.000000e+00,
346,0.000000e+00,0.000000e+00,
347,0.000000e+00,0.000000e+00,
348,-8.000000e-02,0.000000e+00,
349,8.000000e-02,0.000000e+00,
350,0.000000e+00,0.000000e+00,
351,8.000000e-02,8.000000e-02,
352,0.000000e+00,0.000000e+00,
353,0.000000e+00,8.000000e-02,
354,0.000000e+00,0.000000e+00,
355,0.000000e+00,8.000000e-02,
356,-8.000000e-02,0.000000e+00,
357,0.000000e+00,8.000000e-02,
358,0.000000e+00,0.000000e+00,
359,0.000000e+00,0.000000e+00,
360,0.000000e+00,0.000000e+00,
361,-8.000000e-02,0.000000e+00,
362,0.000000e+00,0.000000e+00,
363,0.000000e+00,0.000000e+00,
364,0.000000e+00,0.000000e+00,
365,0.000000e+00,0.000000e+00,
366,0.000000e+00,8.000000e-02,
367,0.000000e+00,0.000000e+00,
368,0.000000e+00,0.000000e+00,
369,0.000000e+00,0.000000e+00,
370,0.000000e+00,8.000000e-02,
371,0.000000e+00,0.000000e+00,
372,0.000000e+00,0.000000e+00,
373,0.000000e+00,0.000000e+00,
374,0.000000e+00,0.000000e+00,
375,0.000000e+00,0.000000e+00,
376,0.000000e+00,0.000000e+00,
377,8.000000e-02,8.000000e-02,
378,2.400000e-01,0.000000e+00,
379,7.200000e-01,0.000000e+00,
380,1.680000e+00,0.000000e+00,
381,3.040000e+00,0.000000e+00,
382,4.240000e+00,0.000000e+00,
383,5.120000e+00,0.000000e+00,
384,5.600000e+00,0.000000e+00,
385,5.600000e+00,8.000000e-02,
386,5.680000e+00,0.000000e+00,
387,5.680000e+00,0.000000e+00,
388,5.680000e+00,0.000000e+00,
389,5.360000e+00,0.000000e+00,
390,5.200000e+00,0.000000e+00,
391,5.040000e+00,0.000000e+00,
392,5.040000e+00,0.000000e+00,
393,4.800000e+00,0.000000e+00,
394,4.800000e+00,0.000000e+00,
395,4.720000e+00,0.000000e+00,
396,4.800000e+00,8.000000e-02,
397,4.720000e+00,8.000000e-02,
398,4.800000e+00,0.000000e+00,
399,4.800000e+00,0.000000e+00,
400,4.960000e+00,0.000000e+00,
401,4.880000e+00,0.000000e+00,
402,4.960000e+00,0.000000e+00,
403,4.960000e+00,0.000000e+00,
404,5.040000e+00,0.000000e+00,
405,4.960000e+00,8.000000e-02,
406,4.960000e+00,8.000000e-02,
407,4.960000e+00,0.000000e+00,
408,5.040000e+00,8.000000e-02,
409,4.960000e+00,0.000000e+00,
410,5.040000e+00,8.000000e-02,
411,4.960000e+00,0.000000e+00,
412,4.960000e+00,8.000000e-02,
413,4.880000e+00,0.000000e+00,
414,4.960000e+00,8.000000e-02,
415,4.960000e+00,0.000000e+00,
416,4.960000e+00,0.000000e+00,
417,4.960000e+00,0.000000e+00,
418,5.040000e+00,0.000000e+00,
419,4.960000e+00,0.000000e+00,
420,5.040000e+00,0.000000e+00,
421,4.960000e+00,8.000000e-02,
422,5.040000e+00,0.000000e+00,
423,4.960000e+00,0.000000e+00,
424,5.040000e+00,0.000000e+00,
425,4.960000e+00,8.000000e-02,
426,4.960000e+00,0.000000e+00,
427,4.960000e+00,0.000000e+00,
428,5.040000e+00,8.000000e-02,
429,4.960000e+00,0.000000e+00,
430,4.960000e+00,0.000000e+00,
431,4.960000e+00,0.000000e+00,
432,5.040000e+00,0.000000e+00,
433,4.960000e+00,8.000000e-02,
434,4.960000e+00,0.000000e+00,
435,4.960000e+00,0.000000e+00,
436,5.040000e+00,0.000000e+00,
437,4.960000e+00,8.000000e-02,
438,4.960000e+00,8.000000e-02,
439,4.960000e+00,0.000000e+00,
440,4.960000e+00,0.000000e+00,
441,4.960000e+00,8.000000e-02,
442,5.040000e+00,0.000000e+00,
443,4.960000e+00,0.000000e+00,
444,5.040000e+00,0.000000e+00,
445,4.960000e+00,0.000000e+00,
446,5.040000e+00,0.000000e+00,
447,4.960000e+00,0.000000e+00,
448,5.040000e+00,8.000000e-02,
449,5.040000e+00,0.000000e+00,
450,5.040000e+00,0.000000e+00,
451,4.960000e+00,0.000000e+00,
452,5.040000e+00,8.000000e-02,
453,4.960000e+00,0.000000e+00,
454,5.040000e+00,8.000000e-02,
455,4.960000e+00,0.000000e+00,
456,5.040000e+00,0.000000e+00,
457,4.960000e+00,0.000000e+00,
458,5.040000e+00,0.000000e+00,
459,4.960000e+00,0.000000e+00,
460,5.040000e+00,0.000000e+00,
461,4.960000e+00,0.000000e+00,
462,5.040000e+00,0.000000e+00,
463,4.960000e+00,0.000000e+00,
464,5.040000e+00,0.000000e+00,
465,4.960000e+00,8.000000e-02,
466,5.040000e+00,0.000000e+00,
467,5.040000e+00,8.000000e-02,
468,5.040000e+00,0.000000e+00,
469,4.960000e+00,8.000000e-02,
470,5.040000e+00,0.000000e+00,
471,4.960000e+00,0.000000e+00,
472,5.040000e+00,8.000000e-02,
473,4.960000e+00,0.000000e+00,
474,5.040000e+00,0.000000e+00,
475,4.960000e+00,0.000000e+00,
476,5.040000e+00,0.000000e+00,
477,4.960000e+00,0.000000e+00,
478,5.040000e+00,8.000000e-02,
479,4.960000e+00,3.200000e-01,
480,5.040000e+00,8.800000e-01,
481,4.960000e+00,1.680000e+00,
482,5.040000e+00,2.640000e+00,
483,4.960000e+00,3.360000e+00,
484,5.120000e+00,3.920000e+00,
485,4.960000e+00,4.080000e+00,
486,5.120000e+00,4.240000e+00,
487,4.960000e+00,4.320000e+00,
488,5.040000e+00,4.640000e+00,
489,5.040000e+00,4.800000e+00,
490,5.040000e+00,4.960000e+00,
491,5.040000e+00,5.120000e+00,
492,5.040000e+00,5.280000e+00,
493,5.040000e+00,5.280000e+00,
494,5.040000e+00,5.360000e+00,
495,5.040000e+00,5.280000e+00,
496,5.040000e+00,5.200000e+00,
497,5.040000e+00,5.120000e+00,
498,5.040000e+00,4.960000e+00,
499,5.040000e+00,4.800000e+00,
500,5.040000e+00,4.800000e+00,
501,5.040000e+00,4.720000e+00,
502,5.120000e+00,4.640000e+00,
503,4.960000e+00,4.640000e+00,
504,5.040000e+00,4.640000e+00,
505,5.040000e+00,4.640000e+00,
506,5.120000e+00,4.640000e+00,
507,5.040000e+00,4.720000e+00,
508,5.040000e+00,4.720000e+00,
509,5.040000e+00,4.720000e+00,
510,5.120000e+00,4.800000e+00,
511,5.040000e+00,4.800000e+00,
512,5.040000e+00,4.880000e+00,
513,5.040000e+00,4.800000e+00,
514,5.120000e+00,4.800000e+00,
515,5.040000e+00,4.800000e+00,
516,5.040000e+00,4.880000e+00,
517,5.040000e+00,4.800000e+00,
518,5.040000e+00,4.800000e+00,
519,5.040000e+00,4.880000e+00,
520,5.040000e+00,4.800000e+00,
521,4.960000e+00,4.800000e+00,
522,5.120000e+00,4.800000e+00,
523,5.040000e+00,4.800000e+00,
524,5.120000e+00,4.880000e+00,
525,5.040000e+00,4.800000e+00,
526,5.040000e+00,4.880000e+00,
527,5.040000e+00,4.800000e+00,
528,5.120000e+00,4.880000e+00,
529,5.040000e+00,4.800000e+00,
530,5.040000e+00,4.880000e+00,
531,5.040000e+00,4.880000e+00,
532,5.040000e+00,4.800000e+00,
533,5.040000e+00,4.800000e+00,
534,5.040000e+00,4.800000e+00,
535,5.040000e+00,4.800000e+00,
536,5.120000e+00,4.880000e+00,
537,5.040000e+00,4.800000e+00,
538,5.040000e+00,4.800000e+00,
539,5.040000e+00,4.800000e+00,
540,5.040000e+00,4.800000e+00,
541,5.040000e+00,4.800000e+00,
542,5.040000e+00,4.880000e+00,
543,5.040000e+00,4.880000e+00,
544,5.040000e+00,4.880000e+00,
545,5.040000e+00,4.800000e+00,
546,5.120000e+00,4.800000e+00,
547,5.040000e+00,4.800000e+00,
548,5.120000e+00,4.880000e+00,
549,5.040000e+00,4.800000e+00,
550,5.120000e+00,4.880000e+00,
551,5.040000e+00,4.800000e+00,
552,5.120000e+00,4.800000e+00,
553,5.040000e+00,4.800000e+00,
554,5.120000e+00,4.880000e+00,
555,5.040000e+00,4.800000e+00,
556,5.040000e+00,4.880000e+00,
557,5.120000e+00,4.800000e+00,
558,5.120000e+00,4.880000e+00,
559,5.040000e+00,4.800000e+00,
560,5.120000e+00,4.880000e+00,
561,5.040000e+00,4.800000e+00,
562,5.120000e+00,4.880000e+00,
563,5.040000e+00,4.800000e+00,
564,5.120000e+00,4.880000e+00,
565,5.120000e+00,4.800000e+00,
566,5.120000e+00,4.800000e+00,
567,5.040000e+00,4.880000e+00,
568,5.040000e+00,4.880000e+00,
569,5.040000e+00,4.880000e+00,
570,5.120000e+00,4.880000e+00,
571,5.040000e+00,4.880000e+00,
572,5.120000e+00,4.880000e+00,
573,5.040000e+00,4.800000e+00,
574,5.120000e+00,4.880000e+00,
575,5.040000e+00,4.880000e+00,
576,5.120000e+00,4.880000e+00,
577,5.040000e+00,4.880000e+00,
578,5.120000e+00,4.880000e+00,
579,5.040000e+00,4.880000e+00,
580,5.120000e+00,4.880000e+00,
581,5.040000e+00,4.880000e+00,
582,5.120000e+00,4.880000e+00,
583,4.960000e+00,4.880000e+00,
584,4.960000e+00,4.880000e+00,
585,4.720000e+00,4.800000e+00,
586,4.720000e+00,4.880000e+00,
587,4.720000e+00,4.880000e+00,
588,4.880000e+00,4.880000e+00,
589,5.040000e+00,4.880000e+00,
590,5.280000e+00,4.880000e+00,
591,5.360000e+00,4.800000e+00,
592,5.520000e+00,4.880000e+00,
593,5.520000e+00,4.880000e+00,
594,5.600000e+00,4.880000e+00,
595,5.520000e+00,4.880000e+00,
596,5.600000e+00,4.880000e+00,
597,5.600000e+00,4.880000e+00,
598,5.600000e+00,4.880000e+00,
599,5.520000e+00,4.800000e+00,
600,5.600000e+00,4.880000e+00,
601,5.440000e+00,4.880000e+00,
602,5.520000e+00,4.880000e+00,
603,5.440000e+00,4.880000e+00,
604,5.360000e+00,4.880000e+00,
605,5.280000e+00,4.880000e+00,
606,5.280000e+00,4.880000e+00,
607,5.200000e+00,4.880000e+00,
608,5.200000e+00,4.880000e+00,
609,5.120000e+00,4.880000e+00,
610,5.120000e+00,4.880000e+00,
611,5.040000e+00,4.880000e+00,
612,5.120000e+00,4.880000e+00,
613,5.040000e+00,4.880000e+00,
614,5.120000e+00,4.880000e+00,
615,5.120000e+00,4.880000e+00,
616,5.120000e+00,4.880000e+00,
617,5.120000e+00,4.880000e+00,
618,5.120000e+00,4.880000e+00,
619,5.120000e+00,4.880000e+00,
620,5.200000e+00,4.880000e+00,
621,5.120000e+00,4.880000e+00,
622,5.200000e+00,4.880000e+00,
623,5.120000e+00,4.880000e+00,
624,5.200000e+00,4.880000e+00,
625,5.120000e+00,4.880000e+00,
626,5.120000e+00,4.880000e+00,
627,5.120000e+00,4.880000e+00,
628,5.120000e+00,4.880000e+00,
629,5.040000e+00,4.880000e+00,
630,5.120000e+00,4.880000e+00,
631,5.040000e+00,4.880000e+00,
632,5.120000e+00,4.880000e+00,
633,5.040000e+00,4.880000e+00,
634,5.120000e+00,4.880000e+00,
635,5.040000e+00,4.880000e+00,
636,5.120000e+00,4.880000e+00,
637,5.040000e+00,4.880000e+00,
638,5.120000e+00,4.880000e+00,
639,5.040000e+00,4.880000e+00,
640,5.120000e+00,4.880000e+00,
641,5.040000e+00,4.880000e+00,
642,5.120000e+00,4.880000e+00,
643,5.040000e+00,4.880000e+00,
644,5.120000e+00,4.880000e+00,
