实验5/data/zy4.csv

X,CH1,CH2,Start,Increment,
Sequence,Volt,Volt,-1.880000e-05,5.000000e-08,
0,8.000000e-02,0.000000e+00,
1,1.600000e-01,1.200000e-03,
2,8.000000e-02,0.000000e+00,
3,1.600000e-01,1.200000e-03,
4,1.600000e-01,8.000000e-04,
5,8.000000e-02,0.000000e+00,
6,8.000000e-02,1.200000e-03,
7,1.600000e-01,0.000000e+00,
8,8.000000e-02,8.000000e-04,
9,1.600000e-01,0.000000e+00,
10,8.000000e-02,8.000000e-04,
11,1.600000e-01,0.000000e+00,
12,8.000000e-02,8.000000e-04,
13,1.600000e-01,0.000000e+00,
14,8.000000e-02,0.000000e+00,
15,1.600000e-01,1.200000e-03,
16,8.000000e-02,8.000000e-04,
17,1.600000e-01,0.000000e+00,
18,8.000000e-02,0.000000e+00,
19,1.600000e-01,1.200000e-03,
20,8.000000e-02,1.200000e-03,
21,1.600000e-01,0.000000e+00,
22,8.000000e-02,1.200000e-03,
23,1.600000e-01,0.000000e+00,
24,8.000000e-02,8.000000e-04,
25,1.600000e-01,0.000000e+00,
26,8.000000e-02,8.000000e-04,
27,1.600000e-01,0.000000e+00,
28,8.000000e-02,8.000000e-04,
29,1.600000e-01,0.000000e+00,
30,8.000000e-02,8.000000e-04,
31,1.600000e-01,0.000000e+00,
32,8.000000e-02,0.000000e+00,
33,1.600000e-01,8.000000e-04,
34,1.600000e-01,8.000000e-04,
35,0.000000e+00,0.000000e+00,
36,1.600000e-01,8.000000e-04,
37,8.000000e-02,4.000000e-04,
38,8.000000e-02,1.200000e-03,
39,1.600000e-01,0.000000e+00,
40,1.600000e-01,1.200000e-03,
41,0.000000e+00,0.000000e+00,
42,8.000000e-02,0.000000e+00,
43,1.600000e-01,1.200000e-03,
44,8.000000e-02,1.200000e-03,
45,1.600000e-01,0.000000e+00,
46,8.000000e-02,8.000000e-04,
47,1.600000e-01,0.000000e+00,
48,8.000000e-02,8.000000e-04,
49,1.600000e-01,0.000000e+00,
50,8.000000e-02,8.000000e-04,
51,1.600000e-01,-4.000000e-04,
52,8.000000e-02,1.200000e-03,
53,1.600000e-01,0.000000e+00,
54,8.000000e-02,0.000000e+00,
55,1.600000e-01,1.200000e-03,
56,1.600000e-01,0.000000e+00,
57,8.000000e-02,1.200000e-03,
58,8.000000e-02,1.200000e-03,
59,1.600000e-01,0.000000e+00,
60,8.000000e-02,0.000000e+00,
61,1.600000e-01,1.200000e-03,
62,8.000000e-02,0.000000e+00,
63,1.600000e-01,1.200000e-03,
64,8.000000e-02,0.000000e+00,
65,1.600000e-01,1.200000e-03,
66,8.000000e-02,8.000000e-04,
67,1.600000e-01,0.000000e+00,
68,8.000000e-02,0.000000e+00,
69,1.600000e-01,1.200000e-03,
70,8.000000e-02,-4.000000e-04,
71,1.600000e-01,1.200000e-03,
72,8.000000e-02,0.000000e+00,
73,1.600000e-01,1.200000e-03,
74,1.600000e-01,8.000000e-04,
75,8.000000e-02,0.000000e+00,
76,8.000000e-02,0.000000e+00,
77,1.600000e-01,1.200000e-03,
78,8.000000e-02,0.000000e+00,
79,1.600000e-01,1.200000e-03,
80,8.000000e-02,0.000000e+00,
81,1.600000e-01,1.200000e-03,
82,8.000000e-02,0.000000e+00,
83,1.600000e-01,1.200000e-03,
84,8.000000e-02,0.000000e+00,
85,1.600000e-01,8.000000e-04,
86,8.000000e-02,8.000000e-04,
87,1.600000e-01,0.000000e+00,
88,1.600000e-01,0.000000e+00,
89,8.000000e-02,1.200000e-03,
90,8.000000e-02,0.000000e+00,
91,1.600000e-01,1.200000e-03,
92,8.000000e-02,8.000000e-04,
93,1.600000e-01,0.000000e+00,
94,1.600000e-01,8.000000e-04,
95,0.000000e+00,0.000000e+00,
96,8.000000e-02,8.000000e-04,
97,1.600000e-01,0.000000e+00,
98,8.000000e-02,0.000000e+00,
99,1.600000e-01,1.200000e-03,
100,8.000000e-02,8.000000e-04,
101,1.600000e-01,0.000000e+00,
102,8.000000e-02,1.200000e-03,
103,1.600000e-01,0.000000e+00,
104,8.000000e-02,0.000000e+00,
105,1.600000e-01,1.200000e-03,
106,8.000000e-02,1.200000e-03,
107,1.600000e-01,0.000000e+00,
108,8.000000e-02,0.000000e+00,
109,1.600000e-01,1.200000e-03,
110,8.000000e-02,8.000000e-04,
111,1.600000e-01,0.000000e+00,
112,8.000000e-02,8.000000e-04,
113,1.600000e-01,0.000000e+00,
114,8.000000e-02,8.000000e-04,
115,1.600000e-01,0.000000e+00,
116,8.000000e-02,8.000000e-04,
117,1.600000e-01,0.000000e+00,
118,8.000000e-02,8.000000e-04,
119,1.600000e-01,0.000000e+00,
120,8.000000e-02,8.000000e-04,
121,1.600000e-01,0.000000e+00,
122,8.000000e-02,8.000000e-04,
123,1.600000e-01,0.000000e+00,
124,8.000000e-02,0.000000e+00,
125,1.600000e-01,1.200000e-03,
126,1.600000e-01,8.000000e-04,
127,0.000000e+00,0.000000e+00,
128,8.000000e-02,0.000000e+00,
129,1.600000e-01,1.200000e-03,
130,8.000000e-02,1.200000e-03,
131,1.600000e-01,0.000000e+00,
132,1.600000e-01,0.000000e+00,
133,8.000000e-02,1.200000e-03,
134,8.000000e-02,8.000000e-04,
135,1.600000e-01,0.000000e+00,
136,8.000000e-02,8.000000e-04,
137,1.600000e-01,0.000000e+00,
138,8.000000e-02,0.000000e+00,
139,1.600000e-01,1.200000e-03,
140,8.000000e-02,8.000000e-04,
141,1.600000e-01,0.000000e+00,
142,8.000000e-02,8.000000e-04,
143,1.600000e-01,0.000000e+00,
144,8.000000e-02,0.000000e+00,
145,1.600000e-01,1.200000e-03,
146,8.000000e-02,4.000000e-04,
147,1.600000e-01,1.200000e-03,
148,8.000000e-02,0.000000e+00,
149,1.600000e-01,1.200000e-03,
150,8.000000e-02,0.000000e+00,
151,1.600000e-01,1.200000e-03,
152,8.000000e-02,0.000000e+00,
153,1.600000e-01,1.200000e-03,
154,8.000000e-02,1.200000e-03,
155,1.600000e-01,0.000000e+00,
156,8.000000e-02,1.200000e-03,
157,1.600000e-01,0.000000e+00,
158,8.000000e-02,8.000000e-04,
159,1.600000e-01,0.000000e+00,
160,8.000000e-02,0.000000e+00,
161,1.600000e-01,1.200000e-03,
162,1.600000e-01,8.000000e-04,
163,8.000000e-02,0.000000e+00,
164,8.000000e-02,0.000000e+00,
165,1.600000e-01,1.200000e-03,
166,8.000000e-02,0.000000e+00,
167,1.600000e-01,1.200000e-03,
168,8.000000e-02,0.000000e+00,
169,1.600000e-01,1.200000e-03,
170,8.000000e-02,8.000000e-04,
171,1.600000e-01,0.000000e+00,
172,8.000000e-02,8.000000e-04,
173,1.600000e-01,0.000000e+00,
174,8.000000e-02,8.000000e-04,
175,1.600000e-01,0.000000e+00,
176,1.600000e-01,1.200000e-03,
177,0.000000e+00,0.000000e+00,
178,8.000000e-02,8.000000e-04,
179,1.600000e-01,0.000000e+00,
180,8.000000e-02,8.000000e-04,
181,1.600000e-01,0.000000e+00,
182,1.600000e-01,0.000000e+00,
183,0.000000e+00,1.200000e-03,
184,8.000000e-02,0.000000e+00,
185,1.600000e-01,1.200000e-03,
186,8.000000e-02,8.000000e-04,
187,1.600000e-01,0.000000e+00,
188,8.000000e-02,8.000000e-04,
189,1.600000e-01,0.000000e+00,
190,8.000000e-02,1.200000e-03,
191,1.600000e-01,0.000000e+00,
192,8.000000e-02,1.200000e-03,
193,1.600000e-01,0.000000e+00,
194,8.000000e-02,1.200000e-03,
195,1.600000e-01,0.000000e+00,
196,8.000000e-02,1.200000e-03,
197,1.600000e-01,0.000000e+00,
198,8.000000e-02,0.000000e+00,
199,1.600000e-01,1.200000e-03,
200,8.000000e-02,1.200000e-03,
201,1.600000e-01,-4.000000e-04,
202,8.000000e-02,1.200000e-03,
203,1.600000e-01,0.000000e+00,
204,8.000000e-02,1.200000e-03,
205,1.600000e-01,0.000000e+00,
206,8.000000e-02,0.000000e+00,
207,1.600000e-01,1.200000e-03,
208,1.600000e-01,1.200000e-03,
209,8.000000e-02,0.000000e+00,
210,8.000000e-02,1.200000e-03,
211,1.600000e-01,0.000000e+00,
212,8.000000e-02,0.000000e+00,
213,1.600000e-01,1.200000e-03,
214,8.000000e-02,8.000000e-04,
215,1.600000e-01,0.000000e+00,
216,8.000000e-02,8.000000e-04,
217,2.400000e-01,0.000000e+00,
218,1.600000e-01,0.000000e+00,
219,8.000000e-02,1.200000e-03,
220,8.000000e-02,1.200000e-03,
221,1.600000e-01,0.000000e+00,
222,8.000000e-02,8.000000e-04,
223,1.600000e-01,0.000000e+00,
224,8.000000e-02,1.200000e-03,
225,1.600000e-01,0.000000e+00,
226,8.000000e-02,1.200000e-03,
227,1.600000e-01,0.000000e+00,
228,8.000000e-02,8.000000e-04,
229,1.600000e-01,0.000000e+00,
230,8.000000e-02,1.200000e-03,
231,1.600000e-01,0.000000e+00,
232,8.000000e-02,0.000000e+00,
233,1.600000e-01,1.200000e-03,
234,8.000000e-02,8.000000e-04,
235,1.600000e-01,0.000000e+00,
236,8.000000e-02,0.000000e+00,
237,1.600000e-01,1.200000e-03,
238,8.000000e-02,1.200000e-03,
239,1.600000e-01,0.000000e+00,
240,8.000000e-02,1.200000e-03,
241,1.600000e-01,0.000000e+00,
242,8.000000e-02,0.000000e+00,
243,1.600000e-01,1.200000e-03,
244,8.000000e-02,1.200000e-03,
245,1.600000e-01,0.000000e+00,
246,8.000000e-02,8.000000e-04,
247,1.600000e-01,0.000000e+00,
248,8.000000e-02,8.000000e-04,
249,1.600000e-01,0.000000e+00,
250,8.000000e-02,1.200000e-03,
251,1.600000e-01,0.000000e+00,
252,8.000000e-02,1.200000e-03,
253,1.600000e-01,0.000000e+00,
254,8.000000e-02,1.200000e-03,
255,1.600000e-01,0.000000e+00,
256,8.000000e-02,1.200000e-03,
257,1.600000e-01,0.000000e+00,
258,8.000000e-02,0.000000e+00,
259,1.600000e-01,1.200000e-03,
260,8.000000e-02,1.200000e-03,
261,1.600000e-01,0.000000e+00,
262,8.000000e-02,0.000000e+00,
263,1.600000e-01,1.200000e-03,
264,8.000000e-02,1.200000e-03,
265,1.600000e-01,0.000000e+00,
266,8.000000e-02,4.000000e-04,
267,1.600000e-01,8.000000e-04,
268,8.000000e-02,0.000000e+00,
269,1.600000e-01,1.200000e-03,
270,8.000000e-02,0.000000e+00,
271,1.600000e-01,1.200000e-03,
272,8.000000e-02,1.600000e-03,
273,1.600000e-01,-1.200000e-03,
274,8.000000e-02,1.200000e-03,
275,1.600000e-01,0.000000e+00,
276,8.000000e-02,0.000000e+00,
277,1.600000e-01,1.200000e-03,
278,8.000000e-02,1.200000e-03,
279,1.600000e-01,0.000000e+00,
280,8.000000e-02,0.000000e+00,
281,1.600000e-01,1.200000e-03,
282,8.000000e-02,8.000000e-04,
283,1.600000e-01,0.000000e+00,
284,8.000000e-02,8.000000e-04,
285,1.600000e-01,0.000000e+00,
286,8.000000e-02,0.000000e+00,
287,1.600000e-01,1.200000e-03,
288,8.000000e-02,1.200000e-03,
289,1.600000e-01,-6.400000e-03,
290,8.000000e-02,-4.400000e-03,
291,1.600000e-01,-1.920000e-02,
292,8.000000e-02,-1.880000e-02,
293,1.600000e-01,-2.120000e-02,
294,8.000000e-02,-2.040000e-02,
295,1.600000e-01,-2.160000e-02,
296,8.000000e-02,-2.080000e-02,
297,1.600000e-01,-2.160000e-02,
298,8.000000e-02,-2.160000e-02,
299,1.600000e-01,-2.080000e-02,
300,8.000000e-02,-2.160000e-02,
301,1.600000e-01,-2.120000e-02,
302,8.000000e-02,-2.160000e-02,
303,1.600000e-01,-2.080000e-02,
304,1.600000e-01,-2.120000e-02,
305,8.000000e-02,-2.200000e-02,
306,1.600000e-01,-2.120000e-02,
307,8.000000e-02,-2.200000e-02,
308,8.000000e-02,-2.120000e-02,
309,1.600000e-01,-2.200000e-02,
310,8.000000e-02,-2.120000e-02,
311,1.600000e-01,-2.200000e-02,
312,1.600000e-01,-2.200000e-02,
313,0.000000e+00,-2.120000e-02,
314,8.000000e-02,-2.120000e-02,
315,2.400000e-01,-2.200000e-02,
316,8.000000e-02,-2.200000e-02,
317,2.400000e-01,-2.120000e-02,
318,8.000000e-02,-2.200000e-02,
319,2.400000e-01,-2.120000e-02,
320,8.000000e-02,-2.200000e-02,
321,2.400000e-01,-2.120000e-02,
322,8.000000e-02,-2.120000e-02,
323,2.400000e-01,-2.200000e-02,
324,1.600000e-01,-2.200000e-02,
325,2.400000e-01,-2.120000e-02,
326,1.600000e-01,-2.200000e-02,
327,2.400000e-01,-2.120000e-02,
328,1.600000e-01,-2.200000e-02,
329,3.200000e-01,-2.120000e-02,
330,2.400000e-01,-2.240000e-02,
331,3.200000e-01,-2.120000e-02,
332,2.400000e-01,-2.120000e-02,
333,4.000000e-01,-2.240000e-02,
334,4.000000e-01,-2.120000e-02,
335,2.400000e-01,-2.240000e-02,
336,3.200000e-01,-2.120000e-02,
337,4.800000e-01,-2.240000e-02,
338,3.200000e-01,-2.200000e-02,
339,5.600000e-01,-2.120000e-02,
340,4.000000e-01,-2.120000e-02,
341,5.600000e-01,-2.240000e-02,
342,4.800000e-01,-2.120000e-02,
343,6.400000e-01,-2.240000e-02,
344,4.800000e-01,-2.200000e-02,
345,7.200000e-01,-2.120000e-02,
346,6.400000e-01,-2.120000e-02,
347,7.200000e-01,-2.240000e-02,
348,6.400000e-01,-2.240000e-02,
349,8.800000e-01,-2.120000e-02,
350,8.000000e-01,-2.200000e-02,
351,9.600000e-01,-2.120000e-02,
352,8.000000e-01,-2.120000e-02,
353,1.040000e+00,-2.240000e-02,
354,9.600000e-01,-2.160000e-02,
355,1.120000e+00,-2.240000e-02,
356,1.040000e+00,-2.200000e-02,
357,1.200000e+00,-2.120000e-02,
358,1.200000e+00,-2.120000e-02,
359,1.360000e+00,-2.240000e-02,
360,1.280000e+00,-2.160000e-02,
361,1.440000e+00,-2.240000e-02,
362,1.360000e+00,-2.160000e-02,
363,1.600000e+00,-2.240000e-02,
364,1.520000e+00,-2.240000e-02,
365,1.680000e+00,-2.120000e-02,
366,1.600000e+00,-2.240000e-02,
367,1.840000e+00,-2.120000e-02,
368,1.760000e+00,-2.240000e-02,
369,2.000000e+00,-2.120000e-02,
370,1.840000e+00,-2.240000e-02,
371,2.080000e+00,-2.120000e-02,
372,2.000000e+00,-2.240000e-02,
373,2.240000e+00,-2.120000e-02,
374,2.160000e+00,-2.240000e-02,
375,2.400000e+00,-2.120000e-02,
376,2.320000e+00,-2.240000e-02,
377,2.560000e+00,-2.120000e-02,
378,2.480000e+00,-2.240000e-02,
379,2.720000e+00,-2.120000e-02,
380,2.640000e+00,-2.160000e-02,
381,2.800000e+00,-2.240000e-02,
382,2.800000e+00,-2.240000e-02,
383,2.960000e+00,-2.120000e-02,
384,2.960000e+00,-2.160000e-02,
385,3.120000e+00,-2.240000e-02,
386,3.120000e+00,-2.240000e-02,
387,3.360000e+00,-2.120000e-02,
388,3.280000e+00,-2.120000e-02,
389,3.520000e+00,-2.240000e-02,
390,3.440000e+00,-2.240000e-02,
391,3.680000e+00,-2.120000e-02,
392,3.600000e+00,-2.120000e-02,
393,3.840000e+00,-2.240000e-02,
394,3.840000e+00,-2.240000e-02,
395,4.000000e+00,-2.120000e-02,
396,4.000000e+00,-2.200000e-02,
397,4.160000e+00,-2.120000e-02,
398,4.160000e+00,-2.240000e-02,
399,4.320000e+00,-2.160000e-02,
400,4.320000e+00,-2.240000e-02,
401,4.560000e+00,-2.120000e-02,
402,4.480000e+00,-2.160000e-02,
403,4.720000e+00,-2.240000e-02,
404,4.640000e+00,-2.240000e-02,
405,4.880000e+00,-2.120000e-02,
406,4.800000e+00,-2.160000e-02,
407,5.040000e+00,-2.240000e-02,
408,4.960000e+00,-2.160000e-02,
409,5.200000e+00,-2.200000e-02,
410,5.200000e+00,-2.120000e-02,
411,5.360000e+00,-2.240000e-02,
412,5.280000e+00,-2.120000e-02,
413,5.520000e+00,-2.240000e-02,
414,5.440000e+00,-2.120000e-02,
415,5.680000e+00,-2.240000e-02,
416,5.600000e+00,-2.160000e-02,
417,5.840000e+00,-2.240000e-02,
418,5.760000e+00,-2.240000e-02,
419,6.000000e+00,-2.120000e-02,
420,6.000000e+00,-2.120000e-02,
421,6.160000e+00,-2.240000e-02,
422,6.080000e+00,-2.200000e-02,
423,6.320000e+00,-2.120000e-02,
424,6.240000e+00,-2.200000e-02,
425,6.480000e+00,-2.120000e-02,
426,6.400000e+00,-2.120000e-02,
427,6.640000e+00,-2.240000e-02,
428,6.560000e+00,-2.240000e-02,
429,6.720000e+00,-2.120000e-02,
430,6.720000e+00,-2.200000e-02,
431,6.880000e+00,-2.120000e-02,
432,6.800000e+00,-2.160000e-02,
433,7.040000e+00,-2.240000e-02,
434,6.960000e+00,-2.160000e-02,
435,7.120000e+00,-2.200000e-02,
436,7.120000e+00,-2.120000e-02,
437,7.280000e+00,-2.240000e-02,
438,7.200000e+00,-2.240000e-02,
439,7.360000e+00,-2.120000e-02,
440,7.360000e+00,-2.240000e-02,
441,7.520000e+00,-2.120000e-02,
442,7.440000e+00,-2.120000e-02,
443,7.600000e+00,-2.240000e-02,
444,7.520000e+00,-2.200000e-02,
445,7.760000e+00,-2.120000e-02,
446,7.680000e+00,-2.200000e-02,
447,7.840000e+00,-2.120000e-02,
448,7.760000e+00,-2.200000e-02,
449,7.920000e+00,-2.120000e-02,
450,7.840000e+00,-2.200000e-02,
451,8.000000e+00,-2.120000e-02,
452,7.920000e+00,-2.200000e-02,
453,8.080000e+00,-2.120000e-02,
454,8.000000e+00,-2.200000e-02,
455,8.160000e+00,-2.120000e-02,
456,8.080000e+00,-2.200000e-02,
457,8.240000e+00,-2.120000e-02,
458,8.160000e+00,-2.200000e-02,
459,8.320000e+00,-2.120000e-02,
460,8.240000e+00,-2.120000e-02,
461,8.400000e+00,-2.240000e-02,
462,8.320000e+00,-2.200000e-02,
463,8.480000e+00,-2.120000e-02,
464,8.400000e+00,-2.200000e-02,
465,8.480000e+00,-2.120000e-02,
466,8.400000e+00,-2.200000e-02,
467,8.559999e+00,-2.120000e-02,
468,8.480000e+00,-2.200000e-02,
469,8.639999e+00,-2.120000e-02,
470,8.559999e+00,-2.200000e-02,
471,8.639999e+00,-2.120000e-02,
472,8.559999e+00,-2.120000e-02,
473,8.720000e+00,-2.200000e-02,
474,8.639999e+00,-2.200000e-02,
475,8.720000e+00,-2.120000e-02,
476,8.639999e+00,-2.120000e-02,
477,8.720000e+00,-2.200000e-02,
478,8.720000e+00,-2.200000e-02,
479,8.800000e+00,-2.120000e-02,
480,8.720000e+00,-2.200000e-02,
481,8.800000e+00,-2.120000e-02,
482,8.800000e+00,-2.200000e-02,
483,8.720000e+00,-2.120000e-02,
484,8.800000e+00,-2.120000e-02,
485,8.720000e+00,-2.200000e-02,
486,8.720000e+00,-2.120000e-02,
487,8.880000e+00,-2.200000e-02,
488,8.800000e+00,-2.120000e-02,
489,8.720000e+00,-2.200000e-02,
490,8.800000e+00,-2.200000e-02,
491,8.720000e+00,-2.120000e-02,
492,8.800000e+00,-2.120000e-02,
493,8.720000e+00,-2.200000e-02,
494,8.720000e+00,-2.120000e-02,
495,8.880000e+00,-2.200000e-02,
496,8.800000e+00,-2.120000e-02,
497,8.720000e+00,-2.200000e-02,
498,8.720000e+00,-2.120000e-02,
499,8.800000e+00,-2.240000e-02,
500,8.720000e+00,-2.120000e-02,
501,8.800000e+00,-2.200000e-02,
502,8.800000e+00,-2.200000e-02,
503,8.639999e+00,-2.080000e-02,
504,8.720000e+00,-2.120000e-02,
505,8.639999e+00,-2.200000e-02,
506,8.720000e+00,-2.200000e-02,
507,8.639999e+00,-2.080000e-02,
508,8.720000e+00,-2.200000e-02,
509,8.559999e+00,-2.080000e-02,
510,8.559999e+00,-2.120000e-02,
511,8.720000e+00,-2.200000e-02,
512,8.639999e+00,-2.120000e-02,
513,8.480000e+00,-2.200000e-02,
514,8.559999e+00,-2.120000e-02,
515,8.480000e+00,-2.200000e-02,
516,8.559999e+00,-2.120000e-02,
517,8.400000e+00,-2.200000e-02,
518,8.480000e+00,-2.200000e-02,
519,8.400000e+00,-2.080000e-02,
520,8.480000e+00,-2.200000e-02,
521,8.320000e+00,-2.080000e-02,
522,8.400000e+00,-2.120000e-02,
523,8.240000e+00,-2.200000e-02,
524,8.320000e+00,-2.200000e-02,
525,8.240000e+00,-2.080000e-02,
526,8.320000e+00,-2.080000e-02,
527,8.160000e+00,-2.200000e-02,
528,8.240000e+00,-2.200000e-02,
529,8.080000e+00,-2.080000e-02,
530,8.160000e+00,-2.120000e-02,
531,8.000000e+00,-2.200000e-02,
532,8.080000e+00,-2.120000e-02,
533,8.000000e+00,-2.200000e-02,
534,8.080000e+00,-2.120000e-02,
535,7.920000e+00,-2.200000e-02,
536,8.000000e+00,-2.160000e-02,
537,7.840000e+00,-2.080000e-02,
538,7.920000e+00,-2.080000e-02,
539,7.760000e+00,-2.200000e-02,
540,7.840000e+00,-2.080000e-02,
541,7.760000e+00,-2.200000e-02,
542,7.760000e+00,-2.080000e-02,
543,7.680000e+00,-2.200000e-02,
544,7.760000e+00,-2.080000e-02,
545,7.600000e+00,-2.200000e-02,
546,7.600000e+00,-2.080000e-02,
547,7.520000e+00,-2.200000e-02,
548,7.600000e+00,-2.120000e-02,
549,7.440000e+00,-2.200000e-02,
550,7.440000e+00,-2.200000e-02,
551,7.360000e+00,-2.080000e-02,
552,7.440000e+00,-2.160000e-02,
553,7.280000e+00,-2.080000e-02,
554,7.360000e+00,-2.080000e-02,
555,7.200000e+00,-2.200000e-02,
556,7.200000e+00,-2.160000e-02,
557,7.120000e+00,-2.080000e-02,
558,7.200000e+00,-2.080000e-02,
559,7.040000e+00,-2.160000e-02,
560,7.120000e+00,-2.160000e-02,
561,6.960000e+00,-2.080000e-02,
562,7.040000e+00,-2.160000e-02,
563,6.880000e+00,-2.080000e-02,
564,6.960000e+00,-2.160000e-02,
565,6.800000e+00,-2.080000e-02,
566,6.800000e+00,-2.080000e-02,
567,6.720000e+00,-2.200000e-02,
568,6.800000e+00,-2.080000e-02,
569,6.640000e+00,-2.160000e-02,
570,6.640000e+00,-2.160000e-02,
571,6.560000e+00,-2.080000e-02,
572,6.560000e+00,-2.160000e-02,
573,6.480000e+00,-2.080000e-02,
574,6.480000e+00,-2.160000e-02,
575,6.400000e+00,-2.080000e-02,
576,6.400000e+00,-2.160000e-02,
577,6.240000e+00,-2.080000e-02,
578,6.320000e+00,-2.160000e-02,
579,6.160000e+00,-2.080000e-02,
580,6.240000e+00,-2.160000e-02,
581,6.080000e+00,-2.080000e-02,
582,6.160000e+00,-2.080000e-02,
583,6.000000e+00,-2.160000e-02,
584,6.080000e+00,-2.160000e-02,
585,5.920000e+00,-2.080000e-02,
586,5.920000e+00,-2.160000e-02,
587,5.840000e+00,-2.080000e-02,
588,5.920000e+00,-2.080000e-02,
589,5.760000e+00,-2.160000e-02,
590,5.760000e+00,-2.160000e-02,
591,5.680000e+00,-2.080000e-02,
592,5.680000e+00,-2.080000e-02,
593,5.600000e+00,-2.160000e-02,
594,5.520000e+00,-2.080000e-02,
595,5.680000e+00,-2.200000e-02,
596,5.520000e+00,-2.080000e-02,
597,5.440000e+00,-2.160000e-02,
598,5.440000e+00,-2.160000e-02,
599,5.280000e+00,-2.080000e-02,
600,5.360000e+00,-2.160000e-02,
601,5.200000e+00,-2.040000e-02,
602,5.280000e+00,-2.080000e-02,
603,5.120000e+00,-2.160000e-02,
604,5.200000e+00,-2.080000e-02,
605,5.040000e+00,-2.160000e-02,
606,5.120000e+00,-2.160000e-02,
607,4.960000e+00,-2.040000e-02,
608,5.040000e+00,-2.080000e-02,
609,4.880000e+00,-2.160000e-02,
610,4.960000e+00,-2.160000e-02,
611,4.800000e+00,-2.040000e-02,
612,4.880000e+00,-2.080000e-02,
613,4.720000e+00,-2.160000e-02,
614,4.880000e+00,-2.160000e-02,
615,4.640000e+00,-2.080000e-02,
616,4.720000e+00,-2.080000e-02,
617,4.560000e+00,-2.160000e-02,
618,4.640000e+00,-2.080000e-02,
619,4.480000e+00,-2.160000e-02,
620,4.560000e+00,-2.160000e-02,
621,4.400000e+00,-2.040000e-02,
622,4.480000e+00,-2.200000e-02,
623,4.320000e+00,-2.000000e-02,
624,4.400000e+00,-2.040000e-02,
625,4.240000e+00,-2.160000e-02,
626,4.320000e+00,-2.160000e-02,
627,4.160000e+00,-2.040000e-02,
628,4.240000e+00,-2.160000e-02,
629,4.080000e+00,-2.040000e-02,
630,4.160000e+00,-2.120000e-02,
631,4.080000e+00,-2.080000e-02,
632,4.080000e+00,-2.040000e-02,
633,4.000000e+00,-2.160000e-02,
634,4.000000e+00,-2.160000e-02,
