非线性物理/数据处理/Part3/20000101_034920.csv

Channel              :,CH1,CH2
Frequency            :,2.553KHz,2.553KHz
Period               :,0.392ms,0.392ms
PK-PK                :,10.00V,503.5mV
Average              :,-119.2mV,-3.799mV
Vertical pos         :,360.000000mV,0.000000mV
Probe attenuation    :,1X,1X
Voltage per ADC value:,5.000000mV,0.250000mV
Time interval        :,1.00000uS,1.00000uS

index,CH1_Voltage(mV),CH2_Voltage(mV)
1,0.000000,0.000000
2,905.000000,-19.750000
3,810.000000,-22.250000
4,715.000000,-14.750000
5,625.000000,-5.750000
6,530.000000,-6.750000
7,435.000000,-5.250000
8,340.000000,-0.750000
9,250.000000,8.250000
10,165.000000,11.250000
11,65.000000,11.250000
12,-45.000000,21.750000
13,-135.000000,19.750000
14,-250.000000,26.750000
15,-320.000000,35.250000
16,-415.000000,34.250000
17,-515.000000,39.250000
18,-605.000000,45.250000
19,-705.000000,49.250000
20,-795.000000,53.750000
21,-885.000000,58.750000
22,-1000.000000,61.250000
23,-1105.000000,64.750000
24,-1180.000000,68.750000
25,-1285.000000,71.250000
26,-1380.000000,74.250000
27,-1450.000000,84.250000
28,-1565.000000,85.250000
29,-1675.000000,89.750000
30,-1760.000000,97.750000
31,-1845.000000,100.750000
32,-1940.000000,102.250000
33,-2050.000000,102.750000
34,-2130.000000,115.250000
35,-2240.000000,118.250000
36,-2340.000000,117.250000
37,-2430.000000,123.250000
38,-2520.000000,131.750000
39,-2615.000000,131.750000
40,-2700.000000,136.250000
41,-2800.000000,145.250000
42,-2895.000000,144.250000
43,-2995.000000,151.750000
44,-3055.000000,156.250000
45,-3175.000000,159.750000
46,-3270.000000,158.250000
47,-3360.000000,167.750000
48,-3440.000000,170.250000
49,-3550.000000,172.750000
50,-3620.000000,176.750000
51,-3725.000000,178.250000
52,-3800.000000,172.250000
53,-3850.000000,160.250000
54,-3930.000000,151.250000
55,-3965.000000,137.750000
56,-3975.000000,137.750000
57,-4020.000000,132.750000
58,-4030.000000,126.750000
59,-4055.000000,123.750000
60,-4060.000000,117.750000
61,-4070.000000,118.250000
62,-4085.000000,115.250000
63,-4095.000000,114.250000
64,-4095.000000,116.750000
65,-4100.000000,112.250000
66,-4100.000000,111.750000
67,-4100.000000,116.250000
68,-4100.000000,111.250000
69,-4120.000000,111.750000
70,-4105.000000,112.250000
71,-4095.000000,116.250000
72,-4100.000000,115.250000
73,-4100.000000,114.750000
74,-4110.000000,112.250000
75,-4110.000000,109.750000
76,-4105.000000,113.750000
77,-4095.000000,116.250000
78,-4090.000000,113.250000
79,-4105.000000,113.250000
80,-4080.000000,115.250000
81,-4100.000000,114.250000
82,-4060.000000,116.750000
83,-4085.000000,117.250000
84,-4080.000000,118.250000
85,-4100.000000,120.250000
86,-4080.000000,116.750000
87,-4045.000000,122.750000
88,-4060.000000,122.750000
89,-4055.000000,121.750000
90,-4040.000000,124.250000
91,-4030.000000,125.250000
92,-4030.000000,124.750000
93,-4035.000000,125.250000
94,-4010.000000,131.250000
95,-4025.000000,133.750000
96,-4000.000000,129.750000
97,-4010.000000,125.750000
98,-4005.000000,132.250000
99,-4000.000000,132.250000
100,-3985.000000,133.250000
101,-3970.000000,136.750000
102,-3970.000000,136.250000
103,-3975.000000,138.250000
104,-3960.000000,142.250000
105,-3975.000000,142.750000
106,-3945.000000,141.750000
107,-3945.000000,144.750000
108,-3930.000000,145.750000
109,-3930.000000,145.750000
110,-3935.000000,154.250000
111,-3930.000000,152.250000
112,-3905.000000,155.250000
113,-3900.000000,149.750000
114,-3885.000000,154.750000
115,-3880.000000,154.750000
116,-3870.000000,158.250000
117,-3880.000000,159.750000
118,-3855.000000,160.750000
119,-3860.000000,160.750000
120,-3845.000000,164.250000
121,-3825.000000,166.750000
122,-3845.000000,163.750000
123,-3825.000000,168.250000
124,-3815.000000,169.750000
125,-3805.000000,170.250000
126,-3800.000000,173.750000
127,-3780.000000,177.250000
128,-3770.000000,176.750000
129,-3760.000000,176.750000
130,-3770.000000,179.750000
131,-3730.000000,182.750000
132,-3735.000000,182.750000
133,-3720.000000,187.750000
134,-3730.000000,186.250000
135,-3705.000000,187.750000
136,-3720.000000,188.750000
137,-3720.000000,193.250000
138,-3685.000000,194.250000
139,-3695.000000,193.750000
140,-3680.000000,196.250000
141,-3655.000000,195.250000
142,-3650.000000,192.750000
143,-3625.000000,184.750000
144,-3615.000000,181.750000
145,-3590.000000,182.250000
146,-3555.000000,182.250000
147,-3525.000000,180.250000
148,-3495.000000,177.250000
149,-3460.000000,178.250000
150,-3440.000000,175.750000
151,-3390.000000,172.750000
152,-3350.000000,172.250000
153,-3315.000000,170.250000
154,-3275.000000,170.750000
155,-3245.000000,166.750000
156,-3185.000000,166.250000
157,-3145.000000,164.250000
158,-3105.000000,161.250000
159,-3070.000000,161.250000
160,-3005.000000,162.750000
161,-2955.000000,156.250000
162,-2900.000000,148.750000
163,-2870.000000,154.250000
164,-2810.000000,150.750000
165,-2745.000000,136.750000
166,-2705.000000,146.750000
167,-2650.000000,145.750000
168,-2595.000000,139.750000
169,-2545.000000,136.250000
170,-2470.000000,138.250000
171,-2420.000000,137.250000
172,-2350.000000,129.250000
173,-2275.000000,128.750000
174,-2210.000000,124.750000
175,-2165.000000,121.750000
176,-2115.000000,119.250000
177,-2030.000000,114.250000
178,-1965.000000,113.250000
179,-1910.000000,111.250000
180,-1840.000000,110.250000
181,-1765.000000,104.750000
182,-1700.000000,101.250000
183,-1625.000000,98.250000
184,-1565.000000,94.250000
185,-1500.000000,91.750000
186,-1420.000000,87.750000
187,-1365.000000,83.250000
188,-1265.000000,83.750000
189,-1205.000000,79.750000
190,-1115.000000,75.750000
191,-1050.000000,74.750000
192,-965.000000,71.250000
193,-900.000000,66.250000
194,-840.000000,65.750000
195,-750.000000,58.750000
196,-660.000000,54.250000
197,-595.000000,49.250000
198,-515.000000,50.750000
199,-420.000000,45.250000
200,-360.000000,39.250000
201,-280.000000,34.750000
202,-180.000000,36.750000
203,-130.000000,28.250000
204,-50.000000,29.750000
205,30.000000,25.250000
206,120.000000,19.750000
207,185.000000,18.750000
208,270.000000,16.250000
209,360.000000,12.250000
210,415.000000,4.250000
211,520.000000,3.750000
212,595.000000,3.250000
213,660.000000,-2.750000
214,740.000000,-5.250000
215,840.000000,-10.750000
216,905.000000,-16.750000
217,980.000000,-18.250000
218,1060.000000,-26.750000
219,1135.000000,-25.750000
220,1220.000000,-29.750000
221,1295.000000,-34.250000
222,1385.000000,-35.250000
223,1450.000000,-38.750000
224,1535.000000,-44.250000
225,1605.000000,-46.750000
226,1680.000000,-50.250000
227,1780.000000,-52.750000
228,1855.000000,-55.750000
229,1925.000000,-58.250000
230,1975.000000,-60.250000
231,2080.000000,-68.250000
232,2145.000000,-70.750000
233,2220.000000,-75.750000
234,2290.000000,-74.750000
235,2375.000000,-79.750000
236,2430.000000,-83.750000
237,2515.000000,-86.250000
238,2590.000000,-87.250000
239,2630.000000,-94.250000
240,2720.000000,-95.750000
241,2790.000000,-94.250000
242,2860.000000,-101.750000
243,2925.000000,-105.750000
244,2975.000000,-106.750000
245,3065.000000,-107.250000
246,3135.000000,-113.250000
247,3190.000000,-117.750000
248,3265.000000,-117.750000
249,3320.000000,-120.750000
250,3375.000000,-126.250000
251,3445.000000,-124.250000
252,3515.000000,-128.250000
253,3560.000000,-133.750000
254,3630.000000,-134.250000
255,3680.000000,-134.750000
256,3760.000000,-138.750000
257,3800.000000,-143.250000
258,3850.000000,-143.250000
259,3920.000000,-147.250000
260,3945.000000,-152.750000
261,4000.000000,-150.750000
262,4060.000000,-151.750000
263,4115.000000,-158.250000
264,4150.000000,-159.250000
265,4210.000000,-159.250000
266,4265.000000,-162.250000
267,4285.000000,-168.250000
268,4330.000000,-167.250000
269,4385.000000,-168.250000
270,4425.000000,-174.750000
271,4460.000000,-167.250000
272,4510.000000,-176.750000
273,4550.000000,-176.750000
274,4585.000000,-175.250000
275,4620.000000,-177.250000
276,4655.000000,-183.750000
277,4700.000000,-182.250000
278,4725.000000,-183.250000
279,4750.000000,-189.250000
280,4800.000000,-184.250000
281,4825.000000,-193.750000
282,4850.000000,-193.750000
283,4885.000000,-195.250000
284,4910.000000,-202.250000
285,4945.000000,-204.250000
286,4985.000000,-205.250000
287,5005.000000,-208.750000
288,5035.000000,-211.750000
289,5080.000000,-213.750000
290,5100.000000,-215.750000
291,5150.000000,-218.250000
292,5155.000000,-220.250000
293,5190.000000,-223.750000
294,5235.000000,-227.250000
295,5265.000000,-232.750000
296,5280.000000,-232.250000
297,5320.000000,-233.250000
298,5335.000000,-237.750000
299,5375.000000,-238.750000
300,5405.000000,-241.250000
301,5425.000000,-244.250000
302,5435.000000,-247.750000
303,5465.000000,-247.250000
304,5490.000000,-251.250000
305,5505.000000,-255.250000
306,5535.000000,-255.750000
307,5560.000000,-254.250000
308,5580.000000,-261.250000
309,5600.000000,-263.250000
310,5635.000000,-259.750000
311,5650.000000,-265.250000
312,5655.000000,-270.750000
313,5665.000000,-268.750000
314,5720.000000,-270.750000
315,5705.000000,-267.750000
316,5730.000000,-273.750000
317,5740.000000,-277.250000
318,5745.000000,-275.750000
319,5755.000000,-278.250000
320,5780.000000,-276.250000
321,5790.000000,-281.250000
322,5800.000000,-280.250000
323,5795.000000,-279.250000
324,5815.000000,-277.750000
325,5820.000000,-281.750000
326,5805.000000,-278.750000
327,5820.000000,-282.250000
328,5840.000000,-283.250000
329,5830.000000,-284.250000
330,5830.000000,-280.750000
331,5840.000000,-281.250000
332,5825.000000,-283.750000
333,5815.000000,-279.250000
334,5825.000000,-278.250000
335,5810.000000,-279.750000
336,5790.000000,-281.250000
337,5780.000000,-279.750000
338,5775.000000,-278.250000
339,5765.000000,-278.250000
340,5730.000000,-277.250000
341,5735.000000,-276.250000
342,5690.000000,-272.750000
343,5685.000000,-270.750000
344,5645.000000,-266.250000
345,5620.000000,-263.750000
346,5605.000000,-260.750000
347,5545.000000,-256.750000
348,5535.000000,-271.250000
349,5505.000000,-253.250000
350,5470.000000,-235.250000
351,5425.000000,-251.250000
352,5385.000000,-246.250000
353,5350.000000,-243.250000
354,5275.000000,-238.750000
355,5235.000000,-237.250000
356,5185.000000,-235.750000
357,5135.000000,-226.750000
358,5070.000000,-222.750000
359,5020.000000,-217.750000
360,4945.000000,-214.250000
361,4885.000000,-208.750000
362,4810.000000,-199.250000
363,4730.000000,-192.250000
364,4650.000000,-190.250000
365,4600.000000,-184.750000
366,4525.000000,-179.250000
367,4415.000000,-176.250000
368,4340.000000,-174.250000
369,4260.000000,-167.250000
370,4180.000000,-167.250000
371,4095.000000,-164.750000
372,4015.000000,-156.750000
373,3950.000000,-159.250000
374,3840.000000,-153.250000
375,3740.000000,-149.250000
376,3675.000000,-146.250000
377,3575.000000,-141.250000
378,3495.000000,-137.250000
379,3410.000000,-128.750000
380,3335.000000,-131.750000
381,3230.000000,-128.250000
382,3155.000000,-117.250000
383,3065.000000,-113.750000
384,2950.000000,-114.750000
385,2870.000000,-106.750000
386,2800.000000,-100.250000
387,2700.000000,-99.750000
388,2595.000000,-95.750000
389,2515.000000,-89.750000
390,2410.000000,-86.750000
391,2325.000000,-80.250000
392,2240.000000,-77.250000
393,2135.000000,-72.250000
394,2040.000000,-68.750000
395,1950.000000,-64.250000
396,1865.000000,-60.750000
397,1745.000000,-59.250000
398,1665.000000,-52.750000
399,1565.000000,-50.250000
400,1465.000000,-44.750000
401,1370.000000,-44.250000
402,1270.000000,-34.750000
403,1170.000000,-35.250000
404,1085.000000,-26.250000
405,980.000000,-24.250000
406,885.000000,-17.750000
407,780.000000,-14.750000
408,705.000000,-9.750000
409,590.000000,-6.250000
410,485.000000,-6.250000
411,395.000000,3.250000
412,295.000000,7.750000
413,200.000000,8.750000
414,85.000000,10.750000
415,20.000000,18.250000
416,-100.000000,23.250000
417,-200.000000,29.250000
418,-285.000000,34.750000
419,-390.000000,36.250000
420,-495.000000,39.750000
421,-580.000000,43.750000
422,-680.000000,50.250000
423,-800.000000,52.750000
424,-880.000000,62.750000
425,-965.000000,62.750000
426,-1060.000000,65.750000
427,-1165.000000,70.250000
428,-1275.000000,77.250000
429,-1355.000000,76.250000
430,-1455.000000,85.250000
431,-1550.000000,86.250000
432,-1650.000000,93.250000
433,-1740.000000,92.250000
434,-1840.000000,96.750000
435,-1930.000000,104.250000
436,-2040.000000,108.750000
437,-2125.000000,111.250000
438,-2220.000000,118.750000
439,-2310.000000,122.750000
440,-2385.000000,121.750000
441,-2470.000000,130.750000
442,-2565.000000,131.750000
443,-2675.000000,137.250000
444,-2740.000000,142.250000
445,-2855.000000,143.750000
446,-2970.000000,145.250000
447,-3035.000000,152.250000
448,-3130.000000,157.250000
449,-3210.000000,160.250000
450,-3320.000000,162.750000
451,-3395.000000,168.250000
452,-3460.000000,173.750000
453,-3550.000000,174.750000
454,-3640.000000,176.750000
455,-3720.000000,179.250000
456,-3800.000000,167.750000
457,-3865.000000,164.250000
458,-3885.000000,149.250000
459,-3945.000000,142.250000
460,-3955.000000,137.750000
461,-3995.000000,132.250000
462,-4010.000000,127.250000
463,-4020.000000,125.250000
464,-4055.000000,124.750000
465,-4060.000000,122.750000
466,-4070.000000,118.250000
467,-4060.000000,118.750000
468,-4070.000000,123.250000
469,-4080.000000,118.250000
470,-4065.000000,117.250000
471,-4060.000000,118.250000
472,-4080.000000,121.750000
473,-4075.000000,114.750000
474,-4080.000000,118.250000
475,-4055.000000,120.250000
476,-4070.000000,118.750000
477,-4055.000000,121.250000
478,-4060.000000,121.750000
479,-4060.000000,118.250000
480,-4055.000000,114.750000
481,-4040.000000,122.750000
482,-4030.000000,105.750000
483,-4035.000000,120.750000
484,-4040.000000,125.250000
485,-4040.000000,126.750000
486,-4035.000000,122.250000
487,-4020.000000,126.750000
488,-4035.000000,123.250000
489,-4025.000000,126.750000
490,-4025.000000,127.750000
491,-3990.000000,133.750000
492,-4000.000000,132.750000
493,-4015.000000,132.250000
494,-3995.000000,130.750000
495,-3960.000000,136.250000
496,-3985.000000,135.250000
497,-3980.000000,138.250000
498,-3980.000000,139.250000
499,-3970.000000,138.250000
500,-3960.000000,141.250000
501,-3960.000000,142.750000
502,-3940.000000,143.750000
503,-3935.000000,142.750000
504,-3940.000000,145.750000
505,-3940.000000,146.250000
506,-3930.000000,145.750000
507,-3920.000000,148.250000
508,-3900.000000,150.750000
509,-3905.000000,151.750000
510,-3905.000000,151.750000
511,-3875.000000,156.750000
512,-3880.000000,156.750000
513,-3870.000000,159.750000
514,-3870.000000,158.250000
515,-3855.000000,160.250000
516,-3860.000000,163.750000
517,-3830.000000,162.250000
518,-3845.000000,163.250000
519,-3830.000000,164.750000
520,-3815.000000,168.750000
521,-3810.000000,166.250000
522,-3805.000000,169.750000
523,-3805.000000,172.250000
524,-3790.000000,171.750000
525,-3780.000000,170.250000
526,-3790.000000,180.250000
527,-3755.000000,179.750000
528,-3755.000000,176.750000
529,-3760.000000,180.250000
530,-3745.000000,186.750000
531,-3725.000000,183.250000
532,-3715.000000,184.250000
533,-3715.000000,191.750000
534,-3715.000000,193.250000
535,-3710.000000,193.750000
536,-3710.000000,189.250000
537,-3685.000000,192.250000
538,-3685.000000,191.250000
539,-3680.000000,193.750000
540,-3670.000000,195.750000
541,-3665.000000,198.250000
542,-3645.000000,180.750000
543,-3625.000000,181.750000
544,-3590.000000,181.250000
545,-3575.000000,181.750000
546,-3535.000000,178.250000
547,-3535.000000,174.750000
548,-3490.000000,179.250000
549,-3470.000000,172.750000
550,-3435.000000,170.750000
551,-3380.000000,170.250000
552,-3345.000000,173.250000
553,-3310.000000,170.750000
554,-3270.000000,165.250000
555,-3230.000000,166.250000
556,-3185.000000,167.250000
557,-3155.000000,158.750000
558,-3100.000000,159.250000
559,-3060.000000,158.750000
560,-3010.000000,161.250000
561,-2965.000000,153.750000
562,-2905.000000,151.750000
563,-2865.000000,149.250000
564,-2820.000000,148.750000
565,-2755.000000,144.250000
566,-2705.000000,141.250000
567,-2655.000000,142.250000
568,-2600.000000,139.750000
569,-2555.000000,134.750000
570,-2505.000000,133.750000
571,-2430.000000,132.250000
572,-2380.000000,131.250000
573,-2320.000000,123.250000
574,-2255.000000,120.250000
575,-2170.000000,122.250000
576,-2145.000000,119.750000
577,-2070.000000,115.250000
578,-2005.000000,112.250000
579,-1920.000000,112.250000
580,-1880.000000,106.250000
581,-1815.000000,104.750000
582,-1740.000000,101.750000
583,-1695.000000,96.750000
584,-1620.000000,94.750000
585,-1545.000000,93.750000
586,-1460.000000,89.250000
587,-1400.000000,84.750000
588,-1345.000000,83.250000
589,-1240.000000,81.250000
590,-1195.000000,77.250000
591,-1125.000000,77.250000
592,-1055.000000,67.750000
593,-970.000000,67.750000
594,-895.000000,65.250000
595,-815.000000,61.250000
596,-750.000000,59.250000
597,-670.000000,54.250000
598,-600.000000,50.750000
599,-510.000000,45.250000
600,-460.000000,44.250000
601,-370.000000,41.750000
602,-280.000000,34.750000
603,-240.000000,35.750000
604,-145.000000,37.750000
605,-80.000000,28.250000
606,5.000000,24.750000
607,60.000000,23.250000
608,145.000000,18.250000
609,220.000000,13.750000
610,300.000000,11.250000
611,375.000000,8.750000
612,450.000000,3.750000
613,535.000000,5.750000
614,610.000000,0.250000
615,680.000000,7.750000
616,755.000000,-10.750000
617,815.000000,-11.750000
618,910.000000,-13.750000
619,975.000000,-15.250000
620,1070.000000,-24.750000
621,1130.000000,-23.250000
622,1210.000000,-26.750000
623,1295.000000,-28.750000
624,1365.000000,-34.250000
625,1435.000000,-37.250000
626,1520.000000,-41.750000
627,1585.000000,-45.750000
628,1660.000000,-47.250000
629,1725.000000,-48.250000
630,1815.000000,-52.750000
631,1865.000000,-59.750000
632,1945.000000,-62.250000
633,2020.000000,-63.250000
634,2085.000000,-65.750000
635,2155.000000,-69.750000
636,2230.000000,-70.750000
637,2275.000000,-75.250000
638,2350.000000,-82.250000
639,2425.000000,-82.250000
640,2490.000000,-80.750000
641,2550.000000,-89.250000
642,2630.000000,-97.750000
643,2685.000000,-94.250000
644,2765.000000,-95.250000
645,2830.000000,-99.750000
646,2875.000000,-101.250000
647,2955.000000,-102.750000
648,3000.000000,-110.250000
649,3070.000000,-112.250000
650,3110.000000,-114.250000
651,3180.000000,-115.250000
652,3245.000000,-118.750000
653,3305.000000,-120.250000
654,3380.000000,-119.250000
655,3420.000000,-122.250000
656,3475.000000,-125.750000
657,3525.000000,-131.250000
658,3555.000000,-133.250000
659,3610.000000,-130.750000
660,3665.000000,-140.250000
661,3735.000000,-142.750000
662,3780.000000,-141.750000
663,3825.000000,-143.750000
664,3885.000000,-144.750000
665,3915.000000,-148.250000
666,3965.000000,-148.250000
667,4020.000000,-154.750000
668,4040.000000,-154.750000
669,4095.000000,-155.250000
670,4120.000000,-157.250000
671,4175.000000,-160.750000
672,4215.000000,-161.250000
673,4250.000000,-161.250000
674,4285.000000,-161.750000
675,4330.000000,-165.750000
676,4340.000000,-168.750000
677,4380.000000,-172.750000
678,4400.000000,-172.250000
679,4435.000000,-173.250000
680,4485.000000,-175.250000
681,4490.000000,-175.750000
682,4530.000000,-178.250000
683,4540.000000,-179.250000
684,4555.000000,-177.250000
685,4615.000000,-178.750000
686,4605.000000,-182.250000
687,4630.000000,-183.250000
688,4660.000000,-180.750000
689,4665.000000,-184.250000
690,4685.000000,-185.750000
691,4700.000000,-183.750000
692,4710.000000,-187.750000
693,4720.000000,-188.250000
694,4755.000000,-184.750000
695,4760.000000,-188.250000
696,4765.000000,-194.750000
697,4765.000000,-191.250000
698,4790.000000,-191.750000
699,4790.000000,-198.750000
700,4815.000000,-194.750000
701,4810.000000,-194.250000
702,4810.000000,-196.250000
703,4820.000000,-197.750000
704,4815.000000,-195.750000
705,4815.000000,-196.250000
706,4815.000000,-198.250000
707,4830.000000,-195.750000
708,4820.000000,-196.750000
709,4825.000000,-199.250000
710,4810.000000,-191.750000
711,4805.000000,-195.250000
712,4790.000000,-198.750000
713,4795.000000,-195.750000
714,4760.000000,-191.250000
715,4750.000000,-191.750000
716,4755.000000,-195.250000
