非线性物理/数据处理/Part3/20000101_035840.csv

Channel              :,CH1,CH2
Frequency            :,  ?,  ?
Period               :,  ?,  ?
PK-PK                :,20.26V,1.012V
Average              :,-2.885V,144.6mV
Vertical pos         :,-2300.000000mV,0.000000mV
Probe attenuation    :,1X,1X
Voltage per ADC value:,12.500000mV,0.500000mV
Time interval        :,1.00000uS,1.00000uS

index,CH1_Voltage(mV),CH2_Voltage(mV)
1,0.000000,0.000000
2,8025.000000,-555.000000
3,8062.500000,-558.500000
4,8175.000000,-561.000000
5,8237.500000,-563.500000
6,8300.000000,-566.000000
7,8387.500000,-570.000000
8,8487.500000,-572.000000
9,8537.500000,-582.500000
10,8600.000000,-579.000000
11,8700.000000,-581.000000
12,8775.000000,-587.500000
13,8875.000000,-592.500000
14,8950.000000,-593.500000
15,9025.000000,-599.000000
16,9125.000000,-607.500000
17,9175.000000,-604.500000
18,9262.500000,-601.500000
19,9350.000000,-608.000000
20,9387.500000,-611.000000
21,9487.500000,-616.000000
22,9550.000000,-618.500000
23,9612.500000,-623.500000
24,9662.500000,-626.500000
25,9750.000000,-631.000000
26,9837.500000,-630.000000
27,9875.000000,-634.000000
28,9975.000000,-642.000000
29,10062.500000,-639.500000
30,10137.500000,-643.000000
31,10175.000000,-647.500000
32,10250.000000,-651.000000
33,10337.500000,-649.500000
34,10400.000000,-647.500000
35,10437.500000,-636.500000
36,10462.500000,-629.500000
37,10500.000000,-626.500000
38,10550.000000,-623.500000
39,10562.500000,-620.500000
40,10575.000000,-614.500000
41,10612.500000,-612.000000
42,10612.500000,-609.500000
43,10612.500000,-608.000000
44,10625.000000,-604.500000
45,10637.500000,-606.500000
46,10612.500000,-610.500000
47,10637.500000,-599.000000
48,10662.500000,-604.500000
49,10637.500000,-602.500000
50,10625.000000,-598.000000
51,10637.500000,-607.500000
52,10650.000000,-601.500000
53,10637.500000,-600.000000
54,10587.500000,-600.500000
55,10625.000000,-607.500000
56,10625.000000,-605.500000
57,10600.000000,-604.000000
58,10612.500000,-605.000000
59,10612.500000,-609.000000
60,10600.000000,-604.500000
61,10625.000000,-604.000000
62,10625.000000,-611.500000
63,10612.500000,-608.500000
64,10612.500000,-606.500000
65,10612.500000,-608.000000
66,10587.500000,-611.500000
67,10575.000000,-609.000000
68,10562.500000,-610.000000
69,10537.500000,-614.500000
70,10550.000000,-618.500000
71,10575.000000,-615.000000
72,10575.000000,-616.500000
73,10525.000000,-617.000000
74,10550.000000,-616.500000
75,10562.500000,-619.000000
76,10550.000000,-619.500000
77,10525.000000,-619.000000
78,10512.500000,-622.500000
79,10525.000000,-621.000000
80,10525.000000,-621.500000
81,10500.000000,-625.000000
82,10475.000000,-622.500000
83,10487.500000,-628.500000
84,10487.500000,-627.000000
85,10500.000000,-628.500000
86,10475.000000,-628.500000
87,10450.000000,-630.500000
88,10475.000000,-630.000000
89,10475.000000,-633.500000
90,10400.000000,-631.500000
91,10425.000000,-636.500000
92,10425.000000,-637.000000
93,10425.000000,-635.500000
94,10400.000000,-639.500000
95,10375.000000,-639.000000
96,10387.500000,-637.000000
97,10387.500000,-639.500000
98,10375.000000,-649.500000
99,10375.000000,-644.500000
100,10375.000000,-646.500000
101,10387.500000,-641.500000
102,10362.500000,-644.500000
103,10337.500000,-647.000000
104,10362.500000,-649.000000
105,10325.000000,-652.500000
106,10312.500000,-649.500000
107,10300.000000,-651.000000
108,10300.000000,-651.500000
109,10262.500000,-654.000000
110,10262.500000,-649.500000
111,10237.500000,-652.000000
112,10250.000000,-655.000000
113,10212.500000,-653.000000
114,10212.500000,-654.000000
115,10200.000000,-652.000000
116,10162.500000,-650.500000
117,10162.500000,-651.500000
118,10125.000000,-652.000000
119,10100.000000,-648.000000
120,10050.000000,-647.500000
121,10037.500000,-643.500000
122,10037.500000,-649.000000
123,9975.000000,-646.000000
124,9937.500000,-646.000000
125,9912.500000,-645.500000
126,9925.000000,-642.500000
127,9862.500000,-638.000000
128,9837.500000,-635.000000
129,9812.500000,-635.500000
130,9762.500000,-632.000000
131,9725.000000,-632.500000
132,9675.000000,-632.500000
133,9637.500000,-633.000000
134,9587.500000,-627.000000
135,9562.500000,-625.000000
136,9537.500000,-624.500000
137,9462.500000,-623.500000
138,9425.000000,-621.500000
139,9350.000000,-622.500000
140,9337.500000,-616.500000
141,9287.500000,-612.500000
142,9237.500000,-612.500000
143,9175.000000,-612.000000
144,9125.000000,-611.000000
145,9050.000000,-607.000000
146,9025.000000,-603.000000
147,8975.000000,-603.500000
148,8900.000000,-606.000000
149,8850.000000,-595.500000
150,8800.000000,-595.000000
151,8737.500000,-598.000000
152,8650.000000,-592.000000
153,8587.500000,-587.500000
154,8562.500000,-586.500000
155,8487.500000,-586.000000
156,8425.000000,-579.000000
157,8375.000000,-576.500000
158,8312.500000,-581.000000
159,8275.000000,-570.500000
160,8212.500000,-570.000000
161,8125.000000,-569.500000
162,8062.500000,-564.000000
163,7987.500000,-554.000000
164,7937.500000,-551.500000
165,7875.000000,-556.500000
166,7800.000000,-548.000000
167,7750.000000,-547.000000
168,7675.000000,-544.500000
169,7575.000000,-548.500000
170,7525.000000,-536.500000
171,7462.500000,-537.000000
172,7400.000000,-532.000000
173,7325.000000,-528.000000
174,7237.500000,-525.000000
175,7175.000000,-523.500000
176,7112.500000,-519.500000
177,7050.000000,-515.500000
178,6962.500000,-518.000000
179,6850.000000,-508.000000
180,6825.000000,-509.000000
181,6737.500000,-507.500000
182,6687.500000,-499.000000
183,6625.000000,-496.000000
184,6525.000000,-496.000000
185,6450.000000,-492.500000
186,6375.000000,-488.500000
187,6312.500000,-487.500000
188,6237.500000,-481.500000
189,6162.500000,-478.500000
190,6075.000000,-475.000000
191,6050.000000,-475.500000
192,5962.500000,-469.000000
193,5850.000000,-460.000000
194,5787.500000,-461.500000
195,5775.000000,-460.000000
196,5625.000000,-453.000000
197,5575.000000,-451.500000
198,5487.500000,-448.500000
199,5450.000000,-447.500000
200,5387.500000,-439.500000
201,5325.000000,-439.000000
202,5275.000000,-437.000000
203,5150.000000,-431.500000
204,5100.000000,-429.000000
205,4975.000000,-425.500000
206,4937.500000,-422.000000
207,4862.500000,-421.500000
208,4825.000000,-417.500000
209,4725.000000,-411.000000
210,4675.000000,-411.500000
211,4600.000000,-410.500000
212,4512.500000,-405.000000
213,4462.500000,-401.500000
214,4400.000000,-402.500000
215,4350.000000,-400.500000
216,4275.000000,-391.000000
217,4237.500000,-385.500000
218,4112.500000,-391.000000
219,4100.000000,-389.500000
220,4012.500000,-384.000000
221,3925.000000,-385.000000
222,3900.000000,-380.500000
223,3825.000000,-376.000000
224,3775.000000,-372.500000
225,3700.000000,-373.500000
226,3625.000000,-372.000000
227,3612.500000,-363.500000
228,3525.000000,-366.000000
229,3475.000000,-364.500000
230,3450.000000,-357.500000
231,3362.500000,-356.500000
232,3325.000000,-355.500000
233,3275.000000,-350.500000
234,3212.500000,-350.500000
235,3137.500000,-348.000000
236,3125.000000,-342.000000
237,3075.000000,-338.500000
238,3025.000000,-339.000000
239,2950.000000,-338.000000
240,2912.500000,-336.000000
241,2875.000000,-340.000000
242,2850.000000,-331.000000
243,2787.500000,-330.000000
244,2750.000000,-331.000000
245,2725.000000,-326.500000
246,2662.500000,-323.500000
247,2612.500000,-318.000000
248,2575.000000,-322.000000
249,2525.000000,-318.000000
250,2487.500000,-316.500000
251,2462.500000,-319.500000
252,2462.500000,-311.500000
253,2387.500000,-312.500000
254,2337.500000,-314.000000
255,2337.500000,-309.000000
256,2325.000000,-304.500000
257,2262.500000,-302.500000
258,2237.500000,-299.500000
259,2200.000000,-295.000000
260,2162.500000,-295.500000
261,2137.500000,-295.000000
262,2100.000000,-288.000000
263,2100.000000,-282.000000
264,2062.500000,-283.000000
265,1987.500000,-283.500000
266,1962.500000,-278.000000
267,1925.000000,-275.500000
268,1887.500000,-273.000000
269,1875.000000,-272.000000
270,1825.000000,-266.000000
271,1787.500000,-265.000000
272,1775.000000,-263.500000
273,1737.500000,-261.000000
274,1700.000000,-258.000000
275,1687.500000,-253.000000
276,1637.500000,-244.500000
277,1625.000000,-245.500000
278,1600.000000,-246.500000
279,1562.500000,-240.500000
280,1550.000000,-237.000000
281,1500.000000,-238.000000
282,1462.500000,-235.500000
283,1437.500000,-231.500000
284,1437.500000,-226.000000
285,1387.500000,-227.500000
286,1362.500000,-223.500000
287,1350.000000,-220.500000
288,1325.000000,-219.500000
289,1275.000000,-219.000000
290,1262.500000,-211.500000
291,1237.500000,-211.500000
292,1212.500000,-217.000000
293,1187.500000,-207.500000
294,1162.500000,-210.500000
295,1137.500000,-209.000000
296,1087.500000,-203.000000
297,1112.500000,-199.000000
298,1037.500000,-203.000000
299,1062.500000,-194.000000
300,1025.000000,-195.000000
301,1025.000000,-193.000000
302,1012.500000,-196.000000
303,1000.000000,-191.500000
304,962.500000,-190.000000
305,950.000000,-186.000000
306,912.500000,-189.500000
307,900.000000,-183.500000
308,887.500000,-183.500000
309,850.000000,-182.500000
310,875.000000,-181.500000
311,825.000000,-184.000000
312,825.000000,-177.500000
313,825.000000,-177.500000
314,825.000000,-178.500000
315,800.000000,-178.000000
316,787.500000,-174.500000
317,787.500000,-180.000000
318,775.000000,-171.500000
319,787.500000,-171.000000
320,825.000000,-171.000000
321,750.000000,-178.500000
322,762.500000,-167.000000
323,800.000000,-172.500000
324,775.000000,-176.500000
325,737.500000,-175.000000
326,775.000000,-167.000000
327,812.500000,-175.500000
328,762.500000,-173.000000
329,775.000000,-174.000000
330,812.500000,-173.000000
331,762.500000,-175.500000
332,787.500000,-176.000000
333,825.000000,-180.500000
334,812.500000,-176.500000
335,837.500000,-178.500000
336,875.000000,-178.500000
337,862.500000,-182.000000
338,887.500000,-182.500000
339,912.500000,-183.000000
340,937.500000,-184.000000
341,937.500000,-189.500000
342,950.000000,-191.000000
343,1000.000000,-185.500000
344,1025.000000,-190.000000
345,1050.000000,-195.500000
346,1075.000000,-196.000000
347,1112.500000,-196.000000
348,1137.500000,-204.000000
349,1175.000000,-204.500000
350,1200.000000,-207.000000
351,1212.500000,-211.000000
352,1287.500000,-213.000000
353,1312.500000,-217.500000
354,1350.000000,-223.500000
355,1425.000000,-225.000000
356,1450.000000,-229.500000
357,1525.000000,-234.500000
358,1575.000000,-237.000000
359,1612.500000,-236.000000
360,1675.000000,-248.000000
361,1687.500000,-254.000000
362,1800.000000,-254.000000
363,1900.000000,-260.500000
364,1950.000000,-270.500000
365,2000.000000,-274.500000
366,2100.000000,-279.000000
367,2175.000000,-286.000000
368,2250.000000,-287.500000
369,2300.000000,-299.500000
370,2400.000000,-307.500000
371,2487.500000,-312.000000
372,2575.000000,-314.000000
373,2650.000000,-316.500000
374,2762.500000,-321.000000
375,2825.000000,-324.500000
376,2925.000000,-330.500000
377,3012.500000,-332.500000
378,3100.000000,-338.000000
379,3175.000000,-337.500000
380,3275.000000,-343.000000
381,3337.500000,-350.500000
382,3437.500000,-355.000000
383,3537.500000,-357.500000
384,3575.000000,-362.500000
385,3675.000000,-365.000000
386,3825.000000,-370.500000
387,3862.500000,-366.500000
388,3962.500000,-375.000000
389,4012.500000,-378.000000
390,4100.000000,-383.500000
391,4200.000000,-384.000000
392,4325.000000,-387.000000
393,4387.500000,-391.000000
394,4425.000000,-397.500000
395,4562.500000,-402.500000
396,4675.000000,-402.500000
397,4762.500000,-409.500000
398,4812.500000,-413.000000
399,4900.000000,-414.500000
400,4987.500000,-418.500000
401,5062.500000,-425.500000
402,5162.500000,-429.000000
403,5287.500000,-429.000000
404,5337.500000,-435.500000
405,5425.000000,-441.500000
406,5500.000000,-444.000000
407,5575.000000,-448.000000
408,5662.500000,-452.500000
409,5775.000000,-453.000000
410,5837.500000,-454.500000
411,5900.000000,-458.500000
412,6000.000000,-466.500000
413,6112.500000,-468.500000
414,6187.500000,-474.500000
415,6237.500000,-475.500000
416,6375.000000,-477.500000
417,6425.000000,-481.500000
418,6525.000000,-491.000000
419,6600.000000,-487.000000
420,6687.500000,-493.000000
421,6737.500000,-505.500000
422,6825.000000,-499.000000
423,6937.500000,-501.500000
424,6975.000000,-510.000000
425,7062.500000,-513.000000
426,7162.500000,-513.000000
427,7225.000000,-515.000000
428,7312.500000,-521.000000
429,7400.000000,-527.000000
430,7450.000000,-526.500000
431,7562.500000,-533.500000
432,7625.000000,-532.500000
433,7687.500000,-540.500000
434,7800.000000,-541.000000
435,7850.000000,-545.500000
436,7900.000000,-570.500000
437,8012.500000,-552.500000
438,8075.000000,-560.000000
439,8162.500000,-560.500000
440,8212.500000,-562.500000
441,8262.500000,-568.000000
442,8350.000000,-567.000000
443,8412.500000,-572.500000
444,8487.500000,-573.000000
445,8512.500000,-578.500000
446,8637.500000,-582.000000
447,8725.000000,-584.000000
448,8775.000000,-587.500000
449,8850.000000,-589.500000
450,8925.000000,-594.000000
451,8962.500000,-599.000000
452,9037.500000,-599.000000
453,9087.500000,-599.500000
454,9162.500000,-608.000000
455,9212.500000,-609.500000
456,9300.000000,-608.000000
457,9387.500000,-614.500000
458,9412.500000,-618.500000
459,9475.000000,-616.000000
460,9525.000000,-623.000000
461,9562.500000,-625.500000
462,9662.500000,-627.500000
463,9700.000000,-628.000000
464,9750.000000,-631.500000
465,9825.000000,-632.500000
466,9875.000000,-638.000000
467,9937.500000,-637.000000
468,9962.500000,-641.500000
469,10050.000000,-648.000000
470,10100.000000,-646.000000
471,10125.000000,-646.500000
472,10200.000000,-648.500000
473,10250.000000,-651.000000
474,10275.000000,-647.500000
475,10300.000000,-643.500000
476,10375.000000,-639.500000
477,10337.500000,-636.500000
478,10412.500000,-635.500000
479,10412.500000,-626.500000
480,10437.500000,-625.000000
481,10412.500000,-630.000000
482,10437.500000,-627.500000
483,10475.000000,-624.000000
484,10475.000000,-620.500000
485,10437.500000,-627.000000
486,10487.500000,-622.000000
487,10487.500000,-617.000000
488,10475.000000,-620.000000
489,10450.000000,-619.000000
490,10450.000000,-623.000000
491,10437.500000,-623.000000
492,10462.500000,-623.000000
493,10475.000000,-620.500000
494,10462.500000,-621.000000
495,10425.000000,-623.000000
496,10462.500000,-625.000000
497,10450.000000,-625.500000
498,10400.000000,-626.500000
499,10450.000000,-626.500000
500,10437.500000,-626.000000
501,10412.500000,-629.000000
502,10412.500000,-631.500000
503,10387.500000,-627.500000
504,10387.500000,-631.000000
505,10350.000000,-632.500000
506,10400.000000,-631.500000
507,10387.500000,-630.500000
508,10350.000000,-634.000000
509,10387.500000,-634.000000
510,10362.500000,-635.000000
511,10337.500000,-636.500000
512,10350.000000,-637.000000
513,10337.500000,-635.000000
514,10337.500000,-639.000000
515,10325.000000,-641.500000
516,10300.000000,-639.000000
517,10337.500000,-638.500000
518,10350.000000,-644.000000
519,10337.500000,-641.500000
520,10287.500000,-645.000000
521,10275.000000,-646.000000
522,10287.500000,-645.500000
523,10275.000000,-645.500000
524,10275.000000,-648.000000
525,10262.500000,-641.500000
526,10275.000000,-652.000000
527,10250.000000,-648.000000
528,10237.500000,-648.000000
529,10237.500000,-650.500000
530,10237.500000,-653.000000
531,10212.500000,-653.000000
532,10212.500000,-652.500000
533,10200.000000,-652.500000
534,10187.500000,-650.500000
535,10150.000000,-649.500000
536,10150.000000,-647.500000
537,10150.000000,-650.500000
538,10150.000000,-648.000000
539,10100.000000,-650.000000
540,10087.500000,-651.000000
541,10050.000000,-648.000000
542,10062.500000,-647.000000
543,10037.500000,-650.000000
544,10025.000000,-646.000000
545,9950.000000,-642.000000
546,9975.000000,-642.500000
547,9975.000000,-644.500000
548,9912.500000,-647.500000
549,9925.000000,-640.500000
550,9850.000000,-639.000000
551,9812.500000,-640.500000
552,9825.000000,-636.000000
553,9775.000000,-634.000000
554,9737.500000,-633.500000
555,9687.500000,-633.000000
556,9662.500000,-632.500000
557,9637.500000,-629.500000
558,9600.000000,-628.000000
559,9562.500000,-625.000000
560,9537.500000,-627.500000
561,9475.000000,-625.000000
562,9475.000000,-620.500000
563,9412.500000,-618.500000
564,9375.000000,-621.000000
565,9337.500000,-614.500000
566,9287.500000,-612.500000
567,9225.000000,-613.000000
568,9187.500000,-612.000000
569,9137.500000,-610.500000
570,9075.000000,-607.000000
571,9050.000000,-607.500000
572,9012.500000,-606.000000
573,8975.000000,-603.500000
574,8900.000000,-604.500000
575,8875.000000,-597.000000
576,8812.500000,-597.000000
577,8775.000000,-593.500000
578,8687.500000,-591.000000
579,8675.000000,-586.500000
580,8637.500000,-584.500000
581,8575.000000,-584.500000
582,8512.500000,-578.500000
583,8475.000000,-579.500000
584,8400.000000,-576.000000
585,8325.000000,-573.000000
586,8287.500000,-572.500000
587,8225.000000,-571.500000
588,8150.000000,-567.000000
589,8112.500000,-563.000000
590,8050.000000,-563.000000
591,7987.500000,-564.000000
592,7900.000000,-559.000000
593,7862.500000,-553.000000
594,7800.000000,-552.500000
595,7775.000000,-547.500000
596,7737.500000,-544.000000
597,7662.500000,-546.500000
598,7575.000000,-540.500000
599,7525.000000,-536.000000
600,7475.000000,-534.000000
601,7387.500000,-534.500000
602,7325.000000,-532.500000
603,7262.500000,-529.000000
604,7212.500000,-527.000000
605,7187.500000,-522.500000
606,7062.500000,-518.500000
607,6987.500000,-521.500000
608,6962.500000,-515.000000
609,6900.000000,-509.000000
610,6850.000000,-512.000000
611,6762.500000,-506.500000
612,6712.500000,-501.500000
613,6675.000000,-499.000000
614,6550.000000,-501.500000
615,6525.000000,-494.000000
616,6462.500000,-490.000000
617,6387.500000,-493.500000
618,6337.500000,-487.000000
619,6262.500000,-485.000000
620,6200.000000,-481.000000
621,6162.500000,-475.000000
622,6087.500000,-475.500000
623,6050.000000,-472.000000
624,5987.500000,-471.000000
625,5925.000000,-466.500000
626,5825.000000,-464.000000
627,5812.500000,-463.000000
628,5725.000000,-461.000000
629,5675.000000,-455.000000
630,5625.000000,-452.000000
631,5525.000000,-450.500000
632,5487.500000,-445.000000
633,5437.500000,-446.000000
634,5387.500000,-445.000000
635,5312.500000,-441.500000
636,5287.500000,-437.000000
637,5175.000000,-432.000000
638,5112.500000,-432.000000
639,5037.500000,-428.000000
640,5025.000000,-429.000000
641,4937.500000,-429.000000
642,4900.000000,-405.000000
643,4825.000000,-417.500000
644,4750.000000,-417.000000
645,4737.500000,-413.000000
646,4687.500000,-413.500000
647,4600.000000,-411.500000
648,4537.500000,-406.500000
649,4537.500000,-405.000000
650,4462.500000,-403.000000
651,4412.500000,-399.000000
652,4387.500000,-396.000000
653,4325.000000,-396.000000
654,4275.000000,-397.000000
655,4237.500000,-388.500000
656,4162.500000,-385.500000
657,4100.000000,-389.000000
658,4062.500000,-389.000000
659,4037.500000,-381.000000
660,3962.500000,-380.000000
661,3937.500000,-379.500000
662,3925.000000,-379.000000
663,3837.500000,-376.000000
664,3787.500000,-372.000000
665,3800.000000,-372.000000
666,3725.000000,-372.000000
667,3725.000000,-368.500000
668,3650.000000,-365.500000
669,3587.500000,-366.000000
670,3562.500000,-364.500000
671,3537.500000,-364.000000
672,3487.500000,-358.500000
673,3475.000000,-359.500000
674,3437.500000,-354.500000
675,3350.000000,-351.000000
676,3375.000000,-348.000000
677,3312.500000,-355.000000
678,3287.500000,-349.000000
679,3275.000000,-347.500000
680,3250.000000,-347.000000
681,3225.000000,-349.000000
682,3175.000000,-346.500000
683,3175.000000,-342.500000
684,3125.000000,-342.500000
685,3125.000000,-341.500000
686,3100.000000,-343.000000
687,3062.500000,-339.500000
688,3075.000000,-338.000000
689,3025.000000,-334.500000
690,3000.000000,-333.500000
691,2987.500000,-337.000000
692,2975.000000,-336.000000
693,2925.000000,-335.500000
694,2937.500000,-337.000000
695,2925.000000,-335.500000
696,2912.500000,-331.000000
697,2850.000000,-336.500000
698,2900.000000,-340.500000
699,2875.000000,-331.000000
700,2862.500000,-331.000000
