实验4/1_wq.csv

X,CH1,Start,Increment,
Sequence,Volt,-1.400000e-03,2.000000e-06,
0,2.000000e-03,
1,-4.200000e-02,
2,2.000000e-03,
3,-4.200000e-02,
4,-4.400000e-02,
5,8.000000e-03,
6,-3.000000e-02,
7,-6.000001e-03,
8,-3.000000e-02,
9,-8.000000e-03,
10,0.000000e+00,
11,-4.600000e-02,
12,-5.400000e-02,
13,1.000000e-02,
14,-6.000001e-03,
15,-3.000000e-02,
16,-3.400000e-02,
17,-8.000000e-03,
18,2.000000e-03,
19,-4.400000e-02,
20,6.000001e-03,
21,-5.000000e-02,
22,-1.000000e-02,
23,-3.200000e-02,
24,-4.400000e-02,
25,0.000000e+00,
26,1.200000e-02,
27,-5.200000e-02,
28,-3.200000e-02,
29,-8.000000e-03,
30,-8.000000e-03,
31,-3.200000e-02,
32,8.000000e-03,
33,-4.600000e-02,
34,-4.600000e-02,
35,1.400000e-02,
36,-3.000000e-02,
37,-6.000001e-03,
38,-8.000000e-03,
39,-3.000000e-02,
40,6.000001e-03,
41,-5.000000e-02,
42,6.000001e-03,
43,-4.400000e-02,
44,-8.000000e-03,
45,-3.000000e-02,
46,-1.000000e-02,
47,-3.200000e-02,
48,-3.600000e-02,
49,0.000000e+00,
50,2.000000e-03,
51,-5.000000e-02,
52,-6.000001e-03,
53,-3.400000e-02,
54,-4.200000e-02,
55,6.000001e-03,
56,6.000001e-03,
57,-4.800000e-02,
58,-3.000000e-02,
59,-8.000000e-03,
60,-6.000001e-03,
61,-3.200000e-02,
62,0.000000e+00,
63,-4.200000e-02,
64,-4.600000e-02,
65,2.000000e-03,
66,-4.000000e-03,
67,-3.200000e-02,
68,-8.000000e-03,
69,-3.000000e-02,
70,-4.600000e-02,
71,-2.000000e-03,
72,2.000000e-03,
73,-5.400000e-02,
74,-3.200000e-02,
75,-2.000000e-03,
76,-3.000000e-02,
77,-8.000000e-03,
78,4.000000e-03,
79,-4.800000e-02,
80,1.000000e-02,
81,-4.600000e-02,
82,-3.200000e-02,
83,-1.000000e-02,
84,-4.400000e-02,
85,4.000000e-03,
86,4.000000e-03,
87,-5.200000e-02,
88,-3.000000e-02,
89,-6.000001e-03,
90,-8.000000e-03,
91,-3.200000e-02,
92,-4.200000e-02,
93,8.000000e-03,
94,-5.000000e-02,
95,6.000001e-03,
96,-1.000000e-02,
97,-3.000000e-02,
98,-3.400000e-02,
99,-6.000001e-03,
100,4.000000e-03,
101,-4.200000e-02,
102,8.000000e-03,
103,-4.400000e-02,
104,-1.000000e-02,
105,-3.000000e-02,
106,-4.200000e-02,
107,8.000000e-03,
108,-4.200000e-02,
109,8.000000e-03,
110,-3.400000e-02,
111,-8.000000e-03,
112,-8.000000e-03,
113,-3.200000e-02,
114,0.000000e+00,
115,-4.200000e-02,
116,-4.600000e-02,
117,8.000000e-03,
118,-4.000000e-03,
119,-3.200000e-02,
120,-8.000000e-03,
121,-3.200000e-02,
122,2.000000e-03,
123,-4.200000e-02,
124,-4.400000e-02,
125,1.200000e-02,
126,-3.200000e-02,
127,-8.000000e-03,
128,-4.400000e-02,
129,0.000000e+00,
130,1.200000e-02,
131,-4.600000e-02,
132,-3.200000e-02,
133,-6.000001e-03,
134,-3.200000e-02,
135,-6.000001e-03,
136,8.000000e-03,
137,-4.200000e-02,
138,-4.600000e-02,
139,8.000000e-03,
140,-6.000001e-03,
141,-3.000000e-02,
142,-3.200000e-02,
143,-8.000000e-03,
144,-4.000000e-02,
145,4.000000e-03,
146,4.000000e-03,
147,-5.000000e-02,
148,-3.000000e-02,
149,-6.000001e-03,
150,-2.800000e-02,
151,-6.000001e-03,
152,-4.800000e-02,
153,1.600000e-02,
154,-2.000000e-03,
155,-3.400000e-02,
156,-6.000001e-03,
157,-3.200000e-02,
158,-3.800000e-02,
159,2.000000e-03,
160,1.000000e-02,
161,-4.400000e-02,
162,-6.000001e-03,
163,-3.000000e-02,
164,-3.000000e-02,
165,-8.000000e-03,
166,4.000000e-03,
167,-5.200000e-02,
168,-4.600000e-02,
169,6.000001e-03,
170,-8.000000e-03,
171,-3.200000e-02,
172,-6.000001e-03,
173,-3.000000e-02,
174,0.000000e+00,
175,-4.200000e-02,
176,-4.600000e-02,
177,6.000001e-03,
178,-8.000000e-03,
179,-3.000000e-02,
180,-3.800000e-02,
181,4.000000e-03,
182,-4.800000e-02,
183,8.000000e-03,
184,-3.400000e-02,
185,-8.000000e-03,
186,-6.000001e-03,
187,-3.400000e-02,
188,4.000000e-03,
189,-4.400000e-02,
190,8.000000e-03,
191,-4.400000e-02,
192,-3.000000e-02,
193,-6.000001e-03,
194,-6.000001e-03,
195,-3.200000e-02,
196,6.000001e-03,
197,-4.200000e-02,
198,-4.800000e-02,
199,4.000000e-03,
200,-1.000000e-02,
201,-3.000000e-02,
202,2.000000e-03,
203,-4.800000e-02,
204,-4.800000e-02,
205,1.000000e-02,
206,-3.200000e-02,
207,-8.000000e-03,
208,-3.200000e-02,
209,-6.000001e-03,
210,-4.600000e-02,
211,4.000000e-03,
212,6.000001e-03,
213,-4.400000e-02,
214,-8.000000e-03,
215,-3.200000e-02,
216,-3.000000e-02,
217,-6.000001e-03,
218,-4.800000e-02,
219,2.000000e-03,
220,-4.200000e-02,
221,1.200000e-02,
222,-8.000000e-03,
223,-3.400000e-02,
224,4.000000e-03,
225,-4.400000e-02,
226,-5.000000e-02,
227,8.000000e-03,
228,-6.000001e-03,
229,-3.000000e-02,
230,-3.000000e-02,
231,-4.000000e-03,
232,4.000000e-03,
233,-4.200000e-02,
234,8.000000e-03,
235,-5.000000e-02,
236,-3.200000e-02,
237,-8.000000e-03,
238,-3.200000e-02,
239,-6.000001e-03,
240,-5.200000e-02,
241,1.000000e-02,
242,-4.200000e-02,
243,-4.000000e-03,
244,-3.200000e-02,
245,-8.000000e-03,
246,-4.600000e-02,
247,1.000000e-02,
248,6.000001e-03,
249,-4.600000e-02,
250,-4.000000e-03,
251,-3.200000e-02,
252,-8.000000e-03,
253,-3.000000e-02,
254,4.000000e-03,
255,-4.400000e-02,
256,-5.600000e-02,
257,6.000001e-03,
258,-6.000001e-03,
259,-3.400000e-02,
260,-8.000000e-03,
261,-3.200000e-02,
262,-4.000000e-02,
263,1.000000e-02,
264,-3.400000e-02,
265,-6.000001e-03,
266,-2.800000e-02,
267,-6.000001e-03,
268,-4.400000e-02,
269,4.000000e-03,
270,8.000000e-03,
271,-4.600000e-02,
272,-6.000001e-03,
273,-3.200000e-02,
274,-8.000000e-03,
275,-3.000000e-02,
276,-2.000000e-03,
277,-4.600000e-02,
278,8.000000e-03,
279,-5.000000e-02,
280,-8.000000e-03,
281,-3.000000e-02,
282,-4.200000e-02,
283,2.000000e-03,
284,-4.800000e-02,
285,8.000000e-03,
286,-8.000000e-03,
287,-3.000000e-02,
288,-3.000000e-02,
289,-6.000001e-03,
290,-3.800000e-02,
291,4.000000e-03,
292,-4.600000e-02,
293,6.000001e-03,
294,-3.000000e-02,
295,-6.000001e-03,
296,-3.200000e-02,
297,-8.000000e-03,
298,-4.400000e-02,
299,2.000000e-03,
300,-4.400000e-02,
301,6.000001e-03,
302,-6.000001e-03,
303,-3.000000e-02,
304,8.000000e-03,
305,-4.600000e-02,
306,-4.800000e-02,
307,6.000001e-03,
308,-6.000001e-03,
309,-3.000000e-02,
310,-1.000000e-02,
311,-3.200000e-02,
312,-4.600000e-02,
313,4.000000e-03,
314,-4.800000e-02,
315,1.000000e-02,
316,-8.000000e-03,
317,-3.400000e-02,
318,-8.000000e-03,
319,-3.400000e-02,
320,4.000000e-03,
321,-4.400000e-02,
322,-4.800000e-02,
323,0.000000e+00,
324,-8.000000e-03,
325,-3.000000e-02,
326,-4.000000e-02,
327,4.000000e-03,
328,-5.000000e-02,
329,1.200000e-02,
330,-8.000000e-03,
331,-3.200000e-02,
332,-8.000000e-03,
333,-3.000000e-02,
334,-4.000000e-02,
335,8.000000e-03,
336,-4.200000e-02,
337,8.000000e-03,
338,-3.000000e-02,
339,-6.000001e-03,
340,-4.000000e-02,
341,2.000000e-03,
342,-4.800000e-02,
343,1.400000e-02,
344,-6.000001e-03,
345,-2.800000e-02,
346,-3.000000e-02,
347,-4.000000e-03,
348,-4.400000e-02,
349,2.000000e-03,
350,4.000000e-03,
351,-4.600000e-02,
352,-6.000001e-03,
353,-3.400000e-02,
354,-8.000000e-03,
355,-3.200000e-02,
356,-4.200000e-02,
357,4.000000e-03,
358,-4.800000e-02,
359,1.000000e-02,
360,-3.200000e-02,
361,-4.000000e-03,
362,-4.800000e-02,
363,6.000001e-03,
364,-4.600000e-02,
365,6.000001e-03,
366,-6.000001e-03,
367,-3.000000e-02,
368,-8.000000e-03,
369,-3.200000e-02,
370,-4.400000e-02,
371,6.000001e-03,
372,6.000001e-03,
373,-5.400000e-02,
374,-3.000000e-02,
375,-6.000001e-03,
376,-3.000000e-02,
377,-8.000000e-03,
378,1.000000e-02,
379,-4.600000e-02,
380,-3.000000e-02,
381,-6.000001e-03,
382,-1.000000e-02,
383,-3.200000e-02,
384,-4.800000e-02,
385,4.000000e-03,
386,-4.800000e-02,
387,8.000000e-03,
388,-8.000000e-03,
389,-3.200000e-02,
390,-3.200000e-02,
391,-6.000001e-03,
392,2.000000e-03,
393,-5.000000e-02,
394,1.400000e-02,
395,-5.000000e-02,
396,-8.000000e-03,
397,-3.200000e-02,
398,-4.400000e-02,
399,2.000000e-03,
400,1.000000e-02,
401,-5.200000e-02,
402,-3.400000e-02,
403,-6.000001e-03,
404,-3.000000e-02,
405,-4.000000e-03,
406,1.200000e-02,
407,-4.400000e-02,
408,-5.000000e-02,
409,1.000000e-02,
410,-8.000000e-03,
411,-3.000000e-02,
412,-3.000000e-02,
413,-6.000001e-03,
414,1.000000e-02,
415,-5.000000e-02,
416,-4.000000e-03,
417,-3.000000e-02,
418,-6.000001e-03,
419,-3.000000e-02,
420,-4.400000e-02,
421,8.000000e-03,
422,8.000000e-03,
423,-5.600000e-02,
424,-3.000000e-02,
425,-6.000001e-03,
426,-3.800000e-02,
427,-4.000000e-03,
428,-4.200000e-02,
429,6.000001e-03,
430,-5.200000e-02,
431,1.000000e-02,
432,-3.000000e-02,
433,-6.000001e-03,
434,6.000001e-03,
435,-4.200000e-02,
436,-4.600000e-02,
437,1.400000e-02,
438,-6.000001e-03,
439,-3.400000e-02,
440,-6.000001e-03,
441,-3.200000e-02,
442,-5.000000e-02,
443,4.000000e-03,
444,1.600000e-02,
445,-5.000000e-02,
446,-3.000000e-02,
447,-8.000000e-03,
448,-3.000000e-02,
449,-6.000001e-03,
450,-4.800000e-02,
451,1.000000e-02,
452,-3.400000e-02,
453,-6.000001e-03,
454,-6.000001e-03,
455,-3.000000e-02,
456,-4.800000e-02,
457,6.000001e-03,
458,1.400000e-02,
459,-4.800000e-02,
460,-8.000000e-03,
461,-3.200000e-02,
462,-3.200000e-02,
463,-6.000001e-03,
464,1.000000e-02,
465,-4.600000e-02,
466,1.200000e-02,
467,-4.400000e-02,
468,-8.000000e-03,
469,-3.000000e-02,
470,1.000000e-02,
471,-3.600000e-02,
472,8.000000e-03,
473,-5.000000e-02,
474,-6.000001e-03,
475,-3.000000e-02,
476,-3.200000e-02,
477,-8.000000e-03,
478,-4.400000e-02,
479,6.000001e-03,
480,-4.600000e-02,
481,8.000000e-03,
482,-6.000001e-03,
483,-3.200000e-02,
484,-4.000000e-02,
485,4.000000e-03,
486,4.000000e-03,
487,-4.800000e-02,
488,-6.000001e-03,
489,-3.400000e-02,
490,-3.200000e-02,
491,-8.000000e-03,
492,0.000000e+00,
493,-4.600000e-02,
494,8.000000e-03,
495,-4.600000e-02,
496,-4.000000e-03,
497,-3.000000e-02,
498,-3.200000e-02,
499,-6.000001e-03,
500,-5.000000e-02,
501,8.000000e-03,
502,-8.000000e-03,
503,-3.200000e-02,
504,-4.000000e-03,
505,-3.000000e-02,
506,-4.600000e-02,
507,6.000001e-03,
508,-5.400000e-02,
509,1.400000e-02,
510,-8.000000e-03,
511,-3.000000e-02,
512,-3.200000e-02,
513,-8.000000e-03,
514,-4.800000e-02,
515,2.000000e-03,
516,-4.600000e-02,
517,1.000000e-02,
518,-3.200000e-02,
519,-6.000001e-03,
520,-4.400000e-02,
521,4.000000e-03,
522,1.200000e-02,
523,-5.200000e-02,
524,-3.200000e-02,
525,-8.000000e-03,
526,-1.000000e-02,
527,-3.200000e-02,
528,-4.000000e-02,
529,4.000000e-03,
530,1.200000e-02,
531,-5.000000e-02,
532,-1.000000e-02,
533,-3.400000e-02,
534,-4.600000e-02,
535,8.000000e-03,
536,-5.000000e-02,
537,1.000000e-02,
538,-3.400000e-02,
539,-4.000000e-03,
540,-3.000000e-02,
541,-6.000001e-03,
542,-4.800000e-02,
543,6.000001e-03,
544,8.000000e-03,
545,-5.000000e-02,
546,-3.000000e-02,
547,-8.000000e-03,
548,-6.000001e-03,
549,-3.200000e-02,
550,-4.800000e-02,
551,1.000000e-02,
552,-3.400000e-02,
553,-8.000000e-03,
554,-3.200000e-02,
555,-6.000001e-03,
556,-4.800000e-02,
557,4.000000e-03,
558,-5.000000e-02,
559,1.400000e-02,
560,-3.200000e-02,
561,-6.000001e-03,
562,-4.000000e-03,
563,-3.200000e-02,
564,-4.800000e-02,
565,1.400000e-02,
566,-3.600000e-02,
567,-6.000001e-03,
568,-8.000000e-03,
569,-3.200000e-02,
570,2.000000e-03,
571,-4.600000e-02,
572,8.000000e-03,
573,-4.800000e-02,
574,-8.000000e-03,
575,-3.000000e-02,
576,-6.000001e-03,
577,-3.000000e-02,
578,-4.400000e-02,
579,6.000001e-03,
580,-4.800000e-02,
581,1.400000e-02,
582,-6.000001e-03,
583,-3.400000e-02,
584,-4.000000e-02,
585,4.000000e-03,
586,8.000000e-03,
587,-5.400000e-02,
588,-8.000000e-03,
589,-3.000000e-02,
590,-2.000000e-03,
591,-3.000000e-02,
592,-4.600000e-02,
593,2.000000e-03,
594,-5.200000e-02,
595,8.000000e-03,
596,-6.000001e-03,
597,-2.800000e-02,
598,0.000000e+00,
599,-5.000000e-02,
600,-4.800000e-02,
601,1.200000e-02,
602,-3.200000e-02,
603,-8.000000e-03,
604,-8.000000e-03,
605,-3.200000e-02,
606,-4.600000e-02,
607,6.000001e-03,
608,-4.600000e-02,
609,1.000000e-02,
610,-3.000000e-02,
611,-6.000001e-03,
612,-4.000000e-03,
613,-3.000000e-02,
614,1.200000e-02,
615,-4.800000e-02,
616,-6.000001e-03,
617,-3.000000e-02,
618,-3.200000e-02,
619,-8.000000e-03,
620,6.000001e-03,
621,-4.200000e-02,
622,-4.400000e-02,
623,1.200000e-02,
624,-3.200000e-02,
625,-8.000000e-03,
626,-1.000000e-02,
627,-3.200000e-02,
628,8.000000e-03,
629,-5.000000e-02,
630,-3.800000e-02,
631,0.000000e+00,
632,-3.200000e-02,
633,-6.000001e-03,
634,-5.200000e-02,
635,1.000000e-02,
636,8.000000e-03,
637,-5.200000e-02,
638,-6.000001e-03,
639,-3.200000e-02,
640,-3.000000e-02,
641,-6.000001e-03,
642,-4.800000e-02,
643,2.000000e-03,
644,-5.200000e-02,
645,0.000000e+00,
646,-2.800000e-02,
647,-4.000000e-03,
648,-4.800000e-02,
649,2.000000e-03,
650,-5.400000e-02,
651,8.000000e-03,
652,-8.000000e-03,
653,-3.200000e-02,
654,-3.000000e-02,
655,-4.000000e-03,
656,-4.400000e-02,
657,6.000001e-03,
658,-4.600000e-02,
659,1.400000e-02,
660,-3.200000e-02,
661,-8.000000e-03,
662,-3.800000e-02,
663,1.000000e-02,
664,-4.600000e-02,
665,8.000000e-03,
666,-8.000000e-03,
667,-3.000000e-02,
668,-8.000000e-03,
669,-3.200000e-02,
670,-4.600000e-02,
671,0.000000e+00,
672,1.000000e-02,
673,-5.400000e-02,
674,-3.000000e-02,
675,-6.000001e-03,
676,-3.000000e-02,
677,-6.000001e-03,
678,-5.400000e-02,
679,6.000001e-03,
680,-6.000001e-03,
681,-3.000000e-02,
682,-3.000000e-02,
683,-4.000000e-03,
684,0.000000e+00,
685,-4.400000e-02,
686,1.000000e-02,
687,-5.000000e-02,
688,-3.200000e-02,
689,-4.000000e-03,
690,-8.000000e-03,
691,-3.000000e-02,
692,1.400000e-02,
693,-4.600000e-02,
694,-3.400000e-02,
695,-2.000000e-03,
696,-6.000001e-03,
697,-3.200000e-02,
698,-4.800000e-02,
699,8.000000e-03,
700,-4.600000e-02,
701,2.200000e-02,
702,-3.200000e-02,
703,-4.000000e-03,
704,-3.000000e-02,
705,-6.000001e-03,
706,-4.600000e-02,
707,6.000001e-03,
708,1.400000e-02,
709,-5.400000e-02,
710,-3.000000e-02,
711,-4.000000e-03,
712,-4.200000e-02,
713,4.000000e-03,
714,-4.600000e-02,
715,1.400000e-02,
716,-6.000001e-03,
717,-3.000000e-02,
718,-6.000001e-03,
719,-3.000000e-02,
720,2.000000e-03,
721,-4.600000e-02,
722,-5.200000e-02,
723,1.200000e-02,
724,-8.000000e-03,
725,-3.200000e-02,
726,1.400000e-02,
727,-4.400000e-02,
728,8.000000e-03,
729,-4.400000e-02,
730,-6.000001e-03,
731,-3.000000e-02,
732,-3.000000e-02,
733,-6.000001e-03,
734,-5.000000e-02,
735,1.000000e-02,
736,8.000000e-03,
737,-5.200000e-02,
738,-6.000001e-03,
739,-3.000000e-02,
740,-5.000000e-02,
741,8.000000e-03,
742,-4.600000e-02,
743,1.000000e-02,
744,-8.000000e-03,
745,-3.200000e-02,
746,-8.000000e-03,
747,-3.000000e-02,
748,-4.000000e-02,
749,8.000000e-03,
750,1.400000e-02,
751,-4.600000e-02,
752,-6.000001e-03,
753,-2.800000e-02,
754,-3.000000e-02,
755,-6.000001e-03,
756,-4.800000e-02,
757,1.400000e-02,
758,-2.800000e-02,
759,-6.000001e-03,
760,-3.400000e-02,
761,-2.000000e-03,
762,1.200000e-02,
763,-4.200000e-02,
764,1.000000e-02,
765,-5.200000e-02,
766,-8.000000e-03,
767,-3.000000e-02,
768,-3.000000e-02,
769,-6.000001e-03,
770,-4.600000e-02,
771,8.000000e-03,
772,-3.800000e-02,
773,-6.000001e-03,
774,-4.000000e-03,
775,-3.200000e-02,
776,-4.400000e-02,
777,8.000000e-03,
778,-4.800000e-02,
779,1.000000e-02,
780,-8.000000e-03,
781,-3.000000e-02,
782,-3.200000e-02,
783,-6.000001e-03,
784,-4.600000e-02,
785,8.000000e-03,
786,1.800000e-02,
787,-4.600000e-02,
788,-8.000000e-03,
789,-3.000000e-02,
790,1.000000e-02,
791,-4.400000e-02,
792,1.200000e-02,
793,-5.200000e-02,
794,-3.000000e-02,
795,-6.000001e-03,
796,-8.000000e-03,
797,-2.800000e-02,
798,-4.200000e-02,
799,6.000001e-03,
800,-5.200000e-02,
801,1.200000e-02,
802,-2.800000e-02,
803,-4.000000e-03,
804,-4.600000e-02,
805,6.000001e-03,
806,-5.400000e-02,
807,1.200000e-02,
808,-3.000000e-02,
809,-6.000001e-03,
810,-8.000000e-03,
811,-3.000000e-02,
812,-4.800000e-02,
813,4.000000e-03,
814,-4.600000e-02,
815,1.000000e-02,
816,-2.000000e-03,
817,-3.200000e-02,
818,1.400000e-02,
819,-4.000000e-02,
820,1.200000e-02,
821,-5.400000e-02,
822,-2.800000e-02,
823,-6.000001e-03,
824,-3.200000e-02,
825,-6.000001e-03,
826,1.000000e-02,
827,-4.200000e-02,
828,1.000000e-02,
829,-5.600000e-02,
830,-6.000001e-03,
831,-3.000000e-02,
832,-2.800000e-02,
833,-6.000001e-03,
834,1.600000e-02,
835,-4.400000e-02,
836,-6.000001e-03,
837,-3.200000e-02,
838,-8.000000e-03,
839,-3.400000e-02,
840,1.200000e-02,
841,-3.800000e-02,
842,1.000000e-02,
843,-4.800000e-02,
844,-2.800000e-02,
845,-6.000001e-03,
846,-4.000000e-03,
847,-3.000000e-02,
848,-4.400000e-02,
849,1.400000e-02,
850,-2.800000e-02,
851,-4.000000e-03,
852,-4.000000e-03,
853,-3.200000e-02,
854,-4.000000e-02,
855,1.200000e-02,
856,-5.000000e-02,
857,1.200000e-02,
858,-6.000001e-03,
859,-3.200000e-02,
860,-6.000001e-03,
861,-2.800000e-02,
862,6.000001e-03,
863,-4.800000e-02,
864,-3.600000e-02,
865,2.000000e-03,
866,-8.000000e-03,
867,-3.000000e-02,
868,2.000000e-03,
869,-4.600000e-02,
870,8.000000e-03,
871,-5.600000e-02,
872,-6.000001e-03,
873,-3.000000e-02,
874,-4.000000e-03,
875,-3.200000e-02,
876,-4.400000e-02,
877,6.000001e-03,
878,-5.400000e-02,
879,1.400000e-02,
880,-6.000001e-03,
881,-2.800000e-02,
882,8.000000e-03,
883,-4.200000e-02,
884,1.000000e-02,
885,-5.400000e-02,
886,-6.000001e-03,
887,-3.000000e-02,
888,-8.000000e-03,
889,-2.800000e-02,
890,-4.200000e-02,
891,2.000000e-03,
892,1.400000e-02,
893,-4.400000e-02,
894,-6.000001e-03,
895,-3.000000e-02,
896,-5.200000e-02,
897,6.000001e-03,
898,-4.800000e-02,
899,1.000000e-02,
900,-3.000000e-02,
901,-4.000000e-03,
902,-6.000001e-03,
903,-3.000000e-02,
904,-4.000000e-02,
905,4.000000e-03,
906,-4.800000e-02,
907,1.000000e-02,
908,-2.800000e-02,
909,-6.000001e-03,
910,4.000000e-03,
911,-4.200000e-02,
912,-5.400000e-02,
913,1.000000e-02,
914,-3.200000e-02,
915,-4.000000e-03,
916,-4.000000e-03,
917,-2.800000e-02,
918,-4.200000e-02,
919,1.200000e-02,
920,1.600000e-02,
921,-4.400000e-02,
922,-3.000000e-02,
923,-4.000000e-03,
924,-3.000000e-02,
925,-6.000001e-03,
926,-4.400000e-02,
927,1.400000e-02,
928,-4.000000e-03,
929,-3.200000e-02,
930,-2.800000e-02,
931,-2.000000e-03,
932,-4.400000e-02,
933,4.000000e-03,
934,1.000000e-02,
935,-4.800000e-02,
936,-8.000000e-03,
937,-3.000000e-02,
938,-6.000001e-03,
939,-3.000000e-02,
940,-5.000000e-02,
941,1.600000e-02,
942,-8.000000e-03,
943,-3.200000e-02,
944,-2.800000e-02,
945,-4.000000e-03,
946,1.200000e-02,
947,-4.600000e-02,
948,1.200000e-02,
949,-4.600000e-02,
950,-6.000001e-03,
951,-3.000000e-02,
952,-3.000000e-02,
953,-4.000000e-03,
954,1.200000e-02,
955,-5.200000e-02,
956,2.000000e-03,
957,-3.200000e-02,
958,-6.000001e-03,
959,-2.800000e-02,
960,-4.200000e-02,
961,8.000000e-03,
962,1.200000e-02,
963,-4.600000e-02,
964,-3.000000e-02,
965,-6.000001e-03,
966,-4.000000e-03,
967,-3.000000e-02,
968,-4.400000e-02,
969,6.000001e-03,
970,1.600000e-02,
971,-5.000000e-02,
972,-4.000000e-03,
973,-3.000000e-02,
974,6.000001e-03,
975,-5.000000e-02,
976,1.200000e-02,
977,-4.600000e-02,
978,-3.000000e-02,
979,-2.000000e-03,
980,-6.000001e-03,
981,-3.000000e-02,
982,-4.200000e-02,
983,4.000000e-03,
984,-4.800000e-02,
985,1.000000e-02,
986,-3.000000e-02,
987,-2.000000e-03,
988,2.000000e-03,
989,-4.400000e-02,
990,-5.400000e-02,
991,6.000001e-03,
992,-2.800000e-02,
993,-2.000000e-03,
994,-3.000000e-02,
995,-8.000000e-03,
996,1.200000e-02,
997,-3.800000e-02,
998,-4.400000e-02,
999,1.200000e-02,
1000,-6.000001e-03,
1001,-3.000000e-02,
1002,8.000000e-03,
1003,-4.400000e-02,
1004,1.200000e-02,
1005,-5.200000e-02,
1006,-3.200000e-02,
1007,-4.000000e-03,
1008,-3.000000e-02,
1009,0.000000e+00,
1010,-3.600000e-02,
1011,2.000000e-03,
1012,-4.800000e-02,
1013,1.600000e-02,
1014,-3.200000e-02,
1015,-4.000000e-03,
1016,2.000000e-03,
1017,-4.800000e-02,
1018,-5.000000e-02,
1019,1.200000e-02,
1020,-3.400000e-02,
1021,-4.000000e-03,
1022,-3.000000e-02,
1023,-4.000000e-03,
1024,6.000001e-03,
1025,-4.400000e-02,
1026,6.000001e-03,
1027,-4.600000e-02,
1028,-6.000001e-03,
1029,-2.800000e-02,
1030,-4.000000e-03,
1031,-3.000000e-02,
1032,-4.600000e-02,
1033,1.400000e-02,
1034,-6.000001e-03,
1035,-3.000000e-02,
1036,-2.800000e-02,
1037,-2.000000e-03,
1038,-4.000000e-02,
1039,1.200000e-02,
1040,-5.000000e-02,
1041,1.600000e-02,
1042,-2.800000e-02,
1043,-6.000001e-03,
1044,-3.000000e-02,
1045,-6.000001e-03,
1046,8.000000e-03,
1047,-5.200000e-02,
1048,-3.200000e-02,
1049,-4.000000e-03,
1050,-2.800000e-02,
1051,-4.000000e-03,
1052,8.000000e-03,
1053,-4.600000e-02,
1054,1.400000e-02,
1055,-5.000000e-02,
1056,-3.000000e-02,
1057,-6.000001e-03,
1058,-8.000000e-03,
1059,-3.200000e-02,
1060,8.000000e-03,
1061,-5.000000e-02,
1062,4.000000e-03,
1063,-2.800000e-02,
1064,-4.000000e-03,
1065,-3.400000e-02,
