实验4/1_z.csv

X,CH1,Start,Increment,
Sequence,Volt,-1.400000e-03,2.000000e-06,
0,-5.000000e-02,
1,-4.000000e-03,
2,-5.000000e-02,
3,-4.000000e-03,
4,-5.200000e-02,
5,2.000000e-03,
6,-2.800000e-02,
7,-2.000000e-02,
8,-2.000000e-03,
9,-5.000000e-02,
10,-6.000001e-03,
11,-5.800000e-02,
12,-3.800000e-02,
13,-2.800000e-02,
14,-3.000000e-02,
15,-3.600000e-02,
16,-5.600000e-02,
17,-1.000000e-02,
18,-5.800000e-02,
19,-6.000001e-03,
20,-3.000000e-02,
21,-4.000000e-02,
22,-4.000000e-02,
23,-3.200000e-02,
24,-6.000000e-02,
25,-8.000000e-03,
26,-2.800000e-02,
27,-4.000000e-02,
28,-3.800000e-02,
29,-3.000000e-02,
30,-5.600000e-02,
31,-1.000000e-02,
32,-5.600000e-02,
33,-4.000000e-03,
34,-2.600000e-02,
35,-3.400000e-02,
36,-2.800000e-02,
37,-3.600000e-02,
38,-5.200000e-02,
39,-8.000000e-03,
40,-5.400000e-02,
41,0.000000e+00,
42,-2.600000e-02,
43,-3.600000e-02,
44,-5.600000e-02,
45,-1.000000e-02,
46,-5.800000e-02,
47,-6.000001e-03,
48,-3.400000e-02,
49,-2.600000e-02,
50,-3.400000e-02,
51,-2.600000e-02,
52,-5.400000e-02,
53,-8.000000e-03,
54,-1.000000e-02,
55,-6.200000e-02,
56,-3.000000e-02,
57,-4.000000e-02,
58,-4.000000e-02,
59,-3.000000e-02,
60,-5.800000e-02,
61,-4.000000e-03,
62,-2.400000e-02,
63,-3.800000e-02,
64,-3.000000e-02,
65,-2.200000e-02,
66,-6.000001e-03,
67,-5.200000e-02,
68,-2.000000e-03,
69,-5.400000e-02,
70,-2.600000e-02,
71,-3.600000e-02,
72,-3.800000e-02,
73,-2.600000e-02,
74,-5.400000e-02,
75,-8.000000e-03,
76,-8.000000e-03,
77,-6.200000e-02,
78,-3.800000e-02,
79,-2.600000e-02,
80,-5.400000e-02,
81,-8.000000e-03,
82,-6.000001e-03,
83,-5.800000e-02,
84,-2.600000e-02,
85,-3.400000e-02,
86,-3.400000e-02,
87,-2.200000e-02,
88,-4.600000e-02,
89,0.000000e+00,
90,4.000000e-03,
91,-5.000000e-02,
92,-3.000000e-02,
93,-2.000000e-02,
94,-2.800000e-02,
95,-1.800000e-02,
96,-4.600000e-02,
97,6.000001e-03,
98,-2.400000e-02,
99,-1.600000e-02,
100,-1.800000e-02,
101,-2.600000e-02,
102,-4.600000e-02,
103,0.000000e+00,
104,6.000001e-03,
105,-4.600000e-02,
106,-1.400000e-02,
107,-2.400000e-02,
108,-1.800000e-02,
109,-2.600000e-02,
110,-4.600000e-02,
111,2.000000e-03,
112,2.000000e-03,
113,-5.000000e-02,
114,-2.400000e-02,
115,-1.600000e-02,
116,-4.200000e-02,
117,2.000000e-03,
118,8.000000e-03,
119,-4.600000e-02,
120,-1.400000e-02,
121,-2.200000e-02,
122,-2.200000e-02,
123,-1.200000e-02,
124,-3.800000e-02,
125,8.000000e-03,
126,-4.200000e-02,
127,1.200000e-02,
128,-1.800000e-02,
129,-6.000001e-03,
130,-3.400000e-02,
131,1.200000e-02,
132,1.600000e-02,
133,-3.800000e-02,
134,-1.200000e-02,
135,-6.000001e-03,
136,-1.200000e-02,
137,-4.000000e-03,
138,-3.000000e-02,
139,1.600000e-02,
140,-3.200000e-02,
141,2.000000e-02,
142,-1.200000e-02,
143,-2.000000e-03,
144,-2.000000e-03,
145,-1.000000e-02,
146,-3.200000e-02,
147,2.000000e-02,
148,8.000000e-03,
149,-1.400000e-02,
150,2.000000e-03,
151,-8.000000e-03,
152,-2.400000e-02,
153,2.200000e-02,
154,-2.600000e-02,
155,2.600000e-02,
156,2.000000e-03,
157,-6.000001e-03,
158,0.000000e+00,
159,-1.000000e-02,
160,-2.800000e-02,
161,1.600000e-02,
162,-3.400000e-02,
163,2.000000e-02,
164,-8.000000e-03,
165,-1.600000e-02,
166,-4.000000e-02,
167,6.000001e-03,
168,8.000000e-03,
169,-4.600000e-02,
170,-1.400000e-02,
171,-2.400000e-02,
172,-1.800000e-02,
173,-2.800000e-02,
174,-2.000000e-03,
175,-4.800000e-02,
176,8.000000e-03,
177,-4.600000e-02,
178,-1.800000e-02,
179,-1.000000e-02,
180,-4.000000e-02,
181,6.000001e-03,
182,1.200000e-02,
183,-4.200000e-02,
184,-1.800000e-02,
185,-8.000000e-03,
186,-6.000001e-03,
187,-1.400000e-02,
188,-3.200000e-02,
189,1.400000e-02,
190,-3.600000e-02,
191,1.600000e-02,
192,-1.400000e-02,
193,-6.000001e-03,
194,-6.000001e-03,
195,-1.600000e-02,
196,-4.200000e-02,
197,1.400000e-02,
198,-2.200000e-02,
199,-8.000000e-03,
200,-1.400000e-02,
201,-6.000001e-03,
202,-3.400000e-02,
203,1.200000e-02,
204,-4.000000e-02,
205,1.400000e-02,
206,-1.600000e-02,
207,-6.000001e-03,
208,-6.000001e-03,
209,-1.200000e-02,
210,1.600000e-02,
211,-3.000000e-02,
212,1.800000e-02,
213,-3.800000e-02,
214,-1.400000e-02,
215,-2.400000e-02,
216,2.000000e-03,
217,-4.400000e-02,
218,6.000001e-03,
219,-5.000000e-02,
220,-2.400000e-02,
221,-1.800000e-02,
222,-2.400000e-02,
223,-1.400000e-02,
224,-4.000000e-02,
225,6.000001e-03,
226,-5.000000e-02,
227,4.000000e-03,
228,-2.600000e-02,
229,-1.600000e-02,
230,-4.400000e-02,
231,2.000000e-03,
232,-4.600000e-02,
233,8.000000e-03,
234,-2.400000e-02,
235,-1.600000e-02,
236,-2.200000e-02,
237,-1.200000e-02,
238,-3.800000e-02,
239,1.000000e-02,
240,-4.000000e-02,
241,1.400000e-02,
242,-1.200000e-02,
243,-2.000000e-02,
244,-1.400000e-02,
245,-2.400000e-02,
246,8.000000e-03,
247,-4.800000e-02,
248,-1.800000e-02,
249,-2.800000e-02,
250,-2.800000e-02,
251,-2.200000e-02,
252,-5.000000e-02,
253,-2.000000e-03,
254,-5.200000e-02,
255,4.000000e-03,
256,-2.400000e-02,
257,-1.600000e-02,
258,-2.200000e-02,
259,-1.400000e-02,
260,8.000000e-03,
261,-4.600000e-02,
262,-3.200000e-02,
263,-6.000001e-03,
264,-2.400000e-02,
265,-1.200000e-02,
266,-3.800000e-02,
267,8.000000e-03,
268,-4.200000e-02,
269,1.200000e-02,
270,-1.800000e-02,
271,-1.000000e-02,
272,-1.000000e-02,
273,-2.000000e-02,
274,-3.600000e-02,
275,8.000000e-03,
276,1.000000e-02,
277,-4.600000e-02,
278,-1.600000e-02,
279,-2.200000e-02,
280,-3.800000e-02,
281,8.000000e-03,
282,-3.800000e-02,
283,1.600000e-02,
284,-1.000000e-02,
285,-1.800000e-02,
286,-1.000000e-02,
287,-1.800000e-02,
288,-3.800000e-02,
289,8.000000e-03,
290,1.200000e-02,
291,-4.200000e-02,
292,-1.400000e-02,
293,-2.200000e-02,
294,-4.400000e-02,
295,4.000000e-03,
296,-4.600000e-02,
297,1.000000e-02,
298,-1.200000e-02,
299,-2.000000e-02,
300,-2.000000e-02,
301,-1.200000e-02,
302,-4.000000e-02,
303,8.000000e-03,
304,1.200000e-02,
305,-4.200000e-02,
306,-2.000000e-02,
307,-1.200000e-02,
308,-1.800000e-02,
309,-1.000000e-02,
310,-4.000000e-02,
311,1.600000e-02,
312,-1.800000e-02,
313,-1.000000e-02,
314,-1.200000e-02,
315,-2.200000e-02,
316,-4.000000e-02,
317,6.000001e-03,
318,1.200000e-02,
319,-4.200000e-02,
320,-1.600000e-02,
321,-6.000001e-03,
322,-1.400000e-02,
323,-6.000001e-03,
324,-3.800000e-02,
325,1.800000e-02,
326,-2.400000e-02,
327,0.000000e+00,
328,-2.000000e-02,
329,-1.000000e-02,
330,-4.000000e-02,
331,6.000001e-03,
332,1.000000e-02,
333,-4.400000e-02,
334,-2.200000e-02,
335,-1.600000e-02,
336,-1.600000e-02,
337,-2.200000e-02,
338,-4.400000e-02,
339,2.000000e-03,
340,-4.800000e-02,
341,8.000000e-03,
342,-1.600000e-02,
343,-2.400000e-02,
344,-4.400000e-02,
345,2.000000e-03,
346,8.000000e-03,
347,-4.600000e-02,
348,-1.800000e-02,
349,-1.200000e-02,
350,-1.400000e-02,
351,-2.200000e-02,
352,4.000000e-03,
353,-4.200000e-02,
354,-4.400000e-02,
355,1.200000e-02,
356,-2.000000e-02,
357,-1.000000e-02,
358,-4.000000e-02,
359,6.000001e-03,
360,1.000000e-02,
361,-4.400000e-02,
362,-1.600000e-02,
363,-2.400000e-02,
364,-2.400000e-02,
365,-1.600000e-02,
366,-4.600000e-02,
367,0.000000e+00,
368,4.000000e-03,
369,-5.000000e-02,
370,-1.800000e-02,
371,-2.800000e-02,
372,-5.000000e-02,
373,-4.000000e-03,
374,2.000000e-03,
375,-5.400000e-02,
376,-2.800000e-02,
377,-1.800000e-02,
378,-1.800000e-02,
379,-2.600000e-02,
380,-4.400000e-02,
381,0.000000e+00,
382,-4.800000e-02,
383,8.000000e-03,
384,-1.600000e-02,
385,-2.600000e-02,
386,-2.800000e-02,
387,-1.800000e-02,
388,-4.800000e-02,
389,4.000000e-03,
390,-2.600000e-02,
391,-1.800000e-02,
392,-2.600000e-02,
393,-1.800000e-02,
394,0.000000e+00,
395,-4.800000e-02,
396,-5.000000e-02,
397,4.000000e-03,
398,-2.800000e-02,
399,-2.000000e-02,
400,-2.000000e-02,
401,-2.800000e-02,
402,-2.000000e-03,
403,-5.600000e-02,
404,-4.200000e-02,
405,-1.600000e-02,
406,-3.000000e-02,
407,-3.800000e-02,
408,-6.000000e-02,
409,-1.200000e-02,
410,-8.000000e-03,
411,-6.400000e-02,
412,-4.000000e-02,
413,-3.000000e-02,
414,-3.200000e-02,
415,-4.000000e-02,
416,-1.400000e-02,
417,-6.200000e-02,
418,-8.000000e-03,
419,-6.200000e-02,
420,-3.400000e-02,
421,-4.400000e-02,
422,-6.000000e-02,
423,-1.400000e-02,
424,-8.000000e-03,
425,-6.200000e-02,
426,-3.600000e-02,
427,-2.600000e-02,
428,-2.600000e-02,
429,-3.400000e-02,
430,-5.200000e-02,
431,-6.000001e-03,
432,0.000000e+00,
433,-5.600000e-02,
434,-2.800000e-02,
435,-2.000000e-02,
436,-5.200000e-02,
437,-8.000000e-03,
438,-5.600000e-02,
439,0.000000e+00,
440,-2.400000e-02,
441,-3.200000e-02,
442,-2.400000e-02,
443,-3.200000e-02,
444,-5.400000e-02,
445,-8.000000e-03,
446,-6.000000e-02,
447,-4.000000e-03,
448,-3.400000e-02,
449,-2.600000e-02,
450,-5.000000e-02,
451,-4.000000e-03,
452,2.000000e-03,
453,-5.200000e-02,
454,-2.200000e-02,
455,-3.000000e-02,
456,-3.000000e-02,
457,-2.200000e-02,
458,-2.000000e-03,
459,-5.000000e-02,
460,-5.800000e-02,
461,-2.000000e-03,
462,-3.000000e-02,
463,-3.800000e-02,
464,-3.200000e-02,
465,-4.000000e-02,
466,-1.200000e-02,
467,-6.600000e-02,
468,-3.400000e-02,
469,-4.400000e-02,
470,-3.600000e-02,
471,-4.800000e-02,
472,-7.000000e-02,
473,-2.200000e-02,
474,-7.000000e-02,
475,-1.400000e-02,
476,-4.000000e-02,
477,-3.200000e-02,
478,-4.200000e-02,
479,-3.200000e-02,
480,-1.000000e-02,
481,-6.400000e-02,
482,-3.000000e-02,
483,-4.200000e-02,
484,-2.800000e-02,
485,-4.000000e-02,
486,-6.000000e-02,
487,-1.400000e-02,
488,-1.000000e-02,
489,-6.600000e-02,
490,-4.000000e-02,
491,-3.200000e-02,
492,-3.800000e-02,
493,-3.000000e-02,
494,-1.400000e-02,
495,-7.000000e-02,
496,-2.200000e-02,
497,-5.600000e-02,
498,-4.600000e-02,
499,-3.800000e-02,
500,-6.400000e-02,
501,-1.800000e-02,
502,-8.000000e-03,
503,-6.200000e-02,
504,-3.200000e-02,
505,-4.400000e-02,
506,-4.400000e-02,
507,-3.600000e-02,
508,-1.800000e-02,
509,-6.400000e-02,
510,-1.200000e-02,
511,-6.600000e-02,
512,-3.200000e-02,
513,-4.200000e-02,
514,-6.200000e-02,
515,-1.400000e-02,
516,-6.800000e-02,
517,-1.000000e-02,
518,-3.400000e-02,
519,-4.400000e-02,
520,-4.400000e-02,
521,-3.600000e-02,
522,-6.400000e-02,
523,-1.800000e-02,
524,-6.800000e-02,
525,-1.200000e-02,
526,-4.400000e-02,
527,-3.400000e-02,
528,-6.200000e-02,
529,-1.400000e-02,
530,-1.000000e-02,
531,-6.600000e-02,
532,-3.600000e-02,
533,-4.200000e-02,
534,-4.200000e-02,
535,-3.400000e-02,
536,-6.400000e-02,
537,-1.600000e-02,
538,-1.200000e-02,
539,-6.600000e-02,
540,-3.400000e-02,
541,-4.400000e-02,
542,-6.400000e-02,
543,-1.800000e-02,
544,-1.200000e-02,
545,-6.800000e-02,
546,-4.400000e-02,
547,-3.400000e-02,
548,-4.000000e-02,
549,-3.000000e-02,
550,-5.800000e-02,
551,-1.000000e-02,
552,-6.000000e-02,
553,-4.000000e-03,
554,-2.800000e-02,
555,-3.600000e-02,
556,-2.800000e-02,
557,-3.800000e-02,
558,-4.000000e-03,
559,-6.000000e-02,
560,-3.000000e-02,
561,-4.000000e-02,
562,-3.200000e-02,
563,-4.000000e-02,
564,-5.800000e-02,
565,-1.000000e-02,
566,-5.800000e-02,
567,-4.000000e-03,
568,-3.200000e-02,
569,-2.000000e-02,
570,-2.000000e-02,
571,-2.800000e-02,
572,-5.000000e-02,
573,6.000001e-03,
574,-1.800000e-02,
575,-2.800000e-02,
576,-2.800000e-02,
577,-2.200000e-02,
578,-5.200000e-02,
579,-4.000000e-03,
580,-5.400000e-02,
581,2.000000e-03,
582,-3.200000e-02,
583,-2.400000e-02,
584,-2.400000e-02,
585,-3.200000e-02,
586,-2.000000e-03,
587,-5.800000e-02,
588,-4.400000e-02,
589,-1.600000e-02,
590,-3.200000e-02,
591,-2.400000e-02,
592,-5.200000e-02,
593,-4.000000e-03,
594,-5.800000e-02,
595,-2.000000e-03,
596,-2.800000e-02,
597,-3.600000e-02,
598,-2.800000e-02,
599,-3.800000e-02,
600,-5.800000e-02,
601,-1.200000e-02,
602,-6.800000e-02,
603,-1.000000e-02,
604,-4.400000e-02,
605,-3.400000e-02,
606,-1.200000e-02,
607,-6.000000e-02,
608,-5.800000e-02,
609,-2.000000e-03,
610,-3.400000e-02,
611,-2.600000e-02,
612,-2.800000e-02,
613,-3.600000e-02,
614,-8.000000e-03,
615,-5.600000e-02,
616,-6.000000e-02,
617,-4.000000e-03,
618,-2.600000e-02,
619,-3.400000e-02,
620,-6.000000e-02,
621,-1.400000e-02,
622,-1.000000e-02,
623,-6.400000e-02,
624,-4.000000e-02,
625,-3.000000e-02,
626,-4.000000e-02,
627,-3.000000e-02,
628,-5.400000e-02,
629,-8.000000e-03,
630,-5.600000e-02,
631,0.000000e+00,
632,-2.000000e-02,
633,-2.800000e-02,
634,-4.800000e-02,
635,-2.000000e-03,
636,-5.200000e-02,
637,4.000000e-03,
638,-2.600000e-02,
639,-1.800000e-02,
640,-2.000000e-02,
641,-2.600000e-02,
642,-4.600000e-02,
643,2.000000e-03,
644,4.000000e-03,
645,-5.000000e-02,
646,-2.200000e-02,
647,-3.200000e-02,
648,-5.000000e-02,
649,-4.000000e-03,
650,6.000001e-03,
651,-5.000000e-02,
652,-1.800000e-02,
653,-2.800000e-02,
654,-2.000000e-02,
655,-2.800000e-02,
656,-5.000000e-02,
657,-2.000000e-03,
658,2.000000e-03,
659,-5.200000e-02,
660,-2.800000e-02,
661,-2.000000e-02,
662,-2.400000e-02,
663,-1.600000e-02,
664,-5.200000e-02,
665,4.000000e-03,
666,-1.800000e-02,
667,-2.800000e-02,
668,-3.000000e-02,
669,-2.200000e-02,
670,-1.000000e-02,
671,-5.600000e-02,
672,-4.000000e-03,
673,-6.000000e-02,
674,-3.200000e-02,
675,-2.400000e-02,
676,-3.000000e-02,
677,-2.400000e-02,
678,-5.600000e-02,
679,0.000000e+00,
680,-1.800000e-02,
681,-3.200000e-02,
682,-3.000000e-02,
683,-2.400000e-02,
684,-5.000000e-02,
685,-4.000000e-03,
686,0.000000e+00,
687,-5.400000e-02,
688,-2.200000e-02,
689,-3.000000e-02,
690,-2.800000e-02,
691,-2.000000e-02,
692,-4.800000e-02,
693,8.000000e-03,
694,-3.400000e-02,
695,-6.000001e-03,
696,-1.800000e-02,
697,-8.000000e-03,
698,-3.400000e-02,
699,1.200000e-02,
700,-3.600000e-02,
701,1.800000e-02,
702,-8.000000e-03,
703,-1.600000e-02,
704,-1.600000e-02,
705,-8.000000e-03,
706,-3.200000e-02,
707,1.400000e-02,
708,-3.600000e-02,
709,1.800000e-02,
710,-8.000000e-03,
711,2.000000e-03,
712,1.800000e-02,
713,-3.000000e-02,
714,2.200000e-02,
715,-3.400000e-02,
716,-2.000000e-03,
717,-1.200000e-02,
718,-1.200000e-02,
719,-2.000000e-03,
720,-2.800000e-02,
721,1.800000e-02,
722,2.400000e-02,
723,-3.000000e-02,
724,-2.000000e-03,
725,-8.000000e-03,
726,2.000000e-02,
727,-2.600000e-02,
728,-3.200000e-02,
729,2.400000e-02,
730,-2.000000e-03,
731,-1.200000e-02,
732,-4.000000e-03,
733,-1.400000e-02,
734,1.000000e-02,
735,-3.600000e-02,
736,-4.600000e-02,
737,1.000000e-02,
738,-2.200000e-02,
739,-1.200000e-02,
740,-4.400000e-02,
741,4.000000e-03,
742,8.000000e-03,
743,-4.800000e-02,
744,-1.800000e-02,
745,-2.400000e-02,
746,-2.200000e-02,
747,-1.200000e-02,
748,1.000000e-02,
749,-3.600000e-02,
750,-3.800000e-02,
751,1.800000e-02,
752,-1.600000e-02,
753,-8.000000e-03,
754,-3.400000e-02,
755,1.400000e-02,
756,1.600000e-02,
757,-3.800000e-02,
758,-8.000000e-03,
759,-1.800000e-02,
760,-2.000000e-02,
761,-1.400000e-02,
762,-4.200000e-02,
763,2.000000e-03,
764,1.000000e-02,
765,-4.400000e-02,
766,-2.200000e-02,
767,-1.400000e-02,
768,-1.600000e-02,
769,-2.200000e-02,
770,-4.200000e-02,
771,1.200000e-02,
772,-1.200000e-02,
773,-2.400000e-02,
774,-1.600000e-02,
775,-2.200000e-02,
776,6.000001e-03,
777,-4.200000e-02,
778,-4.200000e-02,
779,1.400000e-02,
780,-1.600000e-02,
781,-6.000001e-03,
782,-1.000000e-02,
783,-4.000000e-03,
784,1.800000e-02,
785,-3.800000e-02,
786,-1.600000e-02,
787,-4.000000e-03,
788,-8.000000e-03,
789,-1.600000e-02,
790,-3.600000e-02,
791,1.200000e-02,
792,-3.600000e-02,
793,1.800000e-02,
794,-6.000001e-03,
795,-1.600000e-02,
796,-1.000000e-02,
797,-1.800000e-02,
798,1.400000e-02,
799,-4.200000e-02,
800,-3.000000e-02,
801,-2.000000e-03,
802,-1.800000e-02,
803,-8.000000e-03,
804,-3.200000e-02,
805,1.400000e-02,
806,1.600000e-02,
807,-3.800000e-02,
808,-1.600000e-02,
809,-8.000000e-03,
810,-6.000001e-03,
811,-1.400000e-02,
812,1.400000e-02,
813,-3.400000e-02,
814,-3.800000e-02,
815,1.800000e-02,
816,-6.000001e-03,
817,-1.600000e-02,
818,-3.600000e-02,
819,1.200000e-02,
820,1.600000e-02,
821,-3.800000e-02,
822,-1.400000e-02,
823,-6.000001e-03,
824,-1.000000e-02,
825,-2.000000e-03,
826,-3.000000e-02,
827,1.800000e-02,
828,-3.400000e-02,
829,2.000000e-02,
830,-1.200000e-02,
831,-4.000000e-03,
832,-3.000000e-02,
833,1.600000e-02,
834,2.200000e-02,
835,-3.400000e-02,
836,0.000000e+00,
837,-1.000000e-02,
838,-2.000000e-03,
839,-1.000000e-02,
840,-2.800000e-02,
841,1.800000e-02,
842,2.800000e-02,
843,-2.800000e-02,
844,4.000000e-03,
845,-4.000000e-03,
846,-2.400000e-02,
847,2.200000e-02,
848,-3.400000e-02,
849,2.200000e-02,
850,-4.000000e-03,
851,-1.200000e-02,
852,-6.000001e-03,
853,-1.400000e-02,
854,-3.400000e-02,
855,1.400000e-02,
856,-3.800000e-02,
857,1.800000e-02,
858,-8.000000e-03,
859,-1.600000e-02,
860,1.000000e-02,
861,-3.800000e-02,
862,1.800000e-02,
863,-4.000000e-02,
864,-8.000000e-03,
865,-1.400000e-02,
866,-8.000000e-03,
867,-1.600000e-02,
868,-3.800000e-02,
869,8.000000e-03,
870,1.200000e-02,
871,-4.200000e-02,
872,-1.400000e-02,
873,-2.200000e-02,
874,-1.400000e-02,
875,-2.400000e-02,
876,6.000001e-03,
877,-5.000000e-02,
878,-2.400000e-02,
879,-1.600000e-02,
880,-1.600000e-02,
881,-2.400000e-02,
882,-4.200000e-02,
883,4.000000e-03,
884,-5.000000e-02,
885,6.000001e-03,
886,-2.200000e-02,
887,-1.200000e-02,
888,-2.000000e-02,
889,-1.000000e-02,
890,1.000000e-02,
891,-4.600000e-02,
892,-2.200000e-02,
893,-1.200000e-02,
894,-2.000000e-02,
895,-1.200000e-02,
896,8.000000e-03,
897,-4.000000e-02,
898,-4.200000e-02,
899,1.400000e-02,
900,-1.800000e-02,
901,-1.000000e-02,
902,-1.200000e-02,
903,-2.000000e-02,
904,1.000000e-02,
905,-4.600000e-02,
906,-2.600000e-02,
907,-1.200000e-02,
908,-2.400000e-02,
909,-1.600000e-02,
910,0.000000e+00,
911,-4.800000e-02,
912,2.000000e-03,
913,-5.200000e-02,
914,-2.400000e-02,
915,-3.200000e-02,
916,-2.400000e-02,
917,-3.200000e-02,
918,-5.600000e-02,
919,0.000000e+00,
920,-5.600000e-02,
921,-8.000000e-03,
922,-1.800000e-02,
923,-2.800000e-02,
924,-4.800000e-02,
925,0.000000e+00,
926,2.000000e-03,
927,-5.400000e-02,
928,-2.200000e-02,
929,-3.200000e-02,
930,-2.400000e-02,
931,-3.200000e-02,
932,-5.400000e-02,
933,-8.000000e-03,
934,0.000000e+00,
935,-5.600000e-02,
936,-2.600000e-02,
937,-3.400000e-02,
938,-8.000000e-03,
939,-5.600000e-02,
940,-5.800000e-02,
941,-2.000000e-03,
942,-3.600000e-02,
943,-2.400000e-02,
944,-2.400000e-02,
945,-3.200000e-02,
946,-5.200000e-02,
947,-6.000001e-03,
948,-5.800000e-02,
949,-2.000000e-03,
950,-3.000000e-02,
951,-2.200000e-02,
952,-5.400000e-02,
953,-6.000001e-03,
954,0.000000e+00,
955,-5.400000e-02,
956,-2.400000e-02,
957,-3.200000e-02,
958,-3.400000e-02,
959,-2.400000e-02,
960,-5.000000e-02,
961,-2.000000e-03,
962,-5.600000e-02,
963,0.000000e+00,
964,-2.400000e-02,
965,-3.200000e-02,
966,-8.000000e-03,
967,-5.600000e-02,
968,-5.600000e-02,
969,0.000000e+00,
970,-3.200000e-02,
971,-2.200000e-02,
972,-2.200000e-02,
973,-3.000000e-02,
974,-4.800000e-02,
975,0.000000e+00,
976,-4.800000e-02,
977,8.000000e-03,
978,-1.400000e-02,
979,-2.200000e-02,
980,8.000000e-03,
981,-4.000000e-02,
982,-3.800000e-02,
983,1.800000e-02,
984,-1.600000e-02,
985,-4.000000e-03,
986,-6.000001e-03,
987,-1.400000e-02,
988,-3.200000e-02,
989,1.600000e-02,
990,2.000000e-02,
991,-3.600000e-02,
992,-8.000000e-03,
993,2.000000e-03,
994,-6.000001e-03,
995,4.000000e-03,
996,-2.200000e-02,
997,3.400000e-02,
998,2.000000e-03,
999,1.200000e-02,
1000,8.000000e-03,
1001,0.000000e+00,
1002,-1.600000e-02,
1003,2.800000e-02,
1004,3.600000e-02,
1005,-2.000000e-02,
1006,1.000000e-02,
1007,2.000000e-03,
1008,0.000000e+00,
1009,1.000000e-02,
1010,-2.000000e-02,
1011,3.600000e-02,
1012,1.400000e-02,
1013,2.000000e-03,
1014,4.000000e-03,
1015,1.200000e-02,
1016,-1.600000e-02,
1017,3.000000e-02,
1018,3.600000e-02,
1019,-2.000000e-02,
1020,1.000000e-02,
1021,0.000000e+00,
1022,0.000000e+00,
1023,1.200000e-02,
1024,3.600000e-02,
1025,-1.800000e-02,
1026,2.200000e-02,
1027,-2.000000e-03,
1028,6.000001e-03,
1029,1.600000e-02,
1030,-1.400000e-02,
1031,3.200000e-02,
1032,-1.800000e-02,
1033,3.800000e-02,
1034,6.000001e-03,
1035,1.600000e-02,
1036,1.400000e-02,
1037,2.000000e-03,
1038,3.400000e-02,
1039,-2.200000e-02,
1040,3.400000e-02,
1041,-2.200000e-02,
1042,6.000001e-03,
1043,-2.000000e-03,
1044,2.200000e-02,
1045,-2.400000e-02,
1046,-2.400000e-02,
1047,3.200000e-02,
1048,6.000001e-03,
1049,-4.000000e-03,
1050,-4.000000e-03,
1051,4.000000e-03,
1052,-2.000000e-02,
1053,2.400000e-02,
1054,-2.600000e-02,
1055,3.000000e-02,
1056,-6.000001e-03,
1057,0.000000e+00,
1058,-2.800000e-02,
1059,1.800000e-02,
1060,-3.000000e-02,
1061,2.600000e-02,
1062,-4.000000e-03,
