光泵磁共振/origindata/20000101_020129.csv

Channel              :,CH1,CH2
Frequency            :,9.921Hz,  ?
Period               :,0.101s,  ?
PK-PK                :,558.0mV,19.88mV
Probe attenuation    :,1X,1X
Voltage per ADC value:,0.500000mV,0.125000mV
Time interval        :,40.00000uS,40.00000uS

index,CH1_Voltage(mV),CH2_Voltage(mV)
1,-117.000000,56.750000
2,-117.000000,56.750000
3,-118.000000,57.125000
4,-117.500000,57.125000
5,-114.000000,57.000000
6,-111.000000,56.750000
7,-108.000000,56.500000
8,-108.500000,56.250000
9,-106.500000,56.125000
10,-107.000000,56.500000
11,-104.000000,56.375000
12,-101.500000,56.750000
13,-95.500000,56.625000
14,-93.000000,56.750000
15,-95.000000,56.750000
16,-94.500000,57.000000
17,-94.500000,56.625000
18,-91.000000,56.750000
19,-87.000000,56.875000
20,-85.000000,56.625000
21,-85.000000,56.875000
22,-85.500000,56.625000
23,-85.500000,56.375000
24,-83.000000,56.375000
25,-77.000000,56.250000
26,-74.000000,56.375000
27,-73.000000,56.250000
28,-74.000000,56.625000
29,-74.500000,56.125000
30,-73.500000,56.250000
31,-67.500000,56.250000
32,-66.000000,56.125000
33,-65.000000,56.500000
34,-63.000000,56.875000
35,-66.500000,56.375000
36,-65.000000,56.500000
37,-62.000000,56.375000
38,-59.000000,56.125000
39,-54.000000,56.250000
40,-54.000000,56.125000
41,-53.500000,56.625000
42,-55.000000,56.250000
43,-53.500000,56.250000
44,-50.500000,56.500000
45,-48.000000,56.625000
46,-44.500000,56.625000
47,-45.000000,56.750000
48,-46.000000,56.625000
49,-46.500000,56.250000
50,-43.000000,56.250000
51,-40.000000,56.500000
52,-36.500000,56.250000
53,-37.000000,56.000000
54,-39.000000,56.125000
55,-37.500000,56.125000
56,-36.500000,56.125000
57,-33.500000,56.625000
58,-30.000000,57.000000
59,-27.000000,56.875000
60,-27.500000,56.375000
61,-29.500000,56.500000
62,-28.000000,56.500000
63,-26.000000,56.125000
64,-23.500000,56.625000
65,-20.000000,56.750000
66,-22.500000,56.500000
67,-22.500000,56.375000
68,-21.500000,56.250000
69,-22.000000,56.500000
70,-18.000000,56.500000
71,-15.000000,56.500000
72,-15.000000,56.750000
73,-16.000000,56.750000
74,-17.500000,56.250000
75,-14.500000,56.250000
76,-10.500000,56.000000
77,-9.500000,55.875000
78,-9.000000,56.625000
79,-9.500000,56.750000
80,-11.500000,56.875000
81,-10.000000,56.750000
82,-4.500000,56.625000
83,-4.500000,56.375000
84,-3.000000,56.625000
85,-6.000000,56.125000
86,-6.500000,56.125000
87,-3.000000,56.250000
88,0.500000,56.625000
89,3.500000,56.500000
90,2.000000,56.375000
91,-0.500000,56.125000
92,0.000000,56.500000
93,3.500000,57.000000
94,6.000000,56.625000
95,6.000000,56.500000
96,5.500000,56.375000
97,3.000000,56.250000
98,3.000000,56.125000
99,6.500000,56.500000
100,10.500000,56.625000
101,11.500000,56.500000
102,8.000000,56.875000
103,8.000000,56.375000
104,9.500000,56.375000
105,13.500000,56.625000
106,13.500000,56.625000
107,13.000000,56.250000
108,12.500000,56.125000
109,11.500000,56.250000
110,14.000000,56.375000
111,15.500000,56.250000
112,18.000000,55.875000
113,16.000000,56.500000
114,15.000000,56.375000
115,12.500000,56.625000
116,17.000000,56.625000
117,20.500000,56.500000
118,20.500000,56.625000
119,20.000000,56.250000
120,18.500000,56.250000
121,18.000000,56.000000
122,22.000000,55.875000
123,25.000000,56.125000
124,24.500000,56.000000
125,21.500000,56.000000
126,19.500000,56.375000
127,22.000000,56.625000
128,25.500000,56.625000
129,25.500000,56.625000
130,25.500000,56.625000
131,22.500000,56.500000
132,21.000000,56.625000
133,23.000000,56.375000
134,27.500000,56.875000
135,29.500000,56.875000
136,27.000000,56.625000
137,25.000000,56.625000
138,25.000000,56.375000
139,24.500000,56.250000
140,31.500000,56.375000
141,29.000000,56.625000
142,29.000000,56.625000
143,25.000000,56.750000
144,26.000000,57.000000
145,28.500000,56.625000
146,29.000000,56.625000
147,30.500000,56.375000
148,29.000000,56.250000
149,26.500000,56.375000
150,29.000000,56.875000
151,32.000000,56.625000
152,35.000000,56.500000
153,32.500000,56.375000
154,30.500000,56.250000
155,28.000000,56.500000
156,30.500000,56.875000
157,34.500000,57.125000
158,33.500000,57.625000
159,30.500000,57.125000
160,29.500000,56.750000
161,30.500000,56.625000
162,30.500000,56.750000
163,33.500000,56.750000
164,35.000000,57.125000
165,31.500000,57.375000
166,31.500000,57.250000
167,34.000000,57.375000
168,34.000000,57.250000
169,37.000000,57.375000
170,34.500000,57.625000
171,34.000000,57.250000
172,32.000000,57.500000
173,33.000000,57.250000
174,38.000000,57.875000
175,36.500000,57.875000
176,35.000000,57.125000
177,31.000000,57.125000
178,33.000000,57.125000
179,35.500000,56.750000
180,37.000000,56.750000
181,36.000000,56.875000
182,32.000000,56.875000
183,33.000000,57.000000
184,35.000000,57.375000
185,38.000000,57.125000
186,38.000000,56.875000
187,35.500000,56.625000
188,34.000000,57.000000
189,34.000000,56.625000
190,37.000000,56.250000
191,37.500000,56.500000
192,36.500000,56.750000
193,34.000000,56.625000
194,32.000000,56.750000
195,34.500000,56.750000
196,36.000000,57.125000
197,38.000000,57.000000
198,36.000000,57.125000
199,35.000000,57.375000
200,34.000000,56.875000
201,37.500000,56.500000
202,40.000000,57.000000
203,36.500000,57.500000
204,35.500000,58.000000
205,33.500000,57.500000
206,35.500000,57.500000
207,39.500000,57.500000
208,37.500000,57.500000
209,37.000000,57.250000
210,33.000000,57.750000
211,31.000000,57.875000
212,34.000000,57.625000
213,37.000000,57.500000
214,37.000000,57.750000
215,36.000000,57.750000
216,32.500000,57.500000
217,33.000000,57.375000
218,34.000000,57.750000
219,38.000000,58.125000
220,37.500000,57.750000
221,34.500000,58.000000
222,33.000000,57.875000
223,31.500000,57.625000
224,33.500000,57.750000
225,35.000000,57.375000
226,37.000000,57.375000
227,35.000000,58.125000
228,34.500000,57.750000
229,30.500000,57.875000
230,32.500000,57.875000
231,32.000000,57.000000
232,36.000000,57.125000
233,37.000000,57.000000
234,37.500000,57.250000
235,35.000000,56.750000
236,32.000000,58.000000
237,33.500000,58.125000
238,35.500000,58.125000
239,39.500000,58.000000
240,37.000000,58.000000
241,35.000000,58.250000
242,33.000000,57.750000
243,34.000000,58.000000
244,36.000000,58.000000
245,37.500000,57.875000
246,35.000000,57.625000
247,35.500000,57.500000
248,30.500000,57.750000
249,33.500000,57.750000
250,37.500000,57.625000
251,38.000000,57.875000
252,34.500000,57.625000
253,33.000000,57.250000
254,33.000000,57.125000
255,36.000000,57.125000
256,38.500000,57.875000
257,35.000000,57.250000
258,33.500000,57.500000
259,33.000000,57.375000
260,33.500000,57.750000
261,36.500000,58.125000
262,35.500000,57.875000
263,33.500000,58.000000
264,31.000000,58.000000
265,31.000000,58.000000
266,32.500000,57.500000
267,35.000000,58.125000
268,36.500000,57.875000
269,32.000000,57.750000
270,30.500000,57.750000
271,31.500000,57.750000
272,35.500000,57.875000
273,36.500000,57.500000
274,33.500000,58.125000
275,31.000000,58.125000
276,30.500000,57.875000
277,35.000000,58.000000
278,34.000000,57.750000
279,35.500000,57.500000
280,32.000000,57.375000
281,31.500000,57.375000
282,31.000000,57.500000
283,32.000000,57.500000
284,34.000000,57.875000
285,33.000000,57.875000
286,30.000000,57.875000
287,31.500000,57.500000
288,32.500000,57.250000
289,34.500000,57.250000
290,34.000000,57.500000
291,30.500000,58.000000
292,29.000000,58.125000
293,31.500000,57.875000
294,33.500000,57.750000
295,34.500000,57.875000
296,35.000000,57.625000
297,30.000000,58.000000
298,29.500000,58.000000
299,32.000000,57.875000
300,32.000000,57.625000
301,34.000000,57.500000
302,31.000000,57.625000
303,29.500000,57.250000
304,31.500000,57.625000
305,34.500000,58.125000
306,32.000000,58.250000
307,31.500000,58.625000
308,30.000000,58.750000
309,31.000000,58.375000
310,33.500000,58.375000
311,34.500000,58.000000
312,31.000000,58.500000
313,29.500000,58.750000
314,29.000000,58.750000
315,32.500000,58.750000
316,34.500000,58.625000
317,32.500000,58.500000
318,30.500000,58.625000
319,30.500000,59.375000
320,29.000000,59.750000
321,33.000000,58.750000
322,33.500000,59.250000
323,32.500000,58.625000
324,29.000000,58.875000
325,30.500000,58.250000
326,32.000000,58.375000
327,32.500000,58.625000
328,33.000000,58.875000
329,30.000000,59.000000
330,29.000000,58.750000
331,28.500000,58.125000
332,30.000000,58.500000
333,34.500000,58.875000
334,33.500000,58.625000
335,29.000000,58.750000
336,29.000000,58.750000
337,28.500000,58.500000
338,31.500000,58.125000
339,31.000000,58.500000
340,29.500000,58.125000
341,27.500000,58.500000
342,27.000000,58.625000
343,31.500000,59.125000
344,32.500000,59.000000
345,32.000000,58.750000
346,30.000000,59.125000
347,28.500000,59.250000
348,28.000000,58.875000
349,32.000000,58.750000
350,34.000000,58.750000
351,32.500000,58.625000
352,29.000000,58.875000
353,29.000000,58.625000
354,32.000000,58.750000
355,33.500000,59.375000
356,31.500000,58.875000
357,30.500000,59.000000
358,29.000000,59.375000
359,27.500000,59.125000
360,31.000000,58.750000
361,32.500000,59.000000
362,31.500000,58.875000
363,31.500000,59.000000
364,28.000000,59.250000
365,27.500000,58.750000
366,30.500000,58.750000
367,32.000000,58.875000
368,32.000000,58.875000
369,29.000000,59.000000
370,26.500000,59.625000
371,30.000000,59.500000
372,32.500000,59.375000
373,31.500000,59.500000
374,31.000000,59.625000
375,27.500000,59.875000
376,27.500000,59.375000
377,29.500000,59.500000
378,33.000000,59.375000
379,31.000000,59.750000
380,28.500000,59.625000
381,27.500000,59.875000
382,28.500000,60.000000
383,29.000000,59.625000
384,31.000000,59.250000
385,31.500000,58.750000
386,29.000000,59.000000
387,28.500000,59.250000
388,29.000000,58.875000
389,33.000000,58.750000
390,31.500000,59.500000
391,29.000000,58.750000
392,26.500000,59.375000
393,28.500000,59.375000
394,29.500000,59.250000
395,31.000000,59.625000
396,32.000000,59.750000
397,31.000000,60.125000
398,25.000000,59.625000
399,27.000000,59.875000
400,26.500000,59.625000
401,31.500000,59.750000
402,30.000000,59.750000
403,27.500000,59.875000
404,28.500000,59.750000
405,29.500000,60.125000
406,31.000000,59.625000
407,31.500000,59.875000
408,31.000000,59.500000
409,26.500000,59.625000
410,27.000000,59.625000
411,24.500000,59.500000
412,31.500000,60.000000
413,32.500000,60.125000
414,29.500000,60.000000
415,29.500000,60.000000
416,27.000000,60.000000
417,29.000000,59.625000
418,30.500000,59.625000
419,30.000000,59.875000
420,27.500000,60.000000
421,25.500000,60.375000
422,27.500000,60.375000
423,31.500000,60.125000
424,31.000000,59.875000
425,30.500000,59.500000
426,26.000000,59.750000
427,24.000000,59.625000
428,28.000000,59.625000
429,31.000000,59.875000
430,31.000000,59.875000
431,30.000000,60.125000
432,27.500000,59.750000
433,26.000000,59.875000
434,28.500000,60.125000
435,30.000000,60.000000
436,28.500000,60.000000
437,27.500000,59.875000
438,26.500000,60.375000
439,26.000000,60.125000
440,30.000000,60.250000
441,30.000000,59.875000
442,29.500000,60.125000
443,27.000000,60.375000
444,24.500000,60.375000
445,27.000000,60.500000
446,29.000000,60.500000
447,32.500000,60.500000
448,28.500000,60.250000
449,27.500000,60.375000
450,27.500000,60.625000
451,29.000000,60.750000
452,30.500000,61.125000
453,28.000000,60.625000
454,28.500000,60.875000
455,26.000000,60.375000
456,27.000000,60.500000
457,29.000000,60.625000
458,32.000000,60.375000
459,29.500000,60.875000
460,26.500000,60.625000
461,25.500000,60.875000
462,26.500000,60.625000
463,29.000000,60.625000
464,31.000000,60.750000
465,29.500000,60.875000
466,27.000000,60.625000
467,27.000000,61.500000
468,28.000000,61.125000
469,30.500000,61.500000
470,30.000000,61.125000
471,27.500000,60.625000
472,26.500000,60.750000
473,27.000000,61.125000
474,30.000000,60.875000
475,32.500000,61.000000
476,28.500000,61.125000
477,26.000000,61.125000
478,25.000000,61.000000
479,28.000000,60.625000
480,30.500000,60.875000
481,31.000000,60.625000
482,28.000000,60.750000
483,26.000000,61.250000
484,26.000000,61.750000
485,29.000000,61.625000
486,30.000000,61.375000
487,28.000000,61.125000
488,26.000000,61.000000
489,25.500000,60.750000
490,28.000000,60.875000
491,31.500000,61.375000
492,29.500000,61.750000
493,27.500000,62.000000
494,25.500000,61.875000
495,26.000000,61.750000
496,30.000000,61.375000
497,30.500000,61.625000
498,29.500000,61.125000
499,27.500000,61.625000
500,25.500000,61.625000
501,27.000000,61.625000
502,28.500000,62.000000
503,31.500000,61.875000
504,28.500000,61.750000
505,26.500000,61.375000
506,26.000000,61.500000
507,27.500000,61.875000
508,30.500000,62.000000
509,28.500000,61.875000
510,26.500000,61.625000
511,26.500000,61.250000
512,25.500000,61.125000
513,30.000000,61.250000
514,30.500000,61.500000
515,29.500000,61.875000
516,28.500000,62.125000
517,27.500000,61.750000
518,23.500000,61.875000
519,26.000000,61.500000
520,30.500000,61.625000
521,31.000000,61.250000
522,28.500000,61.625000
523,27.000000,61.250000
524,27.500000,61.875000
525,28.000000,62.125000
526,28.500000,62.125000
527,28.500000,61.875000
528,26.000000,62.000000
529,23.500000,62.125000
530,28.000000,62.125000
531,31.000000,62.000000
532,32.000000,62.250000
533,29.500000,62.500000
534,27.000000,62.125000
535,24.500000,62.125000
536,28.000000,62.250000
537,29.000000,62.500000
538,31.000000,62.625000
539,29.000000,63.250000
540,25.000000,62.875000
541,25.500000,62.625000
542,26.500000,62.500000
543,29.500000,62.000000
544,31.000000,61.750000
545,28.500000,62.000000
546,26.000000,61.625000
547,25.000000,62.250000
548,27.000000,62.375000
549,28.000000,62.750000
550,28.500000,62.625000
551,27.500000,62.375000
552,29.000000,61.875000
553,26.000000,62.000000
554,27.500000,62.125000
555,29.000000,62.500000
556,30.000000,62.625000
557,29.000000,62.625000
558,24.500000,62.875000
559,24.000000,62.500000
560,27.500000,63.000000
561,30.000000,63.125000
562,31.000000,63.000000
563,29.500000,63.250000
564,28.500000,63.375000
565,24.500000,63.125000
566,25.500000,62.375000
567,28.500000,62.375000
568,30.000000,62.500000
569,29.000000,62.500000
570,26.000000,63.000000
571,26.000000,63.375000
572,28.000000,63.125000
573,29.500000,63.000000
574,30.000000,62.625000
575,31.000000,62.625000
576,28.000000,62.750000
577,27.000000,62.750000
578,27.000000,63.250000
579,30.500000,62.750000
580,29.000000,63.125000
581,27.000000,63.000000
582,25.500000,62.250000
583,26.500000,62.250000
584,28.000000,61.875000
585,30.500000,62.500000
586,30.000000,62.375000
587,28.500000,62.625000
588,25.000000,62.250000
589,24.000000,62.125000
590,28.500000,62.250000
591,32.500000,62.875000
592,31.000000,63.500000
593,30.500000,62.875000
594,28.000000,63.500000
595,25.500000,63.250000
596,28.500000,62.875000
597,30.500000,63.000000
598,31.000000,62.750000
599,29.000000,63.375000
600,26.000000,63.500000
601,26.500000,63.250000
602,29.000000,63.250000
603,30.000000,63.625000
604,28.000000,63.000000
605,26.000000,62.625000
606,25.000000,63.000000
607,27.500000,63.875000
608,29.000000,63.125000
609,30.000000,63.375000
610,31.000000,63.375000
611,25.500000,63.375000
612,24.500000,63.125000
613,26.500000,63.000000
614,29.500000,62.750000
615,31.500000,63.500000
616,31.000000,63.375000
617,26.000000,63.250000
618,25.500000,63.250000
619,28.000000,63.375000
620,29.500000,63.125000
621,30.500000,62.875000
622,31.000000,63.125000
623,28.500000,63.375000
624,26.000000,63.875000
625,26.000000,63.625000
626,29.000000,63.125000
627,31.500000,62.750000
628,29.500000,63.250000
629,28.000000,63.625000
630,27.500000,64.000000
631,28.000000,64.250000
632,31.000000,64.000000
633,33.000000,63.875000
634,28.000000,63.875000
635,25.500000,63.125000
636,27.000000,63.375000
637,30.000000,63.500000
638,30.500000,63.500000
639,30.000000,63.625000
640,27.500000,64.000000
641,26.000000,63.375000
642,26.500000,63.625000
643,31.500000,63.750000
644,32.000000,63.500000
645,30.500000,63.750000
646,29.500000,63.625000
647,25.500000,63.750000
648,25.000000,63.500000
649,27.500000,63.625000
650,31.000000,63.500000
651,28.500000,63.875000
652,31.000000,63.750000
653,26.500000,63.875000
654,25.500000,64.250000
655,28.500000,64.125000
656,30.000000,64.125000
657,28.000000,64.250000
658,28.500000,63.875000
659,26.500000,63.750000
660,27.500000,63.875000
661,30.000000,64.125000
662,31.000000,64.750000
663,30.000000,64.125000
664,27.000000,64.375000
665,25.500000,64.500000
666,26.500000,64.125000
667,31.500000,64.375000
668,29.000000,64.375000
669,28.500000,64.375000
670,25.000000,64.125000
671,25.000000,64.375000
672,28.500000,64.000000
673,31.000000,64.125000
674,34.500000,63.750000
675,28.500000,64.125000
676,28.500000,64.500000
677,27.500000,64.625000
678,28.000000,64.625000
679,30.500000,64.625000
680,32.000000,64.375000
681,28.500000,64.250000
682,26.500000,64.375000
683,27.500000,64.625000
684,29.000000,64.750000
685,31.500000,64.625000
686,32.500000,64.750000
687,29.500000,64.625000
688,27.000000,65.000000
689,28.000000,64.000000
690,9.000000,64.375000
691,29.000000,64.125000
692,29.000000,64.625000
693,27.000000,64.750000
694,26.000000,64.125000
695,28.000000,64.375000
696,30.500000,64.250000
697,31.000000,64.250000
698,28.500000,64.875000
699,25.500000,64.875000
700,26.500000,65.125000
701,25.500000,65.375000
702,33.500000,64.875000
703,30.500000,64.750000
704,32.000000,64.875000
705,25.500000,64.625000
706,26.000000,64.875000
707,30.000000,64.750000
708,31.500000,64.875000
709,28.500000,64.750000
710,29.000000,65.000000
711,26.000000,64.500000
712,27.500000,65.000000
713,30.000000,64.500000
714,31.000000,64.625000
715,30.500000,64.625000
716,29.000000,64.750000
717,27.000000,64.750000
718,27.000000,65.125000
719,31.000000,64.875000
720,31.500000,65.000000
721,31.000000,65.000000
722,28.000000,65.375000
723,28.000000,65.125000
724,26.000000,65.125000
725,30.000000,65.500000
726,31.000000,65.000000
727,29.500000,64.750000
728,27.500000,64.875000
729,26.500000,65.000000
730,29.000000,65.000000
731,32.500000,65.125000
732,32.500000,65.250000
733,31.000000,65.250000
734,28.500000,65.250000
735,29.000000,65.375000
736,27.000000,64.875000
737,29.000000,64.875000
738,32.500000,65.500000
739,31.000000,65.625000
740,28.000000,65.875000
741,26.500000,65.625000
742,28.000000,65.375000
743,30.000000,65.375000
744,32.500000,64.750000
745,30.500000,64.750000
746,30.500000,65.125000
747,26.500000,65.625000
748,26.500000,65.625000
749,30.500000,65.375000
750,32.000000,65.375000
751,32.000000,65.000000
752,29.000000,65.250000
753,26.000000,65.125000
754,27.500000,65.750000
755,30.500000,65.625000
756,31.500000,66.125000
757,31.500000,66.000000
758,27.000000,65.875000
759,25.500000,65.500000
760,29.000000,65.000000
761,33.000000,65.500000
762,30.500000,65.625000
763,30.500000,65.750000
764,28.500000,65.875000
765,30.000000,65.875000
766,31.000000,65.625000
767,30.000000,65.625000
768,32.000000,65.750000
769,29.000000,65.500000
770,25.500000,65.250000
771,28.000000,65.250000
772,31.500000,65.625000
773,31.500000,65.875000
774,32.000000,65.625000
775,30.500000,65.750000
776,26.500000,65.625000
777,28.000000,65.625000
778,31.500000,65.625000
779,34.000000,66.000000
780,31.500000,66.000000
781,30.000000,66.000000
782,27.500000,66.250000
783,29.000000,65.875000
784,31.000000,65.750000
785,32.000000,66.000000
786,32.000000,65.750000
787,27.500000,66.375000
788,29.500000,66.000000
789,27.500000,65.875000
790,31.500000,66.125000
791,30.500000,65.750000
792,28.000000,65.750000
793,27.000000,65.750000
794,29.000000,65.875000
795,29.000000,66.125000
796,31.000000,66.125000
797,30.000000,66.250000
798,29.500000,66.375000
799,28.500000,66.250000
800,29.500000,66.125000
801,31.500000,66.125000
802,31.500000,66.500000
803,29.500000,66.500000
804,26.000000,66.375000
805,28.000000,66.000000
806,31.500000,65.750000
807,32.500000,66.000000
808,29.500000,66.000000
809,27.000000,66.125000
810,26.500000,66.125000
811,29.500000,66.250000
812,33.000000,66.250000
813,32.000000,66.125000
814,30.000000,66.125000
815,28.000000,66.125000
816,28.500000,66.500000
817,30.500000,66.750000
818,31.000000,67.125000
819,32.500000,66.750000
820,27.000000,66.750000
821,29.000000,66.500000
822,30.500000,66.750000
