光泵磁共振/origindata/20000101_042315.csv

Channel              :,CH1,CH2
Frequency            :,19.90Hz,19.90Hz
Period               :,50.24ms,50.24ms
PK-PK                :,682.5mV,59.78mV
Probe attenuation    :,1X,1X
Voltage per ADC value:,1.250000mV,0.025000mV
Time interval        :,40.00000uS,40.00000uS

index,CH1_Voltage(mV),CH2_Voltage(mV)
1,-655.000000,35.349998
2,-655.000000,35.349998
3,-648.750000,35.275002
4,-650.000000,34.924999
5,-650.000000,34.674999
6,-646.250000,34.625000
7,-647.500000,34.875000
8,-641.250000,34.549999
9,-645.000000,34.450001
10,-642.500000,34.549999
11,-640.000000,34.174999
12,-637.500000,34.125000
13,-638.750000,34.250000
14,-633.750000,34.174999
15,-633.750000,34.275002
16,-632.500000,34.125000
17,-628.750000,34.299999
18,-632.500000,34.424999
19,-628.750000,33.950001
20,-631.250000,33.875000
21,-625.000000,34.224998
22,-620.000000,34.299999
23,-625.000000,34.325001
24,-622.500000,34.525002
25,-617.500000,34.650002
26,-616.250000,34.775002
27,-617.500000,34.875000
28,-612.500000,34.825001
29,-617.500000,34.549999
30,-613.750000,34.950001
31,-611.250000,34.700001
32,-607.500000,35.025002
33,-606.250000,35.150002
34,-607.500000,35.174999
35,-605.000000,35.250000
36,-600.000000,35.075001
37,-598.750000,35.049999
38,-600.000000,35.200001
39,-596.250000,34.900002
40,-597.500000,34.900002
41,-597.500000,34.799999
42,-593.750000,34.700001
43,-592.500000,34.799999
44,-587.500000,34.299999
45,-592.500000,34.424999
46,-588.750000,34.525002
47,-586.250000,34.924999
48,-585.000000,34.650002
49,-585.000000,34.849998
50,-581.250000,34.750000
51,-582.500000,35.099998
52,-581.250000,34.924999
53,-577.500000,35.224998
54,-577.500000,34.924999
55,-576.250000,34.650002
56,-572.500000,34.799999
57,-572.500000,35.025002
58,-571.250000,35.025002
59,-568.750000,34.750000
60,-565.000000,34.900002
61,-565.000000,35.049999
62,-566.250000,35.200001
63,-565.000000,35.075001
64,-560.000000,35.125000
65,-561.250000,35.299999
66,-558.750000,35.075001
67,-561.250000,34.974998
68,-553.750000,35.250000
69,-553.750000,35.125000
70,-557.500000,35.224998
71,-552.500000,34.900002
72,-550.000000,34.825001
73,-551.250000,35.025002
74,-547.500000,35.000000
75,-546.250000,35.099998
76,-545.000000,34.849998
77,-543.750000,34.674999
78,-542.500000,34.525002
79,-543.750000,34.549999
80,-537.500000,34.625000
81,-541.250000,34.950001
82,-537.500000,35.099998
83,-535.000000,35.275002
84,-533.750000,35.099998
85,-532.500000,35.150002
86,-527.500000,35.075001
87,-530.000000,35.250000
88,-526.250000,35.474998
89,-526.250000,35.575001
90,-530.000000,35.724998
91,-521.250000,35.400002
92,-526.250000,35.450001
93,-521.250000,35.325001
94,-515.000000,35.200001
95,-513.750000,35.625000
96,-508.750000,35.424999
97,-507.500000,35.375000
98,-508.750000,35.375000
99,-506.250000,35.349998
100,-507.500000,35.299999
101,-507.500000,35.275002
102,-502.500000,35.325001
103,-501.250000,35.424999
104,-505.000000,35.325001
105,-503.750000,35.299999
106,-503.750000,35.474998
107,-503.750000,35.924999
108,-503.750000,35.849998
109,-505.000000,35.775002
110,-502.500000,35.900002
111,-500.000000,35.525002
112,-503.750000,35.599998
113,-503.750000,35.549999
114,-503.750000,35.125000
115,-506.250000,35.099998
116,-502.500000,35.025002
117,-503.750000,34.875000
118,-506.250000,34.950001
119,-503.750000,35.000000
120,-505.000000,34.950001
121,-505.000000,35.400002
122,-503.750000,35.099998
123,-502.500000,35.000000
124,-505.000000,35.325001
125,-502.500000,35.375000
126,-502.500000,35.400002
127,-510.000000,35.599998
128,-502.500000,35.599998
129,-503.750000,35.424999
130,-502.500000,35.924999
131,-502.500000,35.875000
132,-506.250000,35.724998
133,-505.000000,35.650002
134,-500.000000,35.349998
135,-508.750000,35.325001
136,-503.750000,35.299999
137,-503.750000,35.474998
138,-505.000000,35.599998
139,-503.750000,35.375000
140,-506.250000,35.150002
141,-507.500000,35.424999
142,-507.500000,35.674999
143,-505.000000,36.025002
144,-507.500000,36.500000
145,-506.250000,37.174999
146,-508.750000,38.200001
147,-508.750000,38.825001
148,-506.250000,39.424999
149,-510.000000,39.549999
150,-507.500000,39.825001
151,-506.250000,39.224998
152,-510.000000,38.375000
153,-510.000000,36.599998
154,-510.000000,34.549999
155,-512.500000,31.900000
156,-513.750000,28.500000
157,-512.500000,24.575001
158,-516.250000,20.500000
159,-508.750000,16.100000
160,-512.500000,11.600000
161,-512.500000,7.100000
162,-510.000000,3.150000
163,-511.250000,-0.250000
164,-515.000000,-3.525000
165,-513.750000,-6.325000
166,-517.500000,-8.950000
167,-516.250000,-10.350000
168,-512.500000,-11.550000
169,-517.500000,-13.175000
170,-518.750000,-14.425000
171,-513.750000,-15.800000
172,-516.250000,-16.150000
173,-516.250000,-16.900000
174,-515.000000,-17.575001
175,-521.250000,-18.100000
176,-520.000000,-18.600000
177,-515.000000,-18.375000
178,-518.750000,-18.250000
179,-517.500000,-18.625000
180,-522.500000,-18.125000
181,-526.250000,-18.500000
182,-521.250000,-18.850000
183,-522.500000,-18.924999
184,-522.500000,-18.799999
185,-520.000000,-19.075001
186,-522.500000,-18.775000
187,-523.750000,-18.950001
188,-523.750000,-19.125000
189,-525.000000,-19.049999
190,-525.000000,-19.125000
191,-525.000000,-19.174999
192,-526.250000,-19.299999
193,-525.000000,-19.000000
194,-530.000000,-19.375000
195,-531.250000,-19.075001
196,-531.250000,-19.625000
197,-530.000000,-19.750000
198,-533.750000,-19.275000
199,-531.250000,-19.275000
200,-531.250000,-18.825001
201,-535.000000,-18.750000
202,-535.000000,-18.750000
203,-533.750000,-18.549999
204,-536.250000,-18.700001
205,-535.000000,-18.525000
206,-538.750000,-18.400000
207,-538.750000,-18.075001
208,-538.750000,-18.100000
209,-538.750000,-18.350000
210,-541.250000,-18.150000
211,-537.500000,-18.299999
212,-541.250000,-17.875000
213,-538.750000,-17.325001
214,-542.500000,-17.075001
215,-543.750000,-16.025000
216,-543.750000,-15.450000
217,-545.000000,-15.100000
218,-545.000000,-13.850000
219,-546.250000,-13.175000
220,-547.500000,-12.325000
221,-552.500000,-11.575000
222,-547.500000,-11.125000
223,-547.500000,-10.625000
224,-548.750000,-9.875000
225,-548.750000,-9.475000
226,-552.500000,-9.825000
227,-553.750000,-9.975000
228,-551.250000,-10.600000
229,-553.750000,-11.000000
230,-556.250000,-11.475000
231,-552.500000,-12.250000
232,-558.750000,-12.350000
233,-557.500000,-12.775000
234,-557.500000,-13.750000
235,-561.250000,-14.250000
236,-560.000000,-14.800000
237,-560.000000,-14.950000
238,-565.000000,-14.950000
239,-560.000000,-15.150000
240,-563.750000,-14.775000
241,-566.250000,-14.525000
242,-561.250000,-14.500000
243,-566.250000,-14.050000
244,-566.250000,-13.600000
245,-565.000000,-13.350000
246,-571.250000,-13.350000
247,-568.750000,-13.300000
248,-571.250000,-13.275000
249,-570.000000,-12.800000
250,-570.000000,-12.575000
251,-570.000000,-12.550000
252,-572.500000,-12.775000
253,-572.500000,-12.475000
254,-575.000000,-12.275000
255,-578.750000,-12.375000
256,-580.000000,-12.400000
257,-578.750000,-12.225000
258,-581.250000,-12.325000
259,-578.750000,-12.525000
260,-585.000000,-12.100000
261,-580.000000,-11.650000
262,-582.500000,-11.400000
263,-586.250000,-11.150000
264,-583.750000,-11.575000
265,-585.000000,-11.400000
266,-586.250000,-11.175000
267,-586.250000,-11.075000
268,-592.500000,-10.950000
269,-590.000000,-11.225000
270,-591.250000,-10.925000
271,-587.500000,-10.475000
272,-592.500000,-10.475000
273,-593.750000,-10.350000
274,-596.250000,-9.925000
275,-592.500000,-9.800000
276,-598.750000,-9.625000
277,-596.250000,-10.000000
278,-597.500000,-9.700000
279,-597.500000,-9.350000
280,-600.000000,-9.425000
281,-601.250000,-9.100000
282,-603.750000,-9.025000
283,-601.250000,-8.925000
284,-603.750000,-8.875000
285,-606.250000,-8.525000
286,-606.250000,-8.650000
287,-610.000000,-8.575000
288,-607.500000,-8.500000
289,-611.250000,-8.675000
290,-611.250000,-8.675000
291,-611.250000,-8.675000
292,-613.750000,-8.275000
293,-611.250000,-7.825000
294,-612.500000,-7.825000
295,-617.500000,-7.600000
296,-616.250000,-7.575000
297,-616.250000,-7.675000
298,-618.750000,-7.150000
299,-620.000000,-7.350000
300,-622.500000,-6.925000
301,-622.500000,-6.800000
302,-622.500000,-6.475000
303,-623.750000,-6.250000
304,-622.500000,-6.475000
305,-622.500000,-6.350000
306,-626.250000,-6.125000
307,-626.250000,-5.800000
308,-628.750000,-5.625000
309,-632.500000,-5.600000
310,-628.750000,-5.550000
311,-633.750000,-5.300000
312,-632.500000,-5.525000
313,-635.000000,-5.525000
314,-636.250000,-5.425000
315,-636.250000,-5.050000
316,-640.000000,-4.675000
317,-640.000000,-4.575000
318,-637.500000,-4.550000
319,-642.500000,-4.400000
320,-642.500000,-4.375000
321,-643.750000,-4.425000
322,-645.000000,-4.000000
323,-642.500000,-3.900000
324,-645.000000,-4.300000
325,-646.250000,-3.775000
326,-646.250000,-4.000000
327,-650.000000,-3.350000
328,-651.250000,-3.675000
329,-648.750000,-3.475000
330,-653.750000,-3.400000
331,-653.750000,-3.175000
332,-657.500000,-3.100000
333,-656.250000,-3.300000
334,-655.000000,-2.900000
335,-661.250000,-2.750000
336,-657.500000,-2.150000
337,-658.750000,-2.575000
338,-660.000000,-2.275000
339,-661.250000,-2.175000
340,-661.250000,-1.875000
341,-663.750000,-1.725000
342,-662.500000,-1.350000
343,-666.250000,-1.225000
344,-667.500000,-1.325000
345,-667.500000,-0.975000
346,-670.000000,-1.275000
347,-668.750000,-0.625000
348,-672.500000,-0.450000
349,-671.250000,-0.450000
350,-670.000000,-0.475000
351,-675.000000,-0.175000
352,-673.750000,0.450000
353,-672.500000,0.225000
354,-680.000000,0.100000
355,-676.250000,0.325000
356,-678.750000,0.050000
357,-682.500000,0.300000
358,-681.250000,0.275000
359,-686.250000,0.125000
360,-682.500000,0.150000
361,-687.500000,-0.100000
362,-687.500000,0.500000
363,-685.000000,0.850000
364,-688.750000,1.050000
365,-692.500000,1.325000
366,-688.750000,1.600000
367,-693.750000,1.700000
368,-691.250000,2.125000
369,-692.500000,2.225000
370,-697.500000,2.450000
371,-697.500000,2.575000
372,-696.250000,2.575000
373,-697.500000,3.150000
374,-700.000000,2.925000
375,-701.250000,2.800000
376,-701.250000,2.575000
377,-705.000000,2.675000
378,-705.000000,2.250000
379,-702.500000,1.900000
380,-706.250000,2.050000
381,-706.250000,2.250000
382,-707.500000,2.575000
383,-710.000000,2.600000
384,-708.750000,3.000000
385,-711.250000,3.525000
386,-715.000000,3.825000
387,-712.500000,3.675000
388,-715.000000,3.750000
389,-715.000000,3.650000
390,-716.250000,3.975000
391,-716.250000,4.050000
392,-715.000000,4.375000
393,-720.000000,4.400000
394,-720.000000,4.650000
395,-718.750000,4.450000
396,-727.500000,4.600000
397,-718.750000,4.750000
398,-722.500000,5.025000
399,-722.500000,5.275000
400,-725.000000,4.950000
401,-728.750000,5.000000
402,-728.750000,5.525000
403,-730.000000,5.875000
404,-735.000000,5.725000
405,-728.750000,5.900000
406,-732.500000,6.225000
407,-732.500000,6.225000
408,-736.250000,5.875000
409,-740.000000,5.925000
410,-738.750000,6.100000
411,-737.500000,5.850000
412,-740.000000,6.475000
413,-737.500000,6.450000
414,-741.250000,6.750000
415,-740.000000,6.900000
416,-742.500000,6.825000
417,-743.750000,6.675000
418,-745.000000,6.650000
419,-746.250000,6.700000
420,-748.750000,6.775000
421,-747.500000,7.100000
422,-750.000000,7.350000
423,-747.500000,7.700000
424,-750.000000,7.575000
425,-750.000000,7.775000
426,-751.250000,7.925000
427,-756.250000,8.075000
428,-756.250000,8.325000
429,-756.250000,8.150000
430,-757.500000,8.400000
431,-756.250000,8.325000
432,-762.500000,8.475000
433,-758.750000,8.450000
434,-761.250000,8.875000
435,-763.750000,9.325000
436,-761.250000,9.125000
437,-767.500000,8.975000
438,-762.500000,9.050000
439,-767.500000,8.950000
440,-770.000000,9.425000
441,-766.250000,9.225000
442,-772.500000,9.575000
443,-772.500000,9.875000
444,-771.250000,9.600000
445,-776.250000,10.125000
446,-775.000000,10.100000
447,-778.750000,10.375000
448,-777.500000,10.525000
449,-778.750000,10.625000
450,-776.250000,10.625000
451,-775.000000,10.800000
452,-783.750000,10.400000
453,-777.500000,10.425000
454,-780.000000,10.425000
455,-785.000000,10.850000
456,-782.500000,10.925000
457,-787.500000,11.175000
458,-787.500000,11.125000
459,-788.750000,11.450000
460,-790.000000,11.875000
461,-788.750000,11.650000
462,-792.500000,11.950000
463,-788.750000,12.125000
464,-790.000000,12.025000
465,-795.000000,12.200000
466,-792.500000,12.200000
467,-796.250000,12.500000
468,-798.750000,12.275000
469,-797.500000,12.300000
470,-802.500000,12.250000
471,-797.500000,12.150000
472,-802.500000,12.825000
473,-800.000000,13.100000
474,-801.250000,13.050000
475,-802.500000,12.675000
476,-803.750000,13.025000
477,-807.500000,13.350000
478,-807.500000,13.525000
479,-808.750000,13.300000
480,-810.000000,13.425000
481,-805.000000,13.425000
482,-812.500000,13.750000
483,-812.500000,13.425000
484,-812.500000,13.700000
485,-818.750000,13.500000
486,-815.000000,13.650000
487,-816.250000,13.500000
488,-816.250000,13.825000
489,-821.250000,13.925000
490,-821.250000,14.025000
491,-817.500000,14.125000
492,-821.250000,14.275000
493,-822.500000,14.175000
494,-822.500000,13.975000
495,-827.500000,14.675000
496,-822.500000,14.675000
497,-827.500000,14.725000
498,-830.000000,14.900000
499,-827.500000,14.725000
500,-830.000000,14.925000
501,-828.750000,14.950000
502,-830.000000,15.425000
503,-833.750000,15.500000
504,-833.750000,15.325000
505,-836.250000,15.775000
506,-832.500000,15.675000
507,-837.500000,15.825000
508,-836.250000,16.225000
509,-840.000000,16.200001
510,-841.250000,16.725000
511,-838.750000,16.325001
512,-841.250000,16.250000
513,-842.500000,16.650000
514,-843.750000,16.450001
515,-848.750000,16.750000
516,-843.750000,16.475000
517,-847.500000,16.549999
518,-852.500000,16.650000
519,-848.750000,16.200001
520,-850.000000,16.875000
521,-851.250000,16.799999
522,-855.000000,16.900000
523,-856.250000,17.000000
524,-852.500000,16.799999
525,-857.500000,17.225000
526,-857.500000,17.400000
527,-857.500000,17.275000
528,-858.750000,17.150000
529,-858.750000,17.200001
530,-865.000000,17.350000
531,-863.750000,17.674999
532,-860.000000,18.025000
533,-861.250000,18.100000
534,-862.500000,18.125000
535,-865.000000,18.600000
536,-865.000000,18.450001
537,-867.500000,18.775000
538,-868.750000,19.000000
539,-867.500000,18.750000
540,-872.500000,19.075001
541,-868.750000,19.350000
542,-875.000000,19.100000
543,-877.500000,19.100000
544,-871.250000,18.825001
545,-878.750000,19.275000
546,-877.500000,19.174999
547,-881.250000,19.100000
548,-877.500000,19.049999
549,-878.750000,19.075001
550,-880.000000,19.325001
551,-878.750000,19.600000
552,-885.000000,19.725000
553,-886.250000,20.200001
554,-883.750000,19.825001
555,-886.250000,19.875000
556,-883.750000,19.700001
557,-886.250000,20.299999
558,-887.500000,20.500000
559,-891.250000,20.299999
560,-892.500000,20.799999
561,-891.250000,20.775000
562,-893.750000,20.875000
563,-893.750000,20.900000
564,-895.000000,20.825001
565,-898.750000,20.799999
566,-893.750000,20.950001
567,-903.750000,21.225000
568,-897.500000,21.025000
569,-905.000000,21.150000
570,-900.000000,21.424999
571,-902.500000,21.125000
572,-906.250000,21.200001
573,-903.750000,20.924999
574,-910.000000,21.150000
575,-903.750000,21.100000
576,-907.500000,20.900000
577,-910.000000,21.225000
578,-911.250000,21.400000
579,-912.500000,21.475000
580,-910.000000,21.299999
581,-912.500000,21.950001
582,-915.000000,22.250000
583,-912.500000,22.500000
584,-918.750000,22.375000
585,-917.500000,22.850000
586,-917.500000,22.549999
587,-918.750000,22.975000
588,-918.750000,22.725000
589,-921.250000,22.725000
590,-915.000000,22.850000
591,-923.750000,23.100000
592,-920.000000,23.000000
593,-928.750000,23.049999
594,-926.250000,22.625000
595,-927.500000,22.775000
596,-927.500000,22.475000
597,-928.750000,22.424999
598,-931.250000,22.575001
599,-927.500000,22.400000
600,-932.500000,22.674999
601,-931.250000,22.700001
602,-931.250000,22.825001
603,-936.250000,22.725000
604,-933.750000,22.424999
605,-937.500000,23.225000
606,-937.500000,23.250000
607,-940.000000,23.325001
608,-940.000000,23.600000
609,-936.250000,23.850000
610,-941.250000,24.000000
611,-943.750000,23.549999
612,-945.000000,23.600000
613,-943.750000,23.650000
614,-947.500000,23.525000
615,-950.000000,23.825001
616,-947.500000,23.750000
617,-947.500000,23.975000
618,-950.000000,24.250000
619,-951.250000,24.299999
620,-952.500000,24.275000
621,-953.750000,24.174999
622,-955.000000,24.325001
623,-952.500000,24.174999
624,-957.500000,24.000000
625,-956.250000,24.525000
626,-958.750000,24.650000
627,-961.250000,25.049999
628,-958.750000,24.900000
629,-962.500000,24.825001
630,-961.250000,24.950001
631,-966.250000,24.600000
632,-961.250000,24.775000
633,-961.250000,24.799999
634,-965.000000,25.025000
635,-965.000000,25.400000
636,-973.750000,25.275000
637,-970.000000,25.525000
638,-968.750000,25.650000
639,-970.000000,25.450001
640,-971.250000,25.325001
641,-972.500000,25.625000
642,-970.000000,25.424999
643,-978.750000,25.424999
644,-977.500000,25.225000
645,-981.250000,25.450001
646,-980.000000,25.799999
647,-980.000000,25.375000
648,-981.250000,25.799999
649,-977.500000,25.600000
650,-986.250000,26.525000
651,-978.750000,26.500000
652,-983.750000,26.225000
653,-983.750000,26.625000
654,-983.750000,26.424999
655,-988.750000,26.750000
656,-986.250000,26.875000
657,-991.250000,26.924999
658,-990.000000,26.650000
659,-991.250000,26.400000
660,-995.000000,26.150000
661,-991.250000,26.325001
662,-995.000000,26.500000
663,-995.000000,26.750000
664,-1000.000000,26.025000
665,-1000.000000,26.500000
666,-998.750000,26.799999
667,-998.750000,26.625000
668,-997.500000,26.799999
669,-1001.250000,27.100000
670,-1002.500000,27.424999
671,-1005.000000,27.650000
672,-1005.000000,27.600000
673,-1003.750000,27.450001
674,-1005.000000,27.325001
675,-1006.250000,27.275000
676,-1011.250000,27.325001
677,-1005.000000,27.674999
678,-1011.250000,27.375000
679,-1011.250000,27.424999
680,-1010.000000,27.875000
681,-1017.500000,28.125000
682,-1013.750000,27.924999
683,-1016.250000,28.200001
684,-1011.250000,28.225000
685,-1022.500000,28.549999
686,-1018.750000,28.325001
687,-1018.750000,28.424999
688,-1022.500000,28.575001
689,-1020.000000,28.174999
690,-1023.750000,29.000000
691,-1023.750000,28.674999
692,-1027.500000,28.700001
693,-1022.500000,29.150000
694,-1025.000000,28.825001
695,-1027.500000,29.075001
696,-1027.500000,28.725000
697,-1027.500000,28.975000
698,-1028.750000,28.825001
699,-1032.500000,28.625000
700,-1031.250000,29.049999
701,-1032.500000,28.799999
702,-1037.500000,28.825001
703,-1035.000000,28.924999
704,-1037.500000,29.250000
705,-1036.250000,29.375000
706,-1042.500000,29.150000
707,-1037.500000,29.025000
708,-1041.250000,29.250000
709,-1041.250000,29.625000
710,-1043.750000,29.450001
711,-1045.000000,29.075001
712,-1047.500000,29.299999
713,-1051.250000,29.575001
714,-1043.750000,29.299999
715,-1047.500000,29.750000
716,-1051.250000,30.049999
717,-1050.000000,29.900000
718,-1052.500000,30.325001
719,-1050.000000,29.975000
720,-1053.750000,30.125000
721,-1055.000000,29.700001
722,-1057.500000,29.975000
723,-1056.250000,30.400000
724,-1058.750000,30.200001
725,-1057.500000,30.375000
726,-1060.000000,30.174999
727,-1061.250000,30.500000
728,-1061.250000,30.549999
729,-1066.250000,30.475000
730,-1065.000000,30.424999
731,-1065.000000,30.325001
732,-1066.250000,30.375000
733,-1066.250000,30.475000
734,-1066.250000,30.250000
735,-1067.500000,30.325001
736,-1070.000000,30.750000
737,-1068.750000,30.650000
738,-1071.250000,30.600000
739,-1070.000000,30.725000
740,-1075.000000,30.850000
741,-1070.000000,30.924999
742,-1072.500000,30.850000
743,-1075.000000,31.000000
744,-1073.750000,30.875000
745,-1080.000000,31.000000
746,-1075.000000,30.700001
747,-1081.250000,30.924999
748,-1082.500000,30.799999
749,-1081.250000,30.900000
750,-1080.000000,30.924999
751,-1085.000000,30.975000
752,-1086.250000,31.225000
753,-1087.500000,30.950001
754,-1088.750000,30.975000
755,-1086.250000,31.275000
756,-1090.000000,31.325001
757,-1087.500000,31.575001
