光泵磁共振/origindata/20000101_050710.csv

Channel              :,CH1,CH2
Frequency            :,19.87Hz,19.90Hz
Period               :,50.32ms,50.24ms
PK-PK                :,518.8mV,218.9mV
Probe attenuation    :,1X,1X
Voltage per ADC value:,1.250000mV,0.125000mV
Time interval        :,40.00000uS,40.00000uS

index,CH1_Voltage(mV),CH2_Voltage(mV)
1,-928.750000,185.625000
2,-928.750000,185.625000
3,-922.500000,186.000000
4,-923.750000,186.000000
5,-925.000000,185.750000
6,-921.250000,185.875000
7,-917.500000,185.875000
8,-916.250000,185.625000
9,-917.500000,185.875000
10,-917.500000,185.875000
11,-915.000000,186.125000
12,-912.500000,186.375000
13,-913.750000,186.250000
14,-915.000000,186.625000
15,-916.250000,186.000000
16,-912.500000,186.250000
17,-910.000000,186.000000
18,-907.500000,186.375000
19,-906.250000,186.125000
20,-906.250000,186.250000
21,-902.500000,186.000000
22,-902.500000,186.125000
23,-902.500000,186.375000
24,-900.000000,186.375000
25,-901.250000,186.625000
26,-896.250000,186.125000
27,-898.750000,186.125000
28,-897.500000,186.375000
29,-895.000000,186.750000
30,-897.500000,186.125000
31,-895.000000,186.375000
32,-892.500000,186.250000
33,-890.000000,185.875000
34,-888.750000,186.250000
35,-892.500000,186.250000
36,-886.250000,186.125000
37,-886.250000,186.250000
38,-883.750000,186.250000
39,-881.250000,186.000000
40,-886.250000,185.875000
41,-882.500000,185.750000
42,-878.750000,185.500000
43,-880.000000,186.000000
44,-877.500000,186.125000
45,-881.250000,186.125000
46,-878.750000,185.750000
47,-877.500000,185.875000
48,-875.000000,185.625000
49,-872.500000,185.750000
50,-875.000000,186.000000
51,-872.500000,186.000000
52,-867.500000,185.875000
53,-867.500000,185.625000
54,-866.250000,186.125000
55,-865.000000,185.500000
56,-866.250000,185.625000
57,-866.250000,185.750000
58,-862.500000,185.375000
59,-862.500000,185.875000
60,-862.500000,186.000000
61,-862.500000,185.500000
62,-862.500000,185.500000
63,-858.750000,185.250000
64,-856.250000,185.500000
65,-856.250000,185.500000
66,-856.250000,185.500000
67,-852.500000,185.625000
68,-852.500000,185.125000
69,-852.500000,185.625000
70,-850.000000,185.500000
71,-850.000000,185.125000
72,-851.250000,185.125000
73,-853.750000,184.750000
74,-847.500000,185.500000
75,-846.250000,185.125000
76,-845.000000,185.500000
77,-843.750000,185.125000
78,-840.000000,185.250000
79,-838.750000,185.750000
80,-840.000000,186.000000
81,-836.250000,185.875000
82,-836.250000,185.500000
83,-837.500000,185.750000
84,-837.500000,185.875000
85,-836.250000,185.500000
86,-836.250000,185.375000
87,-832.500000,185.250000
88,-832.500000,185.250000
89,-831.250000,184.875000
90,-828.750000,185.375000
91,-827.500000,185.625000
92,-825.000000,185.375000
93,-826.250000,185.000000
94,-821.250000,184.750000
95,-823.750000,184.875000
96,-823.750000,184.375000
97,-823.750000,184.125000
98,-821.250000,183.750000
99,-822.500000,182.625000
100,-820.000000,182.250000
101,-815.000000,181.125000
102,-813.750000,179.125000
103,-812.500000,177.000000
104,-810.000000,174.250000
105,-811.250000,171.125000
106,-808.750000,168.000000
107,-811.250000,165.000000
108,-810.000000,162.625000
109,-808.750000,160.750000
110,-806.250000,159.625000
111,-803.750000,158.000000
112,-805.000000,157.625000
113,-803.750000,156.875000
114,-797.500000,156.125000
115,-801.250000,155.750000
116,-798.750000,155.500000
117,-800.000000,155.625000
118,-798.750000,154.750000
119,-797.500000,154.750000
120,-800.000000,154.625000
121,-795.000000,154.500000
122,-793.750000,154.125000
123,-788.750000,154.125000
124,-787.500000,153.875000
125,-791.250000,153.750000
126,-790.000000,153.625000
127,-786.250000,153.875000
128,-787.500000,153.625000
129,-787.500000,153.750000
130,-783.750000,153.500000
131,-783.750000,153.125000
132,-782.500000,153.375000
133,-780.000000,153.125000
134,-780.000000,153.125000
135,-776.250000,153.000000
136,-777.500000,152.625000
137,-776.250000,152.625000
138,-778.750000,152.875000
139,-776.250000,152.875000
140,-777.500000,152.625000
141,-776.250000,152.750000
142,-773.750000,152.750000
143,-772.500000,152.500000
144,-768.750000,152.500000
145,-766.250000,152.750000
146,-767.500000,152.375000
147,-767.500000,152.625000
148,-767.500000,152.250000
149,-763.750000,152.375000
150,-763.750000,152.500000
151,-766.250000,152.125000
152,-763.750000,152.000000
153,-762.500000,152.250000
154,-758.750000,152.500000
155,-757.500000,152.375000
156,-758.750000,152.375000
157,-758.750000,151.750000
158,-751.250000,151.750000
159,-755.000000,151.750000
160,-756.250000,152.125000
161,-755.000000,152.250000
162,-755.000000,152.000000
163,-750.000000,152.250000
164,-746.250000,152.125000
165,-746.250000,152.375000
166,-745.000000,152.000000
167,-747.500000,151.750000
168,-745.000000,152.125000
169,-741.250000,151.500000
170,-745.000000,152.000000
171,-740.000000,151.750000
172,-743.750000,151.500000
173,-742.500000,151.500000
174,-740.000000,152.000000
175,-736.250000,152.000000
176,-733.750000,152.000000
177,-728.750000,152.000000
178,-730.000000,151.500000
179,-732.500000,151.125000
180,-727.500000,151.375000
181,-727.500000,151.500000
182,-726.250000,151.750000
183,-725.000000,151.000000
184,-726.250000,151.125000
185,-726.250000,151.125000
186,-723.750000,151.500000
187,-722.500000,151.750000
188,-722.500000,151.625000
189,-726.250000,151.500000
190,-727.500000,151.250000
191,-727.500000,151.500000
192,-726.250000,152.000000
193,-722.500000,151.500000
194,-722.500000,151.625000
195,-725.000000,151.625000
196,-722.500000,151.750000
197,-722.500000,152.000000
198,-722.500000,152.125000
199,-722.500000,152.625000
200,-726.250000,152.125000
201,-725.000000,152.250000
202,-725.000000,152.250000
203,-726.250000,152.625000
204,-721.250000,152.625000
205,-721.250000,152.125000
206,-725.000000,151.875000
207,-721.250000,151.875000
208,-722.500000,152.250000
209,-725.000000,152.375000
210,-727.500000,151.750000
211,-727.500000,151.750000
212,-723.750000,151.750000
213,-727.500000,151.625000
214,-723.750000,152.000000
215,-727.500000,151.500000
216,-723.750000,151.625000
217,-726.250000,151.750000
218,-722.500000,152.125000
219,-725.000000,152.000000
220,-730.000000,152.000000
221,-727.500000,152.125000
222,-728.750000,151.625000
223,-726.250000,151.375000
224,-723.750000,151.375000
225,-728.750000,150.750000
226,-725.000000,150.125000
227,-726.250000,149.625000
228,-728.750000,148.250000
229,-728.750000,148.000000
230,-730.000000,147.000000
231,-728.750000,145.000000
232,-731.250000,142.375000
233,-727.500000,139.750000
234,-727.500000,135.500000
235,-726.250000,130.750000
236,-726.250000,124.125000
237,-728.750000,117.000000
238,-731.250000,108.000000
239,-728.750000,98.125000
240,-730.000000,87.000000
241,-731.250000,75.875000
242,-731.250000,64.000000
243,-731.250000,52.500000
244,-732.500000,41.375000
245,-727.500000,31.625000
246,-727.500000,22.000000
247,-731.250000,14.250000
248,-730.000000,7.500000
249,-732.500000,0.625000
250,-735.000000,-5.625000
251,-732.500000,-10.500000
252,-735.000000,-14.375000
253,-733.750000,-18.375000
254,-733.750000,-21.000000
255,-736.250000,-24.250000
256,-732.500000,-25.750000
257,-733.750000,-27.250000
258,-731.250000,-28.250000
259,-735.000000,-28.500000
260,-737.500000,-29.250000
261,-737.500000,-29.125000
262,-738.750000,-28.875000
263,-737.500000,-28.875000
264,-735.000000,-27.750000
265,-736.250000,-27.125000
266,-735.000000,-26.250000
267,-733.750000,-24.750000
268,-740.000000,-24.250000
269,-738.750000,-22.500000
270,-742.500000,-21.750000
271,-741.250000,-20.750000
272,-745.000000,-19.750000
273,-741.250000,-19.125000
274,-742.500000,-17.375000
275,-738.750000,-16.750000
276,-742.500000,-15.875000
277,-742.500000,-15.000000
278,-745.000000,-14.250000
279,-745.000000,-13.000000
280,-748.750000,-12.500000
281,-747.500000,-11.000000
282,-746.250000,-10.750000
283,-743.750000,-10.250000
284,-745.000000,-9.000000
285,-747.500000,-8.125000
286,-745.000000,-7.375000
287,-747.500000,-7.125000
288,-748.750000,-6.250000
289,-752.500000,-5.750000
290,-751.250000,-5.125000
291,-752.500000,-4.250000
292,-755.000000,-3.750000
293,-750.000000,-3.000000
294,-751.250000,-2.625000
295,-748.750000,-1.125000
296,-750.000000,-0.125000
297,-751.250000,1.625000
298,-756.250000,3.250000
299,-755.000000,4.875000
300,-757.500000,7.125000
301,-757.500000,9.375000
302,-757.500000,12.125000
303,-756.250000,14.375000
304,-756.250000,16.750000
305,-760.000000,17.750000
306,-756.250000,19.625000
307,-761.250000,21.500000
308,-761.250000,22.375000
309,-760.000000,23.500000
310,-762.500000,23.625000
311,-763.750000,23.250000
312,-760.000000,23.750000
313,-760.000000,23.750000
314,-758.750000,24.125000
315,-762.500000,24.000000
316,-765.000000,24.375000
317,-766.250000,24.875000
318,-768.750000,25.875000
319,-766.250000,26.625000
320,-767.500000,28.000000
321,-768.750000,28.875000
322,-766.250000,30.000000
323,-765.000000,30.750000
324,-768.750000,31.875000
325,-768.750000,33.125000
326,-771.250000,34.250000
327,-773.750000,35.500000
328,-773.750000,36.375000
329,-775.000000,37.750000
330,-778.750000,38.875000
331,-775.000000,39.750000
332,-776.250000,41.125000
333,-776.250000,42.125000
334,-775.000000,42.750000
335,-772.500000,44.000000
336,-777.500000,45.125000
337,-778.750000,46.125000
338,-781.250000,47.125000
339,-780.000000,48.625000
340,-783.750000,49.750000
341,-785.000000,50.750000
342,-782.500000,51.500000
343,-782.500000,52.125000
344,-782.500000,52.875000
345,-782.500000,54.125000
346,-785.000000,54.875000
347,-787.500000,55.750000
348,-785.000000,57.375000
349,-787.500000,58.125000
350,-791.250000,59.000000
351,-792.500000,59.875000
352,-791.250000,60.500000
353,-791.250000,61.625000
354,-788.750000,62.000000
355,-790.000000,63.000000
356,-790.000000,64.125000
357,-792.500000,64.875000
358,-792.500000,66.000000
359,-793.750000,66.875000
360,-793.750000,67.500000
361,-795.000000,68.750000
362,-798.750000,69.625000
363,-797.500000,70.125000
364,-801.250000,70.625000
365,-798.750000,71.750000
366,-788.750000,72.750000
367,-797.500000,73.250000
368,-797.500000,73.875000
369,-800.000000,75.125000
370,-802.500000,75.875000
371,-803.750000,76.750000
372,-805.000000,77.750000
373,-805.000000,78.125000
374,-806.250000,79.250000
375,-810.000000,80.250000
376,-807.500000,80.625000
377,-807.500000,81.500000
378,-807.500000,82.125000
379,-807.500000,83.000000
380,-805.000000,83.500000
381,-807.500000,83.625000
382,-811.250000,84.750000
383,-810.000000,85.250000
384,-812.500000,86.125000
385,-816.250000,87.125000
386,-818.750000,87.750000
387,-818.750000,88.125000
388,-821.250000,89.000000
389,-820.000000,90.125000
390,-820.000000,90.750000
391,-821.250000,90.750000
392,-818.750000,91.750000
393,-822.500000,92.375000
394,-821.250000,93.250000
395,-821.250000,94.000000
396,-822.500000,95.000000
397,-823.750000,95.250000
398,-825.000000,95.500000
399,-825.000000,96.375000
400,-827.500000,96.750000
401,-828.750000,97.500000
402,-828.750000,98.250000
403,-826.250000,99.000000
404,-827.500000,99.875000
405,-827.500000,99.875000
406,-827.500000,100.875000
407,-832.500000,100.625000
408,-828.750000,102.125000
409,-833.750000,102.625000
410,-835.000000,103.375000
411,-837.500000,104.250000
412,-835.000000,105.000000
413,-838.750000,105.750000
414,-831.250000,106.250000
415,-840.000000,106.875000
416,-836.250000,107.125000
417,-842.500000,107.500000
418,-835.000000,107.750000
419,-841.250000,108.500000
420,-840.000000,109.500000
421,-842.500000,109.375000
422,-843.750000,109.875000
423,-848.750000,110.500000
424,-846.250000,110.875000
425,-846.250000,111.375000
426,-846.250000,112.000000
427,-843.750000,112.750000
428,-848.750000,113.125000
429,-848.750000,114.000000
430,-847.500000,114.500000
431,-850.000000,115.250000
432,-850.000000,116.125000
433,-852.500000,116.875000
434,-853.750000,116.875000
435,-850.000000,117.500000
436,-856.250000,118.000000
437,-858.750000,118.125000
438,-856.250000,118.875000
439,-852.500000,119.375000
440,-855.000000,119.750000
441,-853.750000,119.875000
442,-857.500000,120.875000
443,-860.000000,121.125000
444,-861.250000,121.750000
445,-861.250000,122.625000
446,-863.750000,123.250000
447,-861.250000,123.500000
448,-867.500000,123.500000
449,-865.000000,124.250000
450,-866.250000,124.875000
451,-865.000000,125.500000
452,-865.000000,125.875000
453,-870.000000,126.250000
454,-866.250000,127.250000
455,-868.750000,127.625000
456,-871.250000,128.250000
457,-871.250000,128.375000
458,-873.750000,128.375000
459,-873.750000,129.000000
460,-876.250000,129.250000
461,-876.250000,130.125000
462,-876.250000,130.625000
463,-873.750000,130.625000
464,-872.500000,131.375000
465,-877.500000,131.000000
466,-875.000000,131.625000
467,-877.500000,132.125000
468,-878.750000,132.250000
469,-878.750000,132.875000
470,-881.250000,133.000000
471,-883.750000,133.000000
472,-882.500000,133.625000
473,-885.000000,133.875000
474,-888.750000,134.375000
475,-886.250000,134.875000
476,-885.000000,134.500000
477,-888.750000,134.625000
478,-885.000000,134.750000
479,-886.250000,135.125000
480,-887.500000,134.875000
481,-890.000000,134.000000
482,-891.250000,133.125000
483,-890.000000,132.000000
484,-895.000000,131.625000
485,-897.500000,130.250000
486,-896.250000,129.000000
487,-896.250000,127.500000
488,-897.500000,126.375000
489,-901.250000,125.250000
490,-898.750000,124.750000
491,-897.500000,124.250000
492,-895.000000,124.125000
493,-898.750000,124.250000
494,-898.750000,124.000000
495,-901.250000,124.500000
496,-901.250000,124.625000
497,-902.500000,125.125000
498,-905.000000,125.000000
499,-907.500000,125.375000
500,-911.250000,125.375000
501,-906.250000,126.000000
502,-908.750000,126.000000
503,-907.500000,126.000000
504,-907.500000,126.500000
505,-910.000000,126.875000
506,-908.750000,127.000000
507,-910.000000,127.250000
508,-908.750000,127.750000
509,-912.500000,128.500000
510,-913.750000,128.500000
511,-917.500000,129.000000
512,-917.500000,129.125000
513,-916.250000,128.750000
514,-917.500000,129.500000
515,-918.750000,130.000000
516,-917.500000,130.125000
517,-917.500000,130.250000
518,-918.750000,130.375000
519,-917.500000,130.500000
520,-915.000000,131.250000
521,-921.250000,131.500000
522,-921.250000,131.625000
523,-923.750000,131.500000
524,-923.750000,131.875000
525,-926.250000,132.500000
526,-927.500000,133.125000
527,-927.500000,133.125000
528,-927.500000,133.500000
529,-928.750000,133.750000
530,-932.500000,134.250000
531,-931.250000,134.625000
532,-930.000000,134.500000
533,-930.000000,134.750000
534,-931.250000,135.500000
535,-932.500000,135.875000
536,-932.500000,135.875000
537,-931.250000,136.000000
538,-936.250000,136.500000
539,-936.250000,136.750000
540,-937.500000,137.625000
541,-935.000000,137.625000
542,-941.250000,137.375000
543,-941.250000,138.250000
544,-938.750000,138.125000
545,-942.500000,138.625000
546,-941.250000,138.875000
547,-943.750000,139.125000
548,-941.250000,139.250000
549,-943.750000,139.375000
550,-941.250000,139.750000
551,-943.750000,140.375000
552,-940.000000,140.000000
553,-943.750000,141.000000
554,-942.500000,141.000000
555,-943.750000,141.125000
556,-948.750000,141.250000
557,-948.750000,141.625000
558,-952.500000,142.250000
559,-953.750000,142.250000
560,-952.500000,142.250000
561,-956.250000,142.125000
562,-955.000000,143.125000
563,-955.000000,143.000000
564,-956.250000,143.500000
565,-953.750000,143.875000
566,-957.500000,143.875000
567,-956.250000,144.250000
568,-957.500000,144.375000
569,-956.250000,144.750000
570,-957.500000,144.750000
571,-960.000000,145.750000
572,-961.250000,146.000000
573,-963.750000,146.250000
574,-963.750000,146.500000
575,-963.750000,147.125000
576,-966.250000,147.125000
577,-967.500000,147.500000
578,-968.750000,147.375000
579,-970.000000,148.125000
580,-967.500000,148.375000
581,-966.250000,148.875000
582,-965.000000,148.625000
583,-968.750000,148.375000
584,-970.000000,148.875000
585,-972.500000,148.750000
586,-970.000000,149.250000
587,-970.000000,149.250000
588,-973.750000,149.625000
589,-975.000000,150.000000
590,-975.000000,150.500000
591,-972.500000,150.625000
592,-976.250000,150.375000
593,-982.500000,150.375000
594,-981.250000,150.875000
595,-977.500000,151.250000
596,-978.750000,151.750000
597,-982.500000,151.750000
598,-982.500000,152.125000
599,-980.000000,152.250000
600,-982.500000,151.875000
601,-985.000000,152.250000
602,-986.250000,152.500000
603,-987.500000,152.625000
604,-986.250000,153.250000
605,-986.250000,153.500000
606,-987.500000,153.875000
607,-988.750000,153.375000
608,-990.000000,153.500000
609,-991.250000,153.750000
610,-990.000000,154.000000
611,-993.750000,154.125000
612,-993.750000,154.625000
613,-991.250000,154.750000
614,-991.250000,155.000000
615,-996.250000,155.625000
616,-993.750000,155.625000
617,-997.500000,156.000000
618,-997.500000,156.000000
619,-998.750000,156.250000
620,-995.000000,156.875000
621,-1000.000000,157.000000
622,-1001.250000,157.250000
623,-1003.750000,157.125000
624,-1003.750000,157.125000
625,-1003.750000,157.500000
626,-1003.750000,157.000000
627,-1001.250000,157.375000
628,-1003.750000,157.750000
629,-1005.000000,158.000000
630,-1005.000000,158.125000
631,-1007.500000,158.375000
632,-1006.250000,158.625000
633,-1008.750000,158.375000
634,-1007.500000,158.875000
635,-1006.250000,158.875000
636,-1012.500000,159.250000
637,-1013.750000,159.125000
638,-1016.250000,159.625000
639,-1016.250000,160.250000
640,-1015.000000,160.500000
641,-1012.500000,160.125000
642,-1013.750000,160.375000
643,-1017.500000,160.125000
644,-1016.250000,160.500000
645,-1016.250000,160.625000
646,-1016.250000,161.250000
647,-1017.500000,161.375000
648,-1020.000000,160.750000
649,-1022.500000,161.500000
650,-1020.000000,161.750000
651,-1025.000000,162.000000
652,-1021.250000,162.000000
653,-1023.750000,161.750000
654,-1025.000000,162.125000
655,-1026.250000,162.375000
656,-1028.750000,162.750000
657,-1030.000000,162.875000
658,-1030.000000,163.000000
659,-1028.750000,163.375000
660,-1028.750000,163.000000
661,-1028.750000,163.375000
662,-1031.250000,163.375000
663,-1030.000000,164.125000
664,-1031.250000,164.375000
665,-1032.500000,164.500000
666,-1032.500000,164.375000
667,-1033.750000,164.125000
668,-1036.250000,164.250000
669,-1037.500000,164.000000
670,-1033.750000,164.375000
671,-1040.000000,164.250000
672,-1040.000000,164.625000
673,-1038.750000,164.625000
674,-1041.250000,165.125000
675,-1040.000000,165.375000
676,-1042.500000,165.625000
677,-1043.750000,165.625000
678,-1042.500000,165.375000
679,-1045.000000,165.875000
680,-1041.250000,166.250000
681,-1045.000000,166.500000
682,-1046.250000,166.125000
683,-1043.750000,166.375000
684,-1046.250000,166.000000
685,-1047.500000,166.875000
686,-1047.500000,166.750000
687,-1051.250000,166.875000
688,-1048.750000,166.625000
689,-1050.000000,166.625000
690,-1051.250000,167.250000
691,-1052.500000,166.875000
692,-1055.000000,167.875000
693,-1056.250000,167.500000
694,-1057.500000,168.125000
695,-1057.500000,168.250000
696,-1061.250000,167.625000
697,-1058.750000,168.125000
698,-1060.000000,168.500000
699,-1058.750000,168.250000
700,-1057.500000,168.125000
701,-1060.000000,168.250000
702,-1062.500000,168.625000
703,-1060.000000,168.875000
704,-1062.500000,168.875000
705,-1061.250000,168.750000
706,-1062.500000,168.750000
707,-1062.500000,168.875000
708,-1063.750000,169.250000
709,-1066.250000,169.375000
710,-1066.250000,169.875000
711,-1071.250000,169.875000
712,-1073.750000,170.000000
713,-1068.750000,170.125000
714,-1072.500000,170.375000
715,-1073.750000,170.625000
716,-1072.500000,171.000000
717,-1077.500000,171.125000
718,-1073.750000,170.875000
719,-1076.250000,171.250000
720,-1075.000000,171.000000
721,-1076.250000,171.500000
722,-1072.500000,171.250000
723,-1075.000000,171.625000
724,-1077.500000,171.250000
725,-1077.500000,171.375000
726,-1078.750000,172.125000
727,-1077.500000,172.000000
728,-1077.500000,171.625000
729,-1082.500000,171.875000
730,-1083.750000,172.000000
731,-1082.500000,172.625000
732,-1086.250000,172.125000
733,-1087.500000,172.500000
734,-1090.000000,172.500000
