光泵磁共振/origindata/20000101_040746.csv

Channel              :,CH1,CH2
Frequency            :,19.90Hz,19.94Hz
Period               :,50.24ms,50.16ms
PK-PK                :,641.3mV,45.15mV
Probe attenuation    :,1X,1X
Voltage per ADC value:,1.250000mV,0.025000mV
Time interval        :,40.00000uS,40.00000uS

index,CH1_Voltage(mV),CH2_Voltage(mV)
1,-665.000000,21.825001
2,-665.000000,21.825001
3,-662.500000,21.375000
4,-657.500000,21.875000
5,-655.000000,22.000000
6,-656.250000,21.900000
7,-652.500000,22.325001
8,-656.250000,22.525000
9,-650.000000,22.150000
10,-651.250000,22.525000
11,-646.250000,22.100000
12,-647.500000,22.075001
13,-647.500000,22.375000
14,-647.500000,22.325001
15,-642.500000,22.150000
16,-643.750000,22.700001
17,-641.250000,22.299999
18,-641.250000,22.275000
19,-637.500000,22.400000
20,-637.500000,22.375000
21,-635.000000,22.650000
22,-637.500000,23.025000
23,-632.500000,22.525000
24,-631.250000,22.650000
25,-630.000000,22.799999
26,-630.000000,22.500000
27,-628.750000,22.600000
28,-626.250000,22.700001
29,-628.750000,22.475000
30,-620.000000,22.325001
31,-622.500000,22.500000
32,-620.000000,22.500000
33,-623.750000,22.525000
34,-613.750000,22.825001
35,-617.500000,22.700001
36,-611.250000,22.775000
37,-617.500000,23.025000
38,-612.500000,22.950001
39,-612.500000,23.625000
40,-608.750000,23.250000
41,-608.750000,23.075001
42,-608.750000,23.549999
43,-608.750000,23.725000
44,-602.500000,22.924999
45,-603.750000,23.325001
46,-601.250000,22.950001
47,-602.500000,22.850000
48,-598.750000,23.200001
49,-597.500000,23.475000
50,-597.500000,23.100000
51,-593.750000,23.500000
52,-593.750000,23.750000
53,-595.000000,23.250000
54,-592.500000,23.700001
55,-590.000000,23.450001
56,-590.000000,23.500000
57,-586.250000,24.025000
58,-587.500000,23.825001
59,-582.500000,23.750000
60,-585.000000,24.100000
61,-581.250000,23.700001
62,-582.500000,23.975000
63,-582.500000,23.924999
64,-581.250000,23.775000
65,-576.250000,23.825001
66,-572.500000,24.049999
67,-570.000000,24.049999
68,-567.500000,24.174999
69,-563.750000,24.075001
70,-563.750000,23.825001
71,-565.000000,23.975000
72,-563.750000,24.150000
73,-562.500000,23.650000
74,-560.000000,24.000000
75,-562.500000,23.900000
76,-562.500000,23.725000
77,-557.500000,24.000000
78,-561.250000,23.850000
79,-557.500000,23.750000
80,-557.500000,24.125000
81,-560.000000,23.875000
82,-557.500000,23.799999
83,-562.500000,24.575001
84,-558.750000,24.325001
85,-563.750000,24.400000
86,-555.000000,24.625000
87,-561.250000,24.825001
88,-560.000000,24.200001
89,-562.500000,24.875000
90,-560.000000,24.600000
91,-558.750000,24.674999
92,-560.000000,24.500000
93,-562.500000,24.225000
94,-557.500000,24.375000
95,-560.000000,24.549999
96,-560.000000,24.075001
97,-558.750000,24.250000
98,-561.250000,24.100000
99,-562.500000,23.875000
100,-560.000000,23.775000
101,-562.500000,24.650000
102,-562.500000,23.924999
103,-563.750000,24.650000
104,-563.750000,24.674999
105,-560.000000,24.150000
106,-563.750000,24.549999
107,-562.500000,25.049999
108,-560.000000,24.525000
109,-558.750000,24.924999
110,-561.250000,24.850000
111,-560.000000,24.975000
112,-562.500000,25.125000
113,-563.750000,24.950001
114,-561.250000,24.900000
115,-563.750000,25.275000
116,-565.000000,24.775000
117,-567.500000,24.625000
118,-563.750000,24.950001
119,-561.250000,24.825001
120,-562.500000,24.825001
121,-563.750000,25.225000
122,-568.750000,24.875000
123,-561.250000,25.299999
124,-567.500000,25.475000
125,-568.750000,25.125000
126,-568.750000,25.525000
127,-566.250000,25.375000
128,-571.250000,25.125000
129,-563.750000,25.299999
130,-570.000000,25.299999
131,-570.000000,24.825001
132,-567.500000,25.225000
133,-566.250000,25.525000
134,-570.000000,25.025000
135,-568.750000,24.975000
136,-570.000000,25.400000
137,-570.000000,25.049999
138,-572.500000,25.424999
139,-570.000000,25.375000
140,-572.500000,25.400000
141,-570.000000,25.475000
142,-573.750000,25.325001
143,-572.500000,25.525000
144,-568.750000,26.075001
145,-573.750000,25.450001
146,-577.500000,25.600000
147,-571.250000,25.825001
148,-573.750000,25.674999
149,-572.500000,25.125000
150,-575.000000,25.350000
151,-577.500000,24.950001
152,-577.500000,25.650000
153,-577.500000,25.250000
154,-575.000000,25.100000
155,-575.000000,25.600000
156,-578.750000,25.700001
157,-578.750000,25.825001
158,-580.000000,26.125000
159,-578.750000,26.125000
160,-580.000000,26.200001
161,-581.250000,26.174999
162,-581.250000,25.775000
163,-582.500000,25.975000
164,-578.750000,26.075001
165,-583.750000,25.400000
166,-583.750000,26.025000
167,-585.000000,25.500000
168,-586.250000,25.075001
169,-587.500000,25.700001
170,-586.250000,25.825001
171,-587.500000,25.400000
172,-585.000000,25.799999
173,-590.000000,25.924999
174,-586.250000,25.750000
175,-592.500000,26.075001
176,-588.750000,26.049999
177,-591.250000,26.075001
178,-590.000000,26.475000
179,-595.000000,25.625000
180,-590.000000,26.000000
181,-596.250000,26.225000
182,-591.250000,26.000000
183,-596.250000,26.275000
184,-593.750000,26.225000
185,-596.250000,26.150000
186,-595.000000,26.549999
187,-598.750000,26.650000
188,-597.500000,26.375000
189,-600.000000,26.575001
190,-600.000000,26.375000
191,-603.750000,26.174999
192,-600.000000,26.475000
193,-601.250000,26.100000
194,-602.500000,25.950001
195,-602.500000,26.275000
196,-605.000000,25.950001
197,-606.250000,26.400000
198,-605.000000,26.625000
199,-603.750000,26.424999
200,-605.000000,26.500000
201,-606.250000,26.650000
202,-611.250000,26.299999
203,-610.000000,27.049999
204,-607.500000,26.674999
205,-608.750000,26.500000
206,-612.500000,27.025000
207,-611.250000,26.750000
208,-613.750000,26.875000
209,-611.250000,27.450001
210,-616.250000,27.225000
211,-611.250000,27.225000
212,-618.750000,27.225000
213,-616.250000,26.725000
214,-620.000000,26.875000
215,-617.500000,26.975000
216,-622.500000,26.700001
217,-620.000000,27.100000
218,-623.750000,26.750000
219,-621.250000,26.575001
220,-622.500000,26.625000
221,-622.500000,26.424999
222,-626.250000,26.525000
223,-627.500000,27.049999
224,-627.500000,26.549999
225,-627.500000,26.375000
226,-627.500000,26.975000
227,-627.500000,26.700001
228,-632.500000,26.700001
229,-635.000000,27.049999
230,-631.250000,26.750000
231,-633.750000,27.000000
232,-632.500000,27.350000
233,-637.500000,27.225000
234,-635.000000,27.625000
235,-638.750000,27.799999
236,-637.500000,27.375000
237,-643.750000,27.525000
238,-638.750000,27.125000
239,-642.500000,27.500000
240,-640.000000,27.825001
241,-642.500000,27.500000
242,-640.000000,27.250000
243,-645.000000,27.424999
244,-641.250000,26.650000
245,-648.750000,27.200001
246,-647.500000,27.075001
247,-647.500000,27.125000
248,-647.500000,27.299999
249,-652.500000,27.450001
250,-652.500000,26.799999
251,-651.250000,27.225000
252,-652.500000,26.950001
253,-655.000000,27.025000
254,-653.750000,27.250000
255,-652.500000,26.600000
256,-658.750000,26.850000
257,-656.250000,26.975000
258,-657.500000,27.125000
259,-655.000000,27.150000
260,-662.500000,27.150000
261,-658.750000,26.924999
262,-660.000000,27.200001
263,-666.250000,27.174999
264,-665.000000,26.950001
265,-662.500000,27.100000
266,-667.500000,27.299999
267,-666.250000,27.350000
268,-666.250000,27.799999
269,-665.000000,26.825001
270,-668.750000,27.450001
271,-671.250000,27.325001
272,-673.750000,26.950001
273,-673.750000,27.325001
274,-672.500000,27.450001
275,-676.250000,27.250000
276,-672.500000,27.350000
277,-676.250000,27.250000
278,-673.750000,27.350000
279,-677.500000,27.674999
280,-676.250000,27.375000
281,-681.250000,27.674999
282,-677.500000,28.000000
283,-681.250000,27.725000
284,-683.750000,27.875000
285,-683.750000,28.200001
286,-680.000000,27.850000
287,-686.250000,28.000000
288,-683.750000,28.025000
289,-686.250000,28.000000
290,-687.500000,28.075001
291,-688.750000,27.525000
292,-687.500000,27.900000
293,-692.500000,28.275000
294,-693.750000,27.950001
295,-690.000000,28.174999
296,-696.250000,28.075001
297,-693.750000,27.525000
298,-695.000000,27.950001
299,-697.500000,28.049999
300,-700.000000,27.950001
301,-697.500000,28.100000
302,-701.250000,27.924999
303,-701.250000,27.674999
304,-703.750000,27.700001
305,-703.750000,27.375000
306,-703.750000,27.600000
307,-702.500000,27.950001
308,-706.250000,27.775000
309,-702.500000,28.174999
310,-707.500000,28.475000
311,-710.000000,28.250000
312,-711.250000,28.549999
313,-712.500000,27.950001
314,-711.250000,27.950001
315,-712.500000,28.375000
316,-712.500000,28.125000
317,-713.750000,27.850000
318,-713.750000,28.049999
319,-717.500000,27.700001
320,-717.500000,28.049999
321,-717.500000,28.125000
322,-715.000000,27.750000
323,-723.750000,27.975000
324,-718.750000,28.575001
325,-721.250000,27.924999
326,-721.250000,28.225000
327,-726.250000,27.924999
328,-725.000000,27.799999
329,-726.250000,27.900000
330,-727.500000,27.750000
331,-727.500000,27.950001
332,-727.500000,28.174999
333,-730.000000,28.400000
334,-731.250000,28.275000
335,-730.000000,28.850000
336,-733.750000,28.000000
337,-732.500000,28.325001
338,-733.750000,28.950001
339,-736.250000,28.424999
340,-737.500000,28.275000
341,-736.250000,28.299999
342,-742.500000,28.125000
343,-740.000000,28.549999
344,-743.750000,28.525000
345,-740.000000,28.400000
346,-745.000000,28.750000
347,-745.000000,28.275000
348,-743.750000,28.650000
349,-745.000000,28.600000
350,-747.500000,28.725000
351,-748.750000,28.975000
352,-750.000000,29.150000
353,-753.750000,28.625000
354,-746.250000,29.200001
355,-753.750000,29.125000
356,-750.000000,28.875000
357,-756.250000,29.100000
358,-752.500000,29.475000
359,-757.500000,29.525000
360,-757.500000,29.475000
361,-761.250000,29.225000
362,-757.500000,28.725000
363,-760.000000,28.875000
364,-760.000000,28.549999
365,-761.250000,28.700001
366,-763.750000,28.850000
367,-763.750000,28.299999
368,-766.250000,28.875000
369,-765.000000,29.174999
370,-770.000000,28.625000
371,-765.000000,29.200001
372,-765.000000,28.850000
373,-773.750000,28.424999
374,-773.750000,28.975000
375,-772.500000,28.975000
376,-773.750000,28.549999
377,-776.250000,28.424999
378,-773.750000,28.225000
379,-778.750000,28.600000
380,-773.750000,29.025000
381,-781.250000,27.975000
382,-776.250000,28.674999
383,-782.500000,28.875000
384,-782.500000,28.625000
385,-782.500000,29.325001
386,-785.000000,29.275000
387,-783.750000,28.850000
388,-782.500000,29.125000
389,-785.000000,28.825001
390,-786.250000,28.450001
391,-787.500000,28.850000
392,-791.250000,28.850000
393,-787.500000,29.150000
394,-791.250000,29.475000
395,-790.000000,29.299999
396,-790.000000,29.375000
397,-792.500000,29.424999
398,-796.250000,29.100000
399,-795.000000,29.350000
400,-797.500000,29.424999
401,-798.750000,28.900000
402,-798.750000,29.600000
403,-798.750000,29.299999
404,-797.500000,28.850000
405,-805.000000,29.299999
406,-801.250000,29.000000
407,-802.500000,29.200001
408,-802.500000,29.125000
409,-807.500000,28.900000
410,-802.500000,28.674999
411,-805.000000,29.475000
412,-810.000000,28.924999
413,-807.500000,29.100000
414,-811.250000,29.375000
415,-811.250000,28.950001
416,-811.250000,29.275000
417,-812.500000,29.299999
418,-811.250000,28.900000
419,-815.000000,28.900000
420,-813.750000,29.400000
421,-818.750000,29.049999
422,-816.250000,29.500000
423,-821.250000,29.174999
424,-817.500000,29.350000
425,-823.750000,29.549999
426,-818.750000,29.075001
427,-823.750000,29.049999
428,-825.000000,29.025000
429,-826.250000,28.650000
430,-825.000000,28.950001
431,-827.500000,29.200001
432,-828.750000,28.275000
433,-828.750000,28.850000
434,-835.000000,29.275000
435,-827.500000,28.924999
436,-835.000000,29.375000
437,-832.500000,29.075001
438,-836.250000,29.375000
439,-833.750000,29.725000
440,-837.500000,28.975000
441,-838.750000,29.000000
442,-837.500000,29.450001
443,-841.250000,28.775000
444,-842.500000,28.725000
445,-843.750000,28.950001
446,-838.750000,28.500000
447,-843.750000,29.125000
448,-842.500000,29.424999
449,-846.250000,29.275000
450,-845.000000,29.575001
451,-845.000000,29.750000
452,-846.250000,29.325001
453,-847.500000,29.725000
454,-848.750000,29.424999
455,-850.000000,29.125000
456,-848.750000,29.575001
457,-851.250000,29.375000
458,-851.250000,29.650000
459,-855.000000,29.700001
460,-856.250000,29.875000
461,-856.250000,30.150000
462,-857.500000,30.200001
463,-861.250000,29.799999
464,-855.000000,29.850000
465,-860.000000,29.700001
466,-861.250000,29.500000
467,-862.500000,29.775000
468,-858.750000,29.700001
469,-867.500000,29.125000
470,-866.250000,29.375000
471,-867.500000,29.049999
472,-870.000000,29.250000
473,-863.750000,29.500000
474,-871.250000,29.275000
475,-868.750000,29.100000
476,-872.500000,29.525000
477,-872.500000,28.799999
478,-876.250000,29.799999
479,-872.500000,29.625000
480,-875.000000,29.225000
481,-876.250000,29.500000
482,-877.500000,29.900000
483,-877.500000,29.549999
484,-877.500000,30.325001
485,-880.000000,30.450001
486,-878.750000,29.850000
487,-880.000000,30.075001
488,-881.250000,30.174999
489,-881.250000,30.075001
490,-883.750000,30.250000
491,-885.000000,29.625000
492,-887.500000,29.600000
493,-885.000000,29.799999
494,-890.000000,29.850000
495,-885.000000,29.799999
496,-892.500000,30.000000
497,-888.750000,29.549999
498,-892.500000,30.049999
499,-892.500000,30.350000
500,-892.500000,30.525000
501,-895.000000,30.225000
502,-896.250000,30.350000
503,-898.750000,29.700001
504,-895.000000,29.975000
505,-902.500000,30.025000
506,-900.000000,29.825001
507,-900.000000,30.150000
508,-902.500000,29.825001
509,-903.750000,30.225000
510,-906.250000,30.350000
511,-905.000000,29.975000
512,-905.000000,29.575001
513,-905.000000,30.299999
514,-906.250000,29.799999
515,-905.000000,29.674999
516,-910.000000,30.100000
517,-912.500000,29.350000
518,-911.250000,29.450001
519,-915.000000,29.725000
520,-911.250000,29.600000
521,-918.750000,29.700001
522,-915.000000,29.825001
523,-916.250000,29.350000
524,-917.500000,29.700001
525,-917.500000,29.650000
526,-921.250000,29.525000
527,-913.750000,29.950001
528,-922.500000,30.025000
529,-917.500000,29.575001
530,-921.250000,29.750000
531,-923.750000,29.424999
532,-925.000000,29.600000
533,-925.000000,30.424999
534,-927.500000,30.200001
535,-931.250000,30.299999
536,-927.500000,30.325001
537,-930.000000,30.525000
538,-927.500000,30.325001
539,-928.750000,30.275000
540,-932.500000,29.825001
541,-931.250000,30.125000
542,-937.500000,30.299999
543,-932.500000,29.700001
544,-935.000000,30.200001
545,-940.000000,30.025000
546,-936.250000,29.700001
547,-938.750000,30.299999
548,-937.500000,30.375000
549,-942.500000,29.924999
550,-941.250000,30.350000
551,-945.000000,30.200001
552,-942.500000,29.850000
553,-943.750000,30.400000
554,-948.750000,30.100000
555,-945.000000,29.825001
556,-950.000000,30.674999
557,-948.750000,30.350000
558,-947.500000,30.549999
559,-953.750000,31.000000
560,-950.000000,30.625000
561,-953.750000,30.600000
562,-952.500000,30.650000
563,-956.250000,30.000000
564,-953.750000,30.200001
565,-960.000000,30.375000
566,-956.250000,30.125000
567,-953.750000,30.350000
568,-958.750000,30.924999
569,-958.750000,30.350000
570,-960.000000,30.650000
571,-962.500000,30.424999
572,-966.250000,30.424999
573,-967.500000,30.825001
574,-958.750000,30.725000
575,-968.750000,30.375000
576,-962.500000,30.299999
577,-970.000000,29.650000
578,-970.000000,29.674999
579,-966.250000,30.075001
580,-975.000000,29.825001
581,-971.250000,29.650000
582,-975.000000,29.975000
583,-972.500000,29.525000
584,-972.500000,29.325001
585,-976.250000,29.549999
586,-976.250000,29.299999
587,-977.500000,29.475000
588,-975.000000,29.350000
589,-982.500000,29.600000
590,-977.500000,29.799999
591,-983.750000,29.875000
592,-985.000000,29.650000
593,-981.250000,30.075001
594,-987.500000,30.500000
595,-982.500000,30.049999
596,-983.750000,30.225000
597,-985.000000,30.299999
598,-986.250000,29.875000
599,-988.750000,30.350000
600,-990.000000,30.625000
601,-992.500000,30.424999
602,-992.500000,30.525000
603,-993.750000,30.250000
604,-995.000000,30.025000
605,-992.500000,30.450001
606,-996.250000,30.000000
607,-995.000000,30.025000
608,-997.500000,30.125000
609,-1001.250000,30.200001
610,-998.750000,29.825001
611,-1000.000000,29.775000
612,-998.750000,29.575001
613,-1006.250000,29.500000
614,-1003.750000,29.625000
615,-1005.000000,29.299999
616,-1005.000000,29.250000
617,-1007.500000,29.500000
618,-1008.750000,29.225000
619,-1005.000000,29.950001
620,-1010.000000,29.924999
621,-1008.750000,29.275000
622,-1012.500000,29.700001
623,-1013.750000,30.000000
624,-1011.250000,29.525000
625,-1013.750000,30.400000
626,-1012.500000,30.575001
627,-1017.500000,30.000000
628,-1016.250000,30.225000
629,-1016.250000,30.225000
630,-1020.000000,29.924999
631,-1017.500000,30.475000
632,-1022.500000,30.450001
633,-1023.750000,30.250000
634,-1021.250000,30.549999
635,-1022.500000,30.700001
636,-1022.500000,30.400000
637,-1025.000000,30.650000
638,-1027.500000,30.750000
639,-1023.750000,30.250000
640,-1028.750000,30.674999
641,-1028.750000,30.424999
642,-1031.250000,30.350000
643,-1032.500000,30.625000
644,-1033.750000,30.375000
645,-1032.500000,30.100000
646,-1037.500000,30.525000
647,-1036.250000,30.075001
648,-1036.250000,30.174999
649,-1035.000000,30.450001
650,-1035.000000,29.625000
651,-1038.750000,29.549999
652,-1040.000000,29.924999
653,-1037.500000,29.700001
654,-1041.250000,29.725000
655,-1040.000000,29.775000
656,-1042.500000,29.525000
657,-1045.000000,29.725000
658,-1045.000000,29.825001
659,-1050.000000,29.674999
660,-1043.750000,29.674999
661,-1052.500000,30.049999
662,-1048.750000,29.650000
663,-1050.000000,30.049999
664,-1052.500000,30.350000
665,-1047.500000,29.750000
666,-1055.000000,29.875000
667,-1053.750000,29.775000
668,-1053.750000,29.500000
669,-1056.250000,29.924999
670,-1056.250000,30.075001
671,-1060.000000,30.000000
672,-1058.750000,29.950001
673,-1060.000000,29.924999
674,-1063.750000,29.525000
675,-1060.000000,30.200001
676,-1067.500000,30.049999
677,-1062.500000,29.775000
678,-1062.500000,30.350000
679,-1065.000000,30.225000
680,-1067.500000,29.500000
681,-1070.000000,29.950001
682,-1068.750000,29.625000
683,-1070.000000,29.424999
684,-1068.750000,29.650000
685,-1071.250000,29.625000
686,-1076.250000,29.424999
687,-1071.250000,29.600000
688,-1073.750000,29.549999
689,-1076.250000,29.075001
690,-1075.000000,29.450001
691,-1075.000000,29.424999
692,-1077.500000,29.549999
693,-1082.500000,29.725000
694,-1077.500000,29.549999
695,-1078.750000,29.600000
696,-1081.250000,30.100000
697,-1077.500000,30.174999
698,-1083.750000,30.000000
699,-1086.250000,30.225000
700,-1086.250000,30.049999
701,-1087.500000,29.975000
702,-1086.250000,30.424999
703,-1091.250000,30.174999
704,-1087.500000,30.100000
705,-1088.750000,30.549999
706,-1091.250000,30.000000
707,-1090.000000,29.725000
708,-1092.500000,30.525000
709,-1092.500000,29.750000
710,-1098.750000,29.725000
711,-1097.500000,29.975000
712,-1097.500000,29.775000
713,-1101.250000,30.025000
714,-1098.750000,30.125000
715,-1100.000000,30.049999
716,-1102.500000,29.525000
717,-1098.750000,30.000000
718,-1105.000000,29.575001
719,-1101.250000,30.025000
720,-1105.000000,30.025000
721,-1106.250000,29.775000
722,-1106.250000,30.000000
723,-1108.750000,30.100000
724,-1106.250000,29.674999
725,-1112.500000,30.375000
726,-1112.500000,30.375000
727,-1108.750000,29.975000
728,-1115.000000,30.325001
729,-1111.250000,30.125000
730,-1113.750000,30.275000
731,-1116.250000,30.200001
732,-1113.750000,30.400000
733,-1118.750000,29.475000
734,-1118.750000,29.775000
735,-1121.250000,30.075001
736,-1123.750000,29.525000
737,-1117.500000,29.625000
738,-1126.250000,30.100000
739,-1123.750000,29.750000
740,-1122.500000,29.825001
741,-1130.000000,29.725000
742,-1127.500000,29.250000
743,-1128.750000,29.500000
744,-1126.250000,29.900000
745,-1128.750000,29.700001
746,-1131.250000,30.025000
747,-1127.500000,30.250000
748,-1131.250000,29.924999
749,-1131.250000,30.049999
750,-1132.500000,30.600000
751,-1136.250000,30.250000
752,-1136.250000,30.125000
753,-1140.000000,30.174999
754,-1135.000000,29.475000
755,-1137.500000,29.500000
756,-1140.000000,29.900000
