光泵磁共振/origindata/20000101_015908.csv

Channel              :,CH1,CH2
Frequency            :,9.947Hz,9.940Hz
Period               :,0.101s,0.101s
PK-PK                :,557.5mV,282.8mV
Probe attenuation    :,1X,1X
Voltage per ADC value:,0.500000mV,0.125000mV
Time interval        :,40.00000uS,40.00000uS

index,CH1_Voltage(mV),CH2_Voltage(mV)
1,-121.500000,8.375000
2,-121.500000,8.375000
3,-121.500000,9.500000
4,-122.000000,11.000000
5,-123.000000,12.000000
6,-119.500000,12.625000
7,-118.500000,13.500000
8,-114.000000,14.625000
9,-109.500000,15.000000
10,-110.000000,15.875000
11,-107.500000,16.750000
12,-105.000000,17.500000
13,-104.000000,18.500000
14,-104.500000,19.500000
15,-104.500000,20.250000
16,-103.500000,21.000000
17,-99.000000,22.125000
18,-95.000000,22.625000
19,-91.500000,23.375000
20,-91.000000,24.000000
21,-89.500000,24.750000
22,-90.000000,25.500000
23,-89.000000,26.625000
24,-88.500000,27.250000
25,-90.500000,27.875000
26,-86.000000,28.500000
27,-80.500000,28.750000
28,-76.500000,29.375000
29,-76.000000,30.250000
30,-75.000000,31.875000
31,-76.000000,32.000000
32,-75.000000,32.875000
33,-73.500000,33.625000
34,-72.500000,34.250000
35,-69.000000,34.375000
36,-68.000000,35.375000
37,-62.000000,35.875000
38,-60.500000,36.375000
39,-59.500000,37.500000
40,-62.000000,38.500000
41,-62.500000,39.000000
42,-60.000000,39.250000
43,-59.000000,39.750000
44,-54.500000,40.500000
45,-52.000000,40.625000
46,-51.000000,41.875000
47,-49.000000,41.625000
48,-47.000000,42.625000
49,-46.000000,43.375000
50,-48.500000,43.875000
51,-47.500000,44.625000
52,-47.000000,44.750000
53,-41.500000,45.250000
54,-39.000000,45.875000
55,-39.000000,46.500000
56,-36.500000,47.000000
57,-37.500000,47.500000
58,-38.500000,48.500000
59,-37.000000,49.000000
60,-35.500000,49.875000
61,-35.000000,50.250000
62,-31.000000,50.875000
63,-28.500000,51.375000
64,-26.500000,51.875000
65,-27.000000,52.750000
66,-28.000000,53.750000
67,-26.500000,53.875000
68,-26.500000,53.750000
69,-27.000000,54.250000
70,-23.500000,55.125000
71,-23.000000,55.875000
72,-19.000000,56.375000
73,-17.000000,56.750000
74,-16.500000,57.375000
75,-17.000000,57.625000
76,-20.500000,58.000000
77,-18.000000,58.000000
78,-16.000000,58.625000
79,-12.500000,59.125000
80,-11.000000,59.625000
81,-10.500000,60.125000
82,-8.500000,60.500000
83,-9.000000,61.125000
84,-9.000000,61.125000
85,-9.500000,61.750000
86,-9.500000,62.250000
87,-6.500000,62.625000
88,-4.000000,63.500000
89,-3.000000,64.000000
90,-3.000000,64.000000
91,-3.500000,64.250000
92,-4.500000,64.875000
93,-2.000000,65.250000
94,-3.000000,65.375000
95,0.000000,66.125000
96,0.500000,66.625000
97,3.000000,66.375000
98,6.500000,66.875000
99,4.000000,67.250000
100,3.500000,67.500000
101,1.500000,68.000000
102,2.500000,68.125000
103,7.000000,68.625000
104,9.000000,69.250000
105,12.000000,70.000000
106,9.500000,70.500000
107,9.500000,70.500000
108,9.000000,71.500000
109,7.000000,71.875000
110,8.000000,72.125000
111,11.500000,72.500000
112,14.500000,72.875000
113,14.500000,73.250000
114,15.500000,73.500000
115,13.500000,74.250000
116,13.000000,74.750000
117,12.000000,74.875000
118,12.500000,74.625000
119,16.500000,75.250000
120,18.000000,76.125000
121,18.500000,76.125000
122,16.500000,76.500000
123,17.000000,76.750000
124,15.500000,77.625000
125,17.000000,78.250000
126,17.000000,78.125000
127,21.500000,78.500000
128,23.000000,78.500000
129,22.500000,78.625000
130,19.500000,79.250000
131,18.000000,79.750000
132,19.000000,80.250000
133,22.000000,80.000000
134,23.500000,80.375000
135,25.500000,80.750000
136,25.000000,81.125000
137,25.000000,81.250000
138,20.500000,81.500000
139,24.500000,82.250000
140,26.000000,82.625000
141,26.500000,83.000000
142,27.500000,82.875000
143,29.000000,83.125000
144,25.500000,83.250000
145,23.500000,83.750000
146,22.500000,84.125000
147,25.500000,85.000000
148,28.000000,85.000000
149,31.000000,85.000000
150,30.000000,85.375000
151,29.000000,86.125000
152,25.000000,85.500000
153,25.500000,86.500000
154,29.000000,86.875000
155,31.500000,87.625000
156,31.000000,87.375000
157,31.500000,87.625000
158,30.500000,87.750000
159,29.500000,88.000000
160,27.500000,88.500000
161,27.500000,89.000000
162,30.000000,88.875000
163,32.500000,89.375000
164,32.500000,90.125000
165,34.000000,90.500000
166,29.000000,90.500000
167,30.000000,90.500000
168,31.000000,90.625000
169,31.500000,90.750000
170,33.000000,91.500000
171,35.500000,92.250000
172,34.500000,92.125000
173,33.000000,92.625000
174,31.500000,93.000000
175,32.000000,93.000000
176,31.000000,93.750000
177,31.500000,93.500000
178,33.500000,93.875000
179,36.500000,94.250000
180,34.000000,94.750000
181,33.500000,94.375000
182,29.500000,94.375000
183,32.500000,94.750000
184,35.000000,94.875000
185,32.500000,95.375000
186,34.000000,95.625000
187,36.000000,96.000000
188,34.500000,96.250000
189,34.500000,96.125000
190,31.500000,96.375000
191,31.500000,96.375000
192,34.000000,97.000000
193,36.000000,97.250000
194,38.500000,97.750000
195,36.000000,97.750000
196,33.500000,98.000000
197,33.000000,98.125000
198,33.000000,98.375000
199,34.500000,98.625000
200,33.000000,99.250000
201,37.500000,99.750000
202,36.500000,99.750000
203,37.500000,100.250000
204,34.500000,100.750000
205,32.000000,100.625000
206,33.000000,101.000000
207,34.000000,100.500000
208,36.000000,100.750000
209,37.000000,101.375000
210,36.000000,101.250000
211,34.000000,101.500000
212,32.000000,101.875000
213,33.000000,102.375000
214,33.000000,102.250000
215,35.000000,102.750000
216,36.500000,102.875000
217,39.000000,103.000000
218,36.500000,103.250000
219,33.000000,103.500000
220,30.500000,103.750000
221,31.000000,103.750000
222,35.500000,104.000000
223,36.500000,104.250000
224,37.000000,104.250000
225,35.500000,104.750000
226,35.000000,104.500000
227,33.500000,104.750000
228,31.500000,105.000000
229,33.000000,105.500000
230,35.000000,105.625000
231,36.000000,105.125000
232,36.000000,105.125000
233,36.000000,105.500000
234,35.000000,106.375000
235,30.000000,106.250000
236,31.500000,106.250000
237,33.500000,106.750000
238,34.500000,107.250000
239,36.500000,106.875000
240,35.000000,107.125000
241,32.000000,107.500000
242,33.500000,107.875000
243,29.000000,108.125000
244,32.500000,107.750000
245,34.500000,108.250000
246,35.500000,108.500000
247,36.500000,108.875000
248,33.000000,108.500000
249,31.500000,109.125000
250,30.000000,108.750000
251,32.500000,109.125000
252,33.000000,109.250000
253,35.500000,109.500000
254,36.000000,110.000000
255,34.000000,109.875000
256,32.500000,110.125000
257,30.500000,110.250000
258,31.000000,110.750000
259,30.000000,110.500000
260,34.000000,110.375000
261,35.000000,111.000000
262,34.500000,111.125000
263,33.500000,111.500000
264,32.500000,111.375000
265,29.000000,111.750000
266,31.500000,111.250000
267,31.500000,111.750000
268,34.000000,112.000000
269,34.500000,112.375000
270,32.500000,112.500000
271,32.000000,112.625000
272,29.000000,112.875000
273,28.000000,112.875000
274,31.500000,112.500000
275,33.500000,113.000000
276,35.500000,113.125000
277,33.500000,113.250000
278,32.500000,113.500000
279,30.500000,113.750000
280,30.500000,114.125000
281,30.000000,114.250000
282,32.500000,114.625000
283,33.500000,114.750000
284,34.000000,114.375000
285,31.500000,114.750000
286,33.000000,114.625000
287,31.000000,115.375000
288,28.500000,115.125000
289,30.500000,115.250000
290,33.000000,115.125000
291,34.000000,115.375000
292,32.500000,115.375000
293,33.000000,115.625000
294,31.000000,115.625000
295,31.000000,116.375000
296,29.500000,116.250000
297,32.000000,116.375000
298,32.500000,116.125000
299,33.000000,116.125000
300,32.500000,116.125000
301,30.500000,116.375000
302,29.000000,116.375000
303,28.500000,116.375000
304,29.500000,116.750000
305,33.500000,117.125000
306,34.000000,117.500000
307,31.500000,117.500000
308,29.500000,117.625000
309,29.000000,117.625000
310,27.500000,117.500000
311,30.000000,117.375000
312,31.500000,118.000000
313,34.500000,118.125000
314,32.500000,118.125000
315,30.000000,118.500000
316,29.000000,118.500000
317,29.000000,118.750000
318,29.500000,118.250000
319,33.000000,118.500000
320,33.000000,118.625000
321,32.000000,119.000000
322,29.500000,118.875000
323,30.000000,119.000000
324,28.000000,119.250000
325,29.000000,119.500000
326,29.500000,119.125000
327,31.000000,119.500000
328,34.000000,119.625000
329,29.500000,119.750000
330,27.000000,120.125000
331,28.000000,119.875000
332,27.500000,120.125000
333,28.000000,120.000000
334,32.500000,120.625000
335,30.500000,120.125000
336,32.000000,120.250000
337,27.500000,120.375000
338,28.500000,120.500000
339,28.000000,121.125000
340,29.000000,120.875000
341,31.500000,120.625000
342,33.000000,120.500000
343,31.000000,120.875000
344,28.500000,120.875000
345,26.500000,120.750000
346,26.000000,121.250000
347,27.000000,121.375000
348,31.000000,121.375000
349,31.000000,121.750000
350,29.000000,121.500000
351,30.500000,121.500000
352,27.000000,121.125000
353,29.000000,121.500000
354,27.500000,122.125000
355,28.500000,121.875000
356,28.000000,122.000000
357,30.000000,122.750000
358,30.500000,122.500000
359,28.500000,122.625000
360,26.000000,122.625000
361,27.000000,122.750000
362,28.000000,122.750000
363,30.500000,122.750000
364,29.000000,123.125000
365,28.500000,123.625000
366,29.500000,123.375000
367,30.000000,123.625000
368,25.500000,123.000000
369,25.500000,123.125000
370,27.500000,123.750000
371,29.000000,124.000000
372,31.500000,124.000000
373,28.000000,124.625000
374,28.500000,124.000000
375,25.500000,124.375000
376,24.000000,124.250000
377,25.500000,123.875000
378,26.500000,123.875000
379,27.500000,124.125000
380,29.000000,124.625000
381,30.500000,125.125000
382,28.000000,124.375000
383,26.000000,125.125000
384,24.500000,124.500000
385,26.000000,125.125000
386,27.000000,124.750000
387,28.000000,125.000000
388,29.500000,125.125000
389,28.500000,125.625000
390,26.500000,126.000000
391,28.000000,125.500000
392,25.500000,125.375000
393,24.500000,125.625000
394,25.500000,125.875000
395,26.000000,126.125000
396,28.500000,126.000000
397,29.500000,126.375000
398,28.000000,126.000000
399,27.000000,126.125000
400,26.000000,126.250000
401,25.500000,126.250000
402,25.000000,126.250000
403,27.500000,126.375000
404,30.500000,126.375000
405,30.500000,126.750000
406,28.500000,126.625000
407,27.000000,127.250000
408,26.000000,126.875000
409,24.500000,126.750000
410,23.500000,126.750000
411,27.500000,126.875000
412,29.500000,127.500000
413,28.500000,127.125000
414,27.500000,126.875000
415,24.500000,127.000000
416,23.500000,127.125000
417,25.000000,127.500000
418,26.000000,127.375000
419,27.500000,127.125000
420,28.000000,127.250000
421,30.000000,127.625000
422,27.000000,127.625000
423,26.000000,127.500000
424,26.000000,127.875000
425,24.500000,127.750000
426,27.000000,128.000000
427,25.500000,128.000000
428,30.000000,128.250000
429,30.000000,128.375000
430,28.000000,128.250000
431,25.000000,128.250000
432,23.000000,128.250000
433,25.500000,128.125000
434,25.000000,127.625000
435,29.000000,127.625000
436,30.000000,127.875000
437,28.500000,128.250000
438,28.000000,128.375000
439,24.000000,128.250000
440,24.000000,128.375000
441,24.500000,128.500000
442,27.000000,128.000000
443,27.500000,127.875000
444,29.000000,128.500000
445,27.000000,128.500000
446,26.000000,128.500000
447,24.500000,128.500000
448,24.500000,128.875000
449,24.500000,128.750000
450,27.500000,128.750000
451,28.500000,128.875000
452,27.500000,129.500000
453,26.500000,129.375000
454,26.000000,129.000000
455,26.000000,129.625000
456,26.000000,129.125000
457,27.000000,129.000000
458,28.500000,129.625000
459,28.500000,129.750000
460,28.000000,129.000000
461,25.500000,129.000000
462,23.500000,129.375000
463,25.500000,129.375000
464,24.500000,129.250000
465,25.500000,129.500000
466,28.000000,129.500000
467,29.500000,129.250000
468,31.500000,129.750000
469,26.000000,129.750000
470,24.500000,129.750000
471,25.500000,129.750000
472,24.500000,129.500000
473,27.500000,129.375000
474,29.000000,129.625000
475,29.500000,129.750000
476,27.500000,129.875000
477,25.000000,129.875000
478,24.500000,130.250000
479,23.500000,129.625000
480,26.500000,129.750000
481,27.000000,129.625000
482,29.000000,130.250000
483,27.500000,130.125000
484,27.000000,130.250000
485,24.500000,130.000000
486,23.000000,130.125000
487,25.000000,130.625000
488,27.500000,130.750000
489,28.000000,130.625000
490,29.500000,130.375000
491,29.000000,130.500000
492,26.500000,130.000000
493,24.000000,130.500000
494,24.500000,130.625000
495,25.000000,130.625000
496,28.000000,130.750000
497,28.000000,130.500000
498,27.000000,130.875000
499,28.500000,130.875000
500,24.500000,131.125000
501,26.000000,131.250000
502,25.000000,131.125000
503,28.000000,131.250000
504,27.000000,131.000000
505,28.500000,131.000000
506,28.500000,131.000000
507,28.000000,131.125000
508,26.500000,131.000000
509,24.500000,130.750000
510,25.000000,131.125000
511,27.000000,131.250000
512,28.500000,131.375000
513,28.500000,130.875000
514,29.000000,131.125000
515,26.500000,131.250000
516,24.000000,131.000000
517,23.000000,131.750000
518,25.500000,131.875000
519,29.000000,132.250000
520,29.000000,132.125000
521,30.000000,131.625000
522,28.500000,131.625000
523,27.500000,131.625000
524,25.500000,131.875000
525,23.500000,131.875000
526,26.000000,131.375000
527,28.000000,131.625000
528,29.500000,131.875000
529,28.000000,131.625000
530,26.000000,131.750000
531,23.500000,132.125000
532,24.500000,131.625000
533,24.500000,131.500000
534,26.000000,131.250000
535,29.500000,131.875000
536,29.500000,132.125000
537,27.000000,131.750000
538,26.500000,132.125000
539,25.000000,131.875000
540,25.000000,131.500000
541,26.500000,131.875000
542,28.000000,131.500000
543,29.000000,132.125000
544,29.500000,132.625000
545,28.000000,132.750000
546,25.500000,132.375000
547,23.000000,132.250000
548,25.000000,132.250000
549,27.500000,132.125000
550,29.500000,132.000000
551,29.500000,132.375000
552,29.500000,132.625000
553,26.500000,133.125000
554,24.000000,132.875000
555,22.500000,132.875000
556,26.000000,132.875000
557,26.500000,132.750000
558,29.000000,132.750000
559,28.000000,133.000000
560,27.000000,133.000000
561,25.500000,133.250000
562,26.000000,133.125000
563,26.500000,132.625000
564,26.500000,132.875000
565,28.000000,132.500000
566,28.000000,132.500000
567,29.500000,132.500000
568,29.000000,132.750000
569,26.500000,133.125000
570,25.500000,133.000000
571,25.500000,133.125000
572,24.500000,132.875000
573,27.500000,132.500000
574,28.000000,132.875000
575,30.500000,132.625000
576,29.000000,132.875000
577,27.000000,133.125000
578,26.500000,133.125000
579,24.500000,133.250000
580,25.000000,133.000000
581,25.500000,133.000000
582,30.000000,132.125000
583,32.000000,132.375000
584,29.000000,132.125000
585,27.500000,132.500000
586,27.500000,133.250000
587,25.000000,133.125000
588,26.000000,132.875000
589,28.500000,132.625000
590,29.500000,132.625000
591,31.500000,132.125000
592,28.000000,131.875000
593,27.500000,131.875000
594,24.500000,132.375000
595,25.000000,132.875000
596,25.500000,132.125000
597,27.000000,132.875000
598,29.500000,132.375000
599,31.000000,132.250000
600,28.500000,132.000000
601,26.000000,132.375000
602,25.000000,132.500000
603,24.000000,132.250000
604,28.500000,132.375000
605,30.000000,132.125000
606,30.500000,133.250000
607,29.500000,132.375000
608,28.500000,132.250000
609,25.000000,132.375000
610,25.000000,132.625000
611,26.000000,132.375000
612,29.000000,132.625000
613,31.500000,133.375000
614,30.500000,133.500000
615,28.500000,133.375000
616,26.500000,133.500000
617,26.000000,133.250000
618,27.000000,133.250000
619,27.500000,133.125000
620,30.500000,133.375000
621,32.000000,134.000000
622,32.000000,133.500000
623,27.000000,133.750000
624,27.000000,133.750000
625,25.000000,133.750000
626,27.000000,133.875000
627,29.500000,133.500000
628,30.000000,133.375000
629,29.000000,133.500000
630,28.500000,134.000000
631,26.000000,133.750000
632,26.000000,133.750000
633,25.500000,133.250000
634,29.000000,133.000000
635,30.500000,132.875000
636,29.000000,132.375000
637,21.000000,133.625000
638,28.000000,132.750000
639,24.500000,133.125000
640,26.000000,132.750000
641,29.000000,133.125000
642,31.000000,132.750000
643,31.500000,132.500000
644,28.500000,132.750000
645,27.500000,133.375000
646,26.500000,133.625000
647,26.500000,132.750000
648,30.500000,132.875000
649,31.000000,132.750000
650,30.000000,132.625000
651,30.500000,133.000000
652,26.500000,133.000000
653,25.500000,133.125000
654,25.000000,133.375000
655,27.500000,133.250000
656,31.000000,133.125000
657,33.500000,133.125000
658,31.500000,133.000000
659,27.500000,133.125000
660,24.500000,133.250000
661,26.500000,133.500000
662,27.000000,133.250000
663,30.500000,133.250000
664,30.500000,133.250000
665,30.000000,133.000000
666,29.500000,133.375000
667,26.500000,133.375000
668,25.500000,133.375000
669,27.500000,133.125000
670,30.500000,133.500000
671,30.500000,133.750000
672,32.500000,133.250000
673,30.000000,133.375000
674,27.500000,133.250000
675,26.500000,133.375000
676,28.000000,133.500000
677,27.000000,133.000000
678,32.000000,133.125000
679,32.000000,133.375000
680,30.500000,133.375000
681,28.000000,133.250000
682,26.000000,133.375000
683,26.000000,133.375000
684,26.500000,133.125000
685,29.000000,133.625000
686,31.000000,133.125000
687,31.000000,133.625000
688,30.500000,133.625000
689,29.500000,133.625000
690,26.500000,133.000000
691,27.000000,133.250000
692,28.500000,133.000000
693,31.500000,133.000000
694,32.000000,133.375000
695,31.000000,133.250000
696,30.500000,133.125000
697,25.500000,133.625000
698,27.000000,133.500000
699,26.500000,133.000000
700,30.000000,133.250000
701,32.500000,133.500000
702,31.000000,133.000000
703,30.500000,133.750000
704,28.500000,133.625000
705,26.500000,133.500000
706,27.000000,133.750000
707,30.000000,133.375000
708,29.500000,132.625000
709,31.500000,132.625000
710,31.500000,132.875000
711,29.000000,133.125000
712,27.500000,133.000000
713,26.000000,133.250000
714,28.000000,133.125000
715,31.000000,133.000000
716,31.000000,133.000000
717,29.500000,133.250000
718,30.500000,132.625000
719,27.000000,133.375000
720,25.000000,133.250000
721,28.000000,133.125000
722,29.500000,132.875000
723,33.500000,133.250000
724,30.500000,132.750000
725,30.000000,133.000000
726,27.000000,132.500000
727,26.500000,133.125000
728,26.500000,133.125000
729,28.500000,132.875000
730,31.500000,133.250000
731,31.000000,133.250000
732,30.000000,133.000000
733,29.500000,133.375000
734,27.500000,133.375000
735,27.500000,133.750000
736,27.000000,133.625000
737,30.000000,134.000000
738,31.000000,133.750000
739,34.500000,133.625000
740,31.000000,133.750000
741,29.000000,133.375000
742,27.000000,133.250000
743,26.000000,133.625000
744,30.500000,133.750000
745,31.000000,133.250000
746,32.500000,133.000000
747,29.500000,133.125000
748,30.000000,133.500000
749,29.500000,133.250000
750,28.500000,133.250000
751,27.500000,133.250000
752,30.500000,132.875000
753,32.500000,133.125000
754,31.000000,133.500000
755,27.000000,133.000000
756,28.500000,132.750000
757,30.500000,133.125000
758,27.500000,133.125000
759,31.000000,133.625000
760,30.000000,132.875000
761,31.000000,133.250000
762,29.000000,133.250000
763,29.500000,133.250000
764,28.000000,133.375000
765,29.500000,133.250000
766,29.500000,133.250000
767,33.000000,133.000000
768,32.000000,133.500000
769,30.000000,133.250000
770,29.500000,133.250000
771,27.500000,132.875000
772,28.500000,133.125000
773,29.000000,133.250000
774,31.000000,133.000000
775,32.000000,133.125000
776,31.000000,133.625000
777,30.000000,133.625000
778,28.000000,133.750000
779,27.000000,133.750000
780,27.500000,133.500000
781,29.000000,133.000000
782,30.500000,132.625000
783,32.500000,133.250000
784,29.500000,133.125000
785,29.000000,133.250000
786,28.500000,133.375000
787,28.000000,133.625000
788,30.000000,133.750000
789,32.000000,133.500000
790,31.000000,133.625000
791,30.500000,133.875000
792,28.500000,133.250000
793,25.500000,133.125000
794,26.000000,133.250000
795,29.000000,133.125000
796,32.000000,133.250000
797,34.000000,133.125000
