非线性物理/数据处理/part2/20000101_032018.csv

Channel              :,CH1,CH2
Frequency            :,299.4Hz,299.4Hz
Period               :,3.340ms,3.340ms
PK-PK                :,10.98V,644.5mV
Average              :,-258.6mV,18.64mV
Vertical pos         :,360.000000mV,0.000000mV
Probe attenuation    :,1X,1X
Voltage per ADC value:,5.000000mV,0.250000mV
Time interval        :,2.00000uS,2.00000uS

index,CH1_Voltage(mV),CH2_Voltage(mV)
1,0.000000,0.000000
2,-2490.000000,192.000000
3,-2480.000000,185.500000
4,-2445.000000,192.000000
5,-2435.000000,192.500000
6,-2415.000000,177.000000
7,-2395.000000,179.000000
8,-2380.000000,183.000000
9,-2345.000000,184.500000
10,-2350.000000,184.000000
11,-2345.000000,178.000000
12,-2315.000000,170.000000
13,-2260.000000,169.000000
14,-2265.000000,174.000000
15,-2265.000000,175.000000
16,-2225.000000,178.500000
17,-2230.000000,173.500000
18,-2195.000000,175.500000
19,-2175.000000,183.500000
20,-2175.000000,170.500000
21,-2150.000000,178.500000
22,-2120.000000,174.000000
23,-2120.000000,171.500000
24,-2090.000000,169.500000
25,-2055.000000,171.000000
26,-2090.000000,178.000000
27,-2030.000000,170.000000
28,-2040.000000,168.500000
29,-2010.000000,165.000000
30,-2010.000000,169.500000
31,-1970.000000,182.500000
32,-1955.000000,163.500000
33,-1935.000000,166.500000
34,-1945.000000,164.000000
35,-1900.000000,173.000000
36,-1895.000000,160.000000
37,-1870.000000,166.500000
38,-1855.000000,166.500000
39,-1800.000000,148.000000
40,-1805.000000,164.000000
41,-1795.000000,161.000000
42,-1770.000000,155.000000
43,-1750.000000,162.500000
44,-1745.000000,152.500000
45,-1705.000000,161.500000
46,-1705.000000,157.500000
47,-1675.000000,152.000000
48,-1640.000000,157.500000
49,-1630.000000,156.500000
50,-1620.000000,153.500000
51,-1605.000000,156.500000
52,-1570.000000,159.000000
53,-1570.000000,152.500000
54,-1540.000000,150.500000
55,-1515.000000,148.000000
56,-1515.000000,148.000000
57,-1470.000000,144.500000
58,-1450.000000,151.500000
59,-1430.000000,155.500000
60,-1410.000000,146.000000
61,-1425.000000,146.500000
62,-1385.000000,145.000000
63,-1360.000000,156.500000
64,-1355.000000,147.000000
65,-1320.000000,138.500000
66,-1335.000000,133.000000
67,-1290.000000,136.500000
68,-1280.000000,139.000000
69,-1245.000000,125.000000
70,-1220.000000,138.500000
71,-1250.000000,135.500000
72,-1215.000000,126.500000
73,-1210.000000,130.500000
74,-1170.000000,128.000000
75,-1145.000000,125.000000
76,-1130.000000,128.500000
77,-1110.000000,125.500000
78,-1090.000000,114.000000
79,-1060.000000,121.500000
80,-1050.000000,119.000000
81,-1025.000000,106.500000
82,-995.000000,112.000000
83,-985.000000,116.000000
84,-965.000000,98.000000
85,-930.000000,109.000000
86,-935.000000,110.000000
87,-905.000000,91.000000
88,-895.000000,107.500000
89,-870.000000,96.500000
90,-835.000000,88.000000
91,-810.000000,104.000000
92,-790.000000,99.500000
93,-755.000000,90.500000
94,-750.000000,104.500000
95,-730.000000,90.500000
96,-695.000000,92.000000
97,-665.000000,99.000000
98,-650.000000,89.000000
99,-640.000000,81.000000
100,-595.000000,80.500000
101,-625.000000,82.500000
102,-550.000000,70.500000
103,-550.000000,87.500000
104,-535.000000,75.500000
105,-500.000000,81.500000
106,-490.000000,83.000000
107,-475.000000,75.000000
108,-445.000000,72.000000
109,-405.000000,77.500000
110,-390.000000,74.500000
111,-355.000000,63.500000
112,-350.000000,71.500000
113,-345.000000,63.000000
114,-305.000000,60.000000
115,-275.000000,56.500000
116,-260.000000,69.500000
117,-245.000000,52.500000
118,-235.000000,56.500000
119,-195.000000,52.000000
120,-180.000000,54.000000
121,-145.000000,49.500000
122,-140.000000,44.500000
123,-105.000000,40.000000
124,-80.000000,45.000000
125,-75.000000,39.500000
126,-30.000000,30.500000
127,0.000000,41.500000
128,-20.000000,31.500000
129,30.000000,25.000000
130,45.000000,31.500000
131,65.000000,18.500000
132,95.000000,24.500000
133,120.000000,23.000000
134,125.000000,22.500000
135,160.000000,14.000000
136,185.000000,27.500000
137,195.000000,18.000000
138,225.000000,11.000000
139,250.000000,14.500000
140,250.000000,15.500000
141,290.000000,7.500000
142,305.000000,17.000000
143,330.000000,12.500000
144,340.000000,-3.500000
145,380.000000,11.000000
146,375.000000,6.500000
147,400.000000,1.000000
148,420.000000,6.000000
149,425.000000,-3.000000
150,455.000000,-8.000000
151,510.000000,1.500000
152,495.000000,-10.500000
153,515.000000,-11.000000
154,585.000000,-3.500000
155,570.000000,-4.000000
156,580.000000,-16.000000
157,620.000000,-4.000000
158,650.000000,-8.500000
159,655.000000,-12.000000
160,695.000000,-17.000000
161,705.000000,-17.500000
162,730.000000,-29.000000
163,760.000000,-19.000000
164,775.000000,-23.500000
165,800.000000,-33.500000
166,830.000000,-24.500000
167,850.000000,-27.500000
168,845.000000,-34.000000
169,880.000000,-33.500000
170,885.000000,-33.000000
171,945.000000,-35.000000
172,955.000000,-28.500000
173,995.000000,-43.000000
174,975.000000,-47.000000
175,1010.000000,-37.000000
176,1040.000000,-42.000000
177,1040.000000,-54.000000
178,1075.000000,-45.000000
179,1100.000000,-51.500000
180,1110.000000,-54.500000
181,1130.000000,-51.000000
182,1160.000000,-49.000000
183,1185.000000,-66.500000
184,1205.000000,-57.000000
185,1230.000000,-53.000000
186,1240.000000,-68.000000
187,1260.000000,-64.500000
188,1270.000000,-61.500000
189,1295.000000,-64.500000
190,1325.000000,-66.000000
191,1350.000000,-70.500000
192,1345.000000,-76.500000
193,1395.000000,-67.500000
194,1415.000000,-83.000000
195,1430.000000,-86.000000
196,1450.000000,-86.000000
197,1480.000000,-77.500000
198,1475.000000,-93.500000
199,1510.000000,-80.000000
200,1525.000000,-84.500000
201,1530.000000,-92.000000
202,1585.000000,-89.500000
203,1585.000000,-86.000000
204,1610.000000,-93.000000
205,1630.000000,-84.000000
206,1640.000000,-88.500000
207,1680.000000,-95.500000
208,1700.000000,-99.500000
209,1710.000000,-89.500000
210,1745.000000,-103.500000
211,1765.000000,-106.000000
212,1780.000000,-105.500000
213,1795.000000,-115.500000
214,1835.000000,-105.000000
215,1845.000000,-110.500000
216,1860.000000,-111.000000
217,1895.000000,-106.500000
218,1915.000000,-104.000000
219,1935.000000,-113.000000
220,1970.000000,-113.000000
221,1975.000000,-107.500000
222,1990.000000,-129.500000
223,2040.000000,-120.500000
224,2020.000000,-114.000000
225,2045.000000,-128.000000
226,2085.000000,-122.000000
227,2095.000000,-123.500000
228,2105.000000,-125.000000
229,2140.000000,-129.500000
230,2165.000000,-114.000000
231,2165.000000,-129.000000
232,2185.000000,-128.500000
233,2210.000000,-119.000000
234,2210.000000,-134.000000
235,2245.000000,-120.500000
236,2285.000000,-137.500000
237,2275.000000,-143.500000
238,2310.000000,-137.500000
239,2325.000000,-128.500000
240,2350.000000,-140.500000
241,2375.000000,-137.500000
242,2380.000000,-134.500000
243,2400.000000,-144.500000
244,2440.000000,-142.000000
245,2445.000000,-138.000000
246,2460.000000,-144.500000
247,2470.000000,-150.500000
248,2495.000000,-143.000000
249,2480.000000,-152.000000
250,2525.000000,-149.000000
251,2545.000000,-155.500000
252,2550.000000,-150.500000
253,2590.000000,-162.500000
254,2585.000000,-142.500000
255,2615.000000,-166.000000
256,2635.000000,-155.000000
257,2655.000000,-149.000000
258,2670.000000,-166.500000
259,2675.000000,-158.500000
260,2710.000000,-154.000000
261,2710.000000,-170.500000
262,2740.000000,-162.000000
263,2755.000000,-162.500000
264,2805.000000,-162.000000
265,2810.000000,-166.000000
266,2835.000000,-155.000000
267,2835.000000,-162.500000
268,2865.000000,-161.500000
269,2865.000000,-158.500000
270,2875.000000,-169.000000
271,2915.000000,-160.000000
272,2920.000000,-162.500000
273,2930.000000,-171.500000
274,2975.000000,-165.500000
275,2980.000000,-167.500000
276,2990.000000,-175.500000
277,3015.000000,-169.000000
278,3015.000000,-169.000000
279,3055.000000,-173.000000
280,3070.000000,-171.000000
281,3085.000000,-165.000000
282,3115.000000,-174.000000
283,3150.000000,-183.500000
284,3165.000000,-175.500000
285,3160.000000,-175.000000
286,3180.000000,-177.500000
287,3195.000000,-178.000000
288,3215.000000,-177.500000
289,3230.000000,-187.500000
290,3235.000000,-175.000000
291,3230.000000,-180.000000
292,3270.000000,-173.500000
293,3295.000000,-174.000000
294,3315.000000,-175.000000
295,3335.000000,-185.000000
296,3345.000000,-191.000000
297,3370.000000,-178.500000
298,3375.000000,-190.500000
299,3380.000000,-179.500000
300,3400.000000,-193.000000
301,3445.000000,-193.000000
302,3425.000000,-181.500000
303,3455.000000,-189.500000
304,3475.000000,-198.000000
305,3500.000000,-181.000000
306,3520.000000,-188.000000
307,3520.000000,-201.000000
308,3540.000000,-193.000000
309,3555.000000,-196.000000
310,3570.000000,-198.500000
311,3570.000000,-192.500000
312,3585.000000,-200.000000
313,3625.000000,-201.500000
314,3635.000000,-196.000000
315,3640.000000,-198.000000
316,3665.000000,-209.500000
317,3675.000000,-204.000000
318,3680.000000,-203.000000
319,3730.000000,-211.000000
320,3740.000000,-188.000000
321,3725.000000,-197.000000
322,3750.000000,-203.500000
323,3765.000000,-196.000000
324,3790.000000,-188.500000
325,3815.000000,-204.000000
326,3825.000000,-200.000000
327,3855.000000,-202.000000
328,3855.000000,-204.000000
329,3860.000000,-207.500000
330,3905.000000,-204.000000
331,3905.000000,-206.500000
332,3930.000000,-198.500000
333,3930.000000,-209.500000
334,3940.000000,-205.000000
335,3975.000000,-200.000000
336,3975.000000,-203.500000
337,3985.000000,-210.000000
338,4015.000000,-205.500000
339,4015.000000,-208.500000
340,4025.000000,-219.000000
341,4085.000000,-203.500000
342,4085.000000,-216.000000
343,4095.000000,-219.500000
344,4115.000000,-211.500000
345,4115.000000,-214.500000
346,4135.000000,-220.500000
347,4125.000000,-206.000000
348,4155.000000,-210.500000
349,4185.000000,-226.500000
350,4175.000000,-216.500000
351,4195.000000,-213.500000
352,4210.000000,-222.000000
353,4220.000000,-221.000000
354,4255.000000,-220.500000
355,4265.000000,-217.500000
356,4285.000000,-213.000000
357,4285.000000,-219.000000
358,4285.000000,-232.000000
359,4320.000000,-226.500000
360,4350.000000,-217.500000
361,4355.000000,-233.500000
362,4360.000000,-219.000000
363,4360.000000,-228.000000
364,4380.000000,-232.500000
365,4400.000000,-233.500000
366,4390.000000,-223.500000
367,4410.000000,-234.000000
368,4440.000000,-233.000000
369,4440.000000,-221.500000
370,4440.000000,-235.500000
371,4465.000000,-220.000000
372,4475.000000,-227.500000
373,4485.000000,-247.000000
374,4515.000000,-230.500000
375,4520.000000,-230.500000
376,4525.000000,-241.000000
377,4550.000000,-229.000000
378,4550.000000,-228.500000
379,4550.000000,-238.000000
380,4580.000000,-230.500000
381,4575.000000,-237.000000
382,4610.000000,-236.500000
383,4630.000000,-233.500000
384,4625.000000,-225.000000
385,4650.000000,-239.500000
386,4665.000000,-234.500000
387,4665.000000,-236.000000
388,4680.000000,-251.000000
389,4695.000000,-232.500000
390,4700.000000,-236.500000
391,4725.000000,-240.500000
392,4740.000000,-239.000000
393,4745.000000,-228.500000
394,4760.000000,-242.500000
395,4760.000000,-233.500000
396,4750.000000,-246.000000
397,4810.000000,-246.000000
398,4800.000000,-239.000000
399,4820.000000,-245.500000
400,4815.000000,-237.500000
401,4825.000000,-250.000000
402,4845.000000,-239.000000
403,4845.000000,-262.000000
404,4890.000000,-246.000000
405,4870.000000,-246.500000
406,4890.000000,-255.500000
407,4910.000000,-245.000000
408,4910.000000,-248.000000
409,4915.000000,-261.500000
410,4930.000000,-252.500000
411,4945.000000,-250.500000
412,4950.000000,-257.500000
413,4950.000000,-256.500000
414,4975.000000,-245.500000
415,4970.000000,-260.000000
416,4995.000000,-254.500000
417,5000.000000,-247.000000
418,5005.000000,-265.500000
419,5025.000000,-261.000000
420,5035.000000,-243.000000
421,5050.000000,-256.000000
422,5070.000000,-245.000000
423,5075.000000,-251.500000
424,5070.000000,-264.000000
425,5100.000000,-257.500000
426,5125.000000,-242.500000
427,5120.000000,-260.000000
428,5120.000000,-255.000000
429,5145.000000,-257.500000
430,5155.000000,-265.000000
431,5160.000000,-255.000000
432,5150.000000,-244.000000
433,5180.000000,-258.000000
434,5190.000000,-257.500000
435,5180.000000,-253.000000
436,5195.000000,-263.500000
437,5230.000000,-254.500000
438,5215.000000,-254.500000
439,5225.000000,-257.000000
440,5230.000000,-256.500000
441,5215.000000,-260.500000
442,5230.000000,-263.000000
443,5250.000000,-258.500000
444,5265.000000,-248.500000
445,5275.000000,-267.500000
446,5265.000000,-267.000000
447,5280.000000,-258.500000
448,5300.000000,-270.000000
449,5335.000000,-268.500000
450,5310.000000,-256.500000
451,5305.000000,-262.000000
452,5330.000000,-256.500000
453,5330.000000,-265.500000
454,5335.000000,-261.000000
455,5360.000000,-267.000000
456,5365.000000,-251.500000
457,5355.000000,-276.000000
458,5410.000000,-268.500000
459,5380.000000,-256.000000
460,5395.000000,-263.000000
461,5370.000000,-267.500000
462,5400.000000,-261.000000
463,5405.000000,-274.500000
464,5425.000000,-256.000000
465,5445.000000,-263.500000
466,5430.000000,-277.000000
467,5445.000000,-269.000000
468,5465.000000,-259.000000
469,5445.000000,-275.500000
470,5465.000000,-272.500000
471,5465.000000,-266.500000
472,5455.000000,-281.000000
473,5490.000000,-268.000000
474,5485.000000,-263.500000
475,5515.000000,-272.000000
476,5505.000000,-272.500000
477,5515.000000,-266.500000
478,5515.000000,-274.500000
479,5520.000000,-275.000000
480,5545.000000,-261.500000
481,5530.000000,-278.500000
482,5555.000000,-266.500000
483,5545.000000,-259.500000
484,5550.000000,-277.000000
485,5555.000000,-282.500000
486,5555.000000,-261.000000
487,5585.000000,-276.000000
488,5565.000000,-267.500000
489,5590.000000,-264.000000
490,5585.000000,-277.000000
491,5595.000000,-272.000000
492,5600.000000,-271.000000
493,5600.000000,-284.000000
494,5615.000000,-272.000000
495,5615.000000,-268.500000
496,5600.000000,-279.500000
497,5630.000000,-279.000000
498,5610.000000,-269.000000
499,5610.000000,-282.500000
500,5620.000000,-289.500000
501,5645.000000,-269.000000
502,5635.000000,-271.500000
503,5645.000000,-266.500000
504,5650.000000,-272.500000
505,5655.000000,-280.500000
506,5660.000000,-283.500000
507,5655.000000,-264.000000
508,5670.000000,-280.500000
509,5675.000000,-285.500000
510,5680.000000,-272.000000
511,5665.000000,-284.000000
512,5680.000000,-280.500000
513,5700.000000,-280.500000
514,5705.000000,-283.500000
515,5700.000000,-285.000000
516,5695.000000,-281.500000
517,5685.000000,-276.500000
518,5700.000000,-281.000000
519,5700.000000,-272.000000
520,5725.000000,-286.000000
521,5725.000000,-289.500000
522,5715.000000,-272.500000
523,5720.000000,-283.500000
524,5725.000000,-294.000000
525,5705.000000,-276.500000
526,5725.000000,-284.000000
527,5715.000000,-289.500000
528,5725.000000,-287.500000
529,5715.000000,-294.500000
530,5730.000000,-291.000000
531,5735.000000,-287.500000
532,5740.000000,-288.000000
533,5740.000000,-300.000000
534,5725.000000,-282.500000
535,5725.000000,-290.500000
536,5735.000000,-295.500000
537,5740.000000,-283.500000
538,5745.000000,-282.000000
539,5715.000000,-286.000000
540,5755.000000,-272.000000
541,5745.000000,-285.500000
542,5755.000000,-284.000000
543,5745.000000,-278.000000
544,5765.000000,-290.000000
545,5765.000000,-289.000000
546,5760.000000,-275.000000
547,5755.000000,-283.000000
548,5760.000000,-295.000000
549,5745.000000,-271.000000
550,5755.000000,-282.500000
551,5780.000000,-297.000000
552,5760.000000,-275.500000
553,5765.000000,-283.000000
554,5770.000000,-285.000000
555,5795.000000,-273.500000
556,5770.000000,-293.500000
557,5785.000000,-280.500000
558,5800.000000,-274.000000
559,5775.000000,-281.500000
560,5775.000000,-282.000000
561,5770.000000,-276.500000
562,5785.000000,-272.000000
563,5770.000000,-279.500000
564,5765.000000,-273.000000
565,5770.000000,-278.000000
566,5790.000000,-292.500000
567,5785.000000,-280.000000
568,5775.000000,-273.500000
569,5765.000000,-298.000000
570,5780.000000,-274.500000
571,5785.000000,-287.000000
572,5790.000000,-286.500000
573,5770.000000,-270.000000
574,5760.000000,-282.500000
575,5745.000000,-282.500000
576,5750.000000,-272.000000
577,5745.000000,-293.500000
578,5770.000000,-292.500000
579,5755.000000,-284.500000
580,5745.000000,-289.500000
581,5740.000000,-294.000000
582,5730.000000,-285.500000
583,5755.000000,-292.500000
584,5755.000000,-295.000000
585,5765.000000,-289.000000
586,5745.000000,-287.500000
587,5745.000000,-299.500000
588,5725.000000,-276.000000
589,5730.000000,-293.500000
590,5740.000000,-296.500000
591,5745.000000,-280.500000
592,5735.000000,-283.500000
593,5730.000000,-294.000000
594,5740.000000,-285.500000
595,5720.000000,-288.500000
596,5720.000000,-299.000000
597,5720.000000,-275.000000
598,5720.000000,-289.500000
599,5705.000000,-286.000000
600,5720.000000,-279.000000
601,5690.000000,-294.000000
602,5690.000000,-280.000000
603,5710.000000,-275.000000
604,5680.000000,-291.500000
605,5700.000000,-287.500000
606,5695.000000,-278.500000
607,5685.000000,-278.500000
608,5675.000000,-291.000000
609,5685.000000,-278.500000
610,5680.000000,-283.000000
611,5660.000000,-287.500000
612,5675.000000,-272.000000
613,5675.000000,-271.500000
614,5675.000000,-286.500000
615,5690.000000,-283.000000
616,5645.000000,-280.000000
617,5640.000000,-284.000000
618,5635.000000,-275.000000
619,5635.000000,-283.500000
620,5650.000000,-287.500000
621,5630.000000,-276.500000
622,5640.000000,-276.500000
623,5640.000000,-272.500000
624,5625.000000,-270.500000
625,5620.000000,-287.000000
626,5600.000000,-286.000000
627,5610.000000,-280.000000
628,5610.000000,-280.000000
629,5605.000000,-292.000000
630,5605.000000,-273.500000
631,5580.000000,-282.000000
632,5570.000000,-283.000000
633,5585.000000,-273.000000
634,5570.000000,-285.000000
635,5555.000000,-287.000000
636,5565.000000,-284.500000
637,5555.000000,-290.000000
638,5555.000000,-277.000000
639,5560.000000,-287.000000
640,5535.000000,-278.500000
641,5510.000000,-282.000000
642,5520.000000,-284.000000
643,5505.000000,-280.000000
644,5510.000000,-285.000000
645,5505.000000,-275.500000
646,5480.000000,-273.500000
647,5485.000000,-295.500000
648,5495.000000,-275.500000
649,5465.000000,-284.000000
650,5465.000000,-280.000000
651,5435.000000,-270.500000
652,5425.000000,-287.500000
653,5445.000000,-284.000000
654,5450.000000,-274.000000
655,5440.000000,-268.500000
656,5415.000000,-287.000000
657,5435.000000,-274.000000
658,5420.000000,-276.500000
659,5395.000000,-284.500000
660,5405.000000,-273.000000
661,5370.000000,-280.500000
662,5365.000000,-270.500000
663,5355.000000,-265.000000
664,5375.000000,-271.500000
665,5340.000000,-286.500000
666,5365.000000,-277.000000
667,5350.000000,-278.000000
668,5330.000000,-281.500000
669,5355.000000,-266.500000
670,5325.000000,-265.500000
671,5305.000000,-271.000000
672,5320.000000,-271.000000
673,5275.000000,-277.000000
674,5300.000000,-270.000000
675,5285.000000,-261.500000
676,5280.000000,-271.000000
677,5240.000000,-268.000000
678,5255.000000,-260.500000
679,5230.000000,-268.500000
680,5240.000000,-266.500000
681,5235.000000,-255.500000
682,5200.000000,-267.500000
683,5210.000000,-268.000000
684,5225.000000,-261.000000
685,5185.000000,-268.500000
686,5225.000000,-268.000000
687,5200.000000,-262.500000
688,5175.000000,-264.000000
689,5170.000000,-268.000000
690,5155.000000,-267.000000
691,5145.000000,-258.500000
692,5125.000000,-264.000000
693,5110.000000,-264.000000
694,5085.000000,-267.000000
695,5100.000000,-279.500000
696,5085.000000,-261.500000
697,5065.000000,-256.500000
698,5085.000000,-253.500000
699,5090.000000,-256.500000
700,5060.000000,-257.500000
701,5030.000000,-263.000000
702,5030.000000,-255.500000
703,5020.000000,-260.500000
704,5010.000000,-264.000000
705,4990.000000,-255.000000
706,5025.000000,-251.000000
707,4975.000000,-265.000000
708,4955.000000,-250.500000
709,4950.000000,-248.000000
710,4960.000000,-247.000000
711,4930.000000,-258.000000
712,4920.000000,-251.000000
713,4915.000000,-245.500000
