实验1/数据/zbjt0.csv

X,CH1,Start,Increment,
Sequence,Volt,-4.900000e-06,5.000000e-09,
0,1.520000e+00,
1,1.560000e+00,
2,1.520000e+00,
3,1.560000e+00,
4,1.520000e+00,
5,1.560000e+00,
6,1.520000e+00,
7,1.560000e+00,
8,1.560000e+00,
9,1.440000e+00,
10,1.320000e+00,
11,-2.000000e+00,
12,-1.880000e+00,
13,-2.080000e+00,
14,-1.920000e+00,
15,-2.080000e+00,
16,-2.000000e+00,
17,-2.120000e+00,
18,-2.080000e+00,
19,-2.040000e+00,
20,-2.080000e+00,
21,-2.040000e+00,
22,-2.080000e+00,
23,-2.040000e+00,
24,-2.080000e+00,
25,-2.040000e+00,
26,-2.080000e+00,
27,1.320000e+00,
28,1.360000e+00,
29,1.560000e+00,
30,1.520000e+00,
31,1.360000e+00,
32,1.560000e+00,
33,1.480000e+00,
34,1.560000e+00,
35,1.520000e+00,
36,1.520000e+00,
37,1.560000e+00,
38,1.520000e+00,
39,1.560000e+00,
40,1.520000e+00,
41,1.560000e+00,
42,1.560000e+00,
43,-1.840000e+00,
44,-1.680000e+00,
45,-2.080000e+00,
46,-2.080000e+00,
47,-1.920000e+00,
48,-2.080000e+00,
49,-2.000000e+00,
50,-2.120000e+00,
51,-2.040000e+00,
52,-2.080000e+00,
53,-2.040000e+00,
54,-2.080000e+00,
55,-2.040000e+00,
56,-2.080000e+00,
57,-2.040000e+00,
58,-2.080000e+00,
59,9.200000e-01,
60,1.160000e+00,
61,1.560000e+00,
62,1.560000e+00,
63,1.360000e+00,
64,1.440000e+00,
65,1.560000e+00,
66,1.520000e+00,
67,1.600000e+00,
68,1.520000e+00,
69,1.600000e+00,
70,1.520000e+00,
71,1.560000e+00,
72,1.560000e+00,
73,1.520000e+00,
74,1.560000e+00,
75,4.400000e-01,
76,-8.000000e-02,
77,-2.000000e+00,
78,-2.120000e+00,
79,-1.960000e+00,
80,-1.880000e+00,
81,-2.080000e+00,
82,-2.040000e+00,
83,-2.120000e+00,
84,-2.080000e+00,
85,-2.040000e+00,
86,-2.080000e+00,
87,-2.040000e+00,
88,-2.080000e+00,
89,-2.040000e+00,
90,-2.080000e+00,
91,-2.040000e+00,
92,-2.080000e+00,
93,1.360000e+00,
94,1.400000e+00,
95,1.560000e+00,
96,1.520000e+00,
97,1.400000e+00,
98,1.480000e+00,
99,1.600000e+00,
100,1.520000e+00,
101,1.600000e+00,
102,1.520000e+00,
103,1.600000e+00,
104,1.520000e+00,
105,1.560000e+00,
106,1.560000e+00,
107,1.520000e+00,
108,1.560000e+00,
109,-1.840000e+00,
110,-1.640000e+00,
111,-2.080000e+00,
112,-2.080000e+00,
113,-1.880000e+00,
114,-2.000000e+00,
115,-2.080000e+00,
116,-2.120000e+00,
117,-2.000000e+00,
118,-2.080000e+00,
119,-2.040000e+00,
120,-2.080000e+00,
121,-2.040000e+00,
122,-2.080000e+00,
123,-2.040000e+00,
124,-2.080000e+00,
125,9.600000e-01,
126,1.200000e+00,
127,1.600000e+00,
128,1.560000e+00,
129,1.400000e+00,
130,1.440000e+00,
131,1.600000e+00,
132,1.560000e+00,
133,1.600000e+00,
134,1.600000e+00,
135,1.520000e+00,
136,1.520000e+00,
137,1.600000e+00,
138,1.520000e+00,
139,1.600000e+00,
140,1.560000e+00,
141,4.400000e-01,
142,-4.000000e-02,
143,-2.000000e+00,
144,-2.080000e+00,
145,-1.920000e+00,
146,-1.880000e+00,
147,-2.080000e+00,
148,-2.120000e+00,
149,-2.040000e+00,
150,-2.080000e+00,
151,-2.040000e+00,
152,-2.080000e+00,
153,-2.040000e+00,
154,-2.080000e+00,
155,-2.040000e+00,
156,-2.080000e+00,
157,-1.920000e+00,
158,-1.840000e+00,
159,1.480000e+00,
160,1.400000e+00,
161,1.600000e+00,
162,1.440000e+00,
163,1.600000e+00,
164,1.560000e+00,
165,1.600000e+00,
166,1.560000e+00,
167,1.600000e+00,
168,1.520000e+00,
169,1.600000e+00,
170,1.560000e+00,
171,1.600000e+00,
172,1.600000e+00,
173,1.520000e+00,
174,1.560000e+00,
175,-1.840000e+00,
176,-1.880000e+00,
177,-2.080000e+00,
178,-2.040000e+00,
179,-1.920000e+00,
180,-2.080000e+00,
181,-2.040000e+00,
182,-2.040000e+00,
183,-2.120000e+00,
184,-2.080000e+00,
185,-2.040000e+00,
186,-2.080000e+00,
187,-2.040000e+00,
188,-2.080000e+00,
189,-2.040000e+00,
190,-2.080000e+00,
191,1.360000e+00,
192,1.160000e+00,
193,1.600000e+00,
194,1.600000e+00,
195,1.400000e+00,
196,1.520000e+00,
197,1.600000e+00,
198,1.560000e+00,
199,1.600000e+00,
200,1.600000e+00,
201,1.560000e+00,
202,1.560000e+00,
203,1.600000e+00,
204,1.560000e+00,
205,1.600000e+00,
206,1.600000e+00,
207,-1.440000e+00,
208,-1.680000e+00,
209,-2.080000e+00,
210,-2.080000e+00,
211,-1.880000e+00,
212,-1.960000e+00,
213,-2.120000e+00,
214,-2.080000e+00,
215,-2.040000e+00,
216,-2.120000e+00,
217,-2.040000e+00,
218,-2.080000e+00,
219,-2.040000e+00,
220,-2.040000e+00,
221,-2.080000e+00,
222,-2.080000e+00,
223,-8.800000e-01,
224,-4.400000e-01,
225,1.520000e+00,
226,1.600000e+00,
227,1.480000e+00,
228,1.400000e+00,
229,1.600000e+00,
230,1.560000e+00,
231,1.600000e+00,
232,1.600000e+00,
233,1.560000e+00,
234,1.560000e+00,
235,1.600000e+00,
236,1.560000e+00,
237,1.600000e+00,
238,1.600000e+00,
239,1.520000e+00,
240,1.600000e+00,
241,-1.840000e+00,
242,-1.880000e+00,
243,-2.080000e+00,
244,-2.040000e+00,
245,-1.880000e+00,
246,-2.080000e+00,
247,-2.000000e+00,
248,-2.080000e+00,
249,-2.040000e+00,
250,-2.080000e+00,
251,-2.040000e+00,
252,-2.080000e+00,
253,-2.040000e+00,
254,-2.080000e+00,
255,-2.040000e+00,
256,-2.080000e+00,
257,1.400000e+00,
258,1.200000e+00,
259,1.600000e+00,
260,1.600000e+00,
261,1.440000e+00,
262,1.520000e+00,
263,1.600000e+00,
264,1.560000e+00,
265,1.600000e+00,
266,1.600000e+00,
267,1.560000e+00,
268,1.560000e+00,
269,1.640000e+00,
270,1.560000e+00,
271,1.640000e+00,
272,1.600000e+00,
273,-1.440000e+00,
274,-1.680000e+00,
275,-2.080000e+00,
276,-2.080000e+00,
277,-1.880000e+00,
278,-1.960000e+00,
279,-2.080000e+00,
280,-2.080000e+00,
281,-2.040000e+00,
282,-2.120000e+00,
283,-2.040000e+00,
284,-2.080000e+00,
285,-2.040000e+00,
286,-2.080000e+00,
287,-2.040000e+00,
288,-2.080000e+00,
289,-8.800000e-01,
290,-4.400000e-01,
291,1.520000e+00,
292,1.640000e+00,
293,1.480000e+00,
294,1.440000e+00,
295,1.600000e+00,
296,1.640000e+00,
297,1.560000e+00,
298,1.600000e+00,
299,1.640000e+00,
300,1.600000e+00,
301,1.600000e+00,
302,1.560000e+00,
303,1.640000e+00,
304,1.640000e+00,
305,1.520000e+00,
306,1.360000e+00,
307,-2.000000e+00,
308,-1.840000e+00,
309,-2.080000e+00,
310,-1.920000e+00,
311,-2.080000e+00,
312,-2.040000e+00,
313,-2.080000e+00,
314,-2.080000e+00,
315,-2.040000e+00,
316,-2.080000e+00,
317,-2.040000e+00,
318,-2.080000e+00,
319,-2.000000e+00,
320,-2.080000e+00,
321,-2.040000e+00,
322,-2.080000e+00,
323,1.400000e+00,
324,1.400000e+00,
325,1.640000e+00,
326,1.600000e+00,
327,1.440000e+00,
328,1.560000e+00,
329,1.640000e+00,
330,1.640000e+00,
331,1.560000e+00,
332,1.600000e+00,
333,1.640000e+00,
334,1.600000e+00,
335,1.640000e+00,
336,1.640000e+00,
337,1.560000e+00,
338,1.640000e+00,
339,-1.840000e+00,
340,-1.640000e+00,
341,-2.080000e+00,
342,-2.080000e+00,
343,-1.880000e+00,
344,-2.080000e+00,
345,-2.000000e+00,
346,-2.120000e+00,
347,-2.040000e+00,
348,-2.080000e+00,
349,-2.040000e+00,
350,-2.080000e+00,
351,-2.040000e+00,
352,-2.080000e+00,
353,-2.040000e+00,
354,-2.080000e+00,
355,1.000000e+00,
356,1.240000e+00,
357,1.640000e+00,
358,1.640000e+00,
359,1.440000e+00,
360,1.520000e+00,
361,1.640000e+00,
362,1.600000e+00,
363,1.640000e+00,
364,1.640000e+00,
365,1.560000e+00,
366,1.600000e+00,
367,1.640000e+00,
368,1.640000e+00,
369,1.600000e+00,
370,1.640000e+00,
371,4.800000e-01,
372,-4.000000e-02,
373,-2.000000e+00,
374,-2.120000e+00,
375,-1.960000e+00,
376,-1.880000e+00,
377,-2.080000e+00,
378,-2.120000e+00,
379,-2.040000e+00,
380,-2.080000e+00,
381,-2.040000e+00,
382,-2.080000e+00,
383,-2.040000e+00,
384,-2.080000e+00,
385,-2.040000e+00,
386,-2.080000e+00,
387,-2.040000e+00,
388,-2.080000e+00,
389,1.400000e+00,
390,1.440000e+00,
391,1.640000e+00,
392,1.600000e+00,
393,1.440000e+00,
394,1.600000e+00,
395,1.640000e+00,
396,1.640000e+00,
397,1.600000e+00,
398,1.680000e+00,
399,1.600000e+00,
400,1.600000e+00,
401,1.640000e+00,
402,1.600000e+00,
403,1.640000e+00,
404,1.640000e+00,
405,-1.840000e+00,
406,-1.640000e+00,
407,-2.080000e+00,
408,-2.080000e+00,
409,-1.880000e+00,
410,-2.000000e+00,
411,-2.120000e+00,
412,-2.080000e+00,
413,-2.040000e+00,
414,-2.080000e+00,
415,-2.040000e+00,
416,-2.040000e+00,
417,-2.120000e+00,
418,-2.080000e+00,
419,-2.040000e+00,
420,-2.120000e+00,
421,1.000000e+00,
422,1.240000e+00,
423,1.640000e+00,
424,1.640000e+00,
425,1.480000e+00,
426,1.520000e+00,
427,1.680000e+00,
428,1.600000e+00,
429,1.680000e+00,
430,1.640000e+00,
431,1.600000e+00,
432,1.600000e+00,
433,1.680000e+00,
434,1.600000e+00,
435,1.680000e+00,
436,1.640000e+00,
437,4.800000e-01,
438,-4.000000e-02,
439,-1.960000e+00,
440,-2.080000e+00,
441,-1.960000e+00,
442,-1.880000e+00,
443,-2.080000e+00,
444,-2.080000e+00,
445,-2.040000e+00,
446,-2.040000e+00,
447,-2.080000e+00,
448,-2.080000e+00,
449,-2.040000e+00,
450,-2.040000e+00,
451,-2.080000e+00,
452,-2.080000e+00,
453,-1.920000e+00,
454,-1.840000e+00,
455,1.560000e+00,
456,1.480000e+00,
457,1.640000e+00,
458,1.480000e+00,
459,1.640000e+00,
460,1.600000e+00,
461,1.680000e+00,
462,1.680000e+00,
463,1.600000e+00,
464,1.600000e+00,
465,1.680000e+00,
466,1.600000e+00,
467,1.680000e+00,
468,1.600000e+00,
469,1.680000e+00,
470,1.640000e+00,
471,-1.840000e+00,
472,-1.880000e+00,
473,-2.080000e+00,
474,-2.040000e+00,
475,-1.880000e+00,
476,-2.040000e+00,
477,-2.120000e+00,
478,-2.080000e+00,
479,-2.040000e+00,
480,-2.080000e+00,
481,-2.040000e+00,
482,-2.080000e+00,
483,-2.040000e+00,
484,-2.080000e+00,
485,-2.040000e+00,
486,-2.080000e+00,
487,1.440000e+00,
488,1.240000e+00,
489,1.640000e+00,
490,1.640000e+00,
491,1.480000e+00,
492,1.600000e+00,
493,1.680000e+00,
494,1.680000e+00,
495,1.600000e+00,
496,1.640000e+00,
497,1.680000e+00,
498,1.640000e+00,
499,1.680000e+00,
500,1.680000e+00,
501,1.600000e+00,
502,1.680000e+00,
503,-1.440000e+00,
504,-1.640000e+00,
505,-2.080000e+00,
506,-2.080000e+00,
507,-1.880000e+00,
508,-1.960000e+00,
509,-2.080000e+00,
510,-2.080000e+00,
511,-2.040000e+00,
512,-2.080000e+00,
513,-2.040000e+00,
514,-2.080000e+00,
515,-2.040000e+00,
516,-2.080000e+00,
517,-2.040000e+00,
518,-2.080000e+00,
519,-8.400000e-01,
520,-3.600000e-01,
521,1.560000e+00,
522,1.680000e+00,
523,1.520000e+00,
524,1.480000e+00,
525,1.680000e+00,
526,1.680000e+00,
527,1.600000e+00,
528,1.640000e+00,
529,1.680000e+00,
530,1.640000e+00,
531,1.680000e+00,
532,1.680000e+00,
533,1.600000e+00,
534,1.640000e+00,
535,1.680000e+00,
536,1.640000e+00,
537,-1.840000e+00,
538,-1.880000e+00,
539,-2.080000e+00,
540,-1.920000e+00,
541,-2.080000e+00,
542,-2.040000e+00,
543,-2.080000e+00,
544,-2.080000e+00,
545,-2.040000e+00,
546,-2.080000e+00,
547,-2.040000e+00,
548,-2.040000e+00,
549,-2.080000e+00,
550,-2.080000e+00,
551,-2.040000e+00,
552,-2.080000e+00,
553,1.440000e+00,
554,1.280000e+00,
555,1.680000e+00,
556,1.680000e+00,
557,1.480000e+00,
558,1.600000e+00,
559,1.720000e+00,
560,1.720000e+00,
561,1.640000e+00,
562,1.640000e+00,
563,1.680000e+00,
564,1.680000e+00,
565,1.640000e+00,
566,1.680000e+00,
567,1.640000e+00,
568,1.680000e+00,
569,-1.440000e+00,
570,-1.640000e+00,
571,-2.080000e+00,
572,-2.080000e+00,
573,-1.880000e+00,
574,-1.960000e+00,
575,-2.080000e+00,
576,-2.040000e+00,
577,-2.120000e+00,
578,-2.080000e+00,
579,-2.040000e+00,
580,-2.080000e+00,
581,-2.040000e+00,
582,-2.080000e+00,
583,-2.040000e+00,
584,-2.080000e+00,
585,-8.400000e-01,
586,-3.600000e-01,
587,1.600000e+00,
588,1.680000e+00,
589,1.560000e+00,
590,1.480000e+00,
591,1.680000e+00,
592,1.640000e+00,
593,1.720000e+00,
594,1.680000e+00,
595,1.640000e+00,
596,1.680000e+00,
597,1.640000e+00,
598,1.640000e+00,
599,1.720000e+00,
600,1.680000e+00,
601,1.560000e+00,
602,1.440000e+00,
603,-2.000000e+00,
604,-1.880000e+00,
605,-2.120000e+00,
606,-1.880000e+00,
607,-2.080000e+00,
608,-2.120000e+00,
609,-2.000000e+00,
610,-2.080000e+00,
611,-2.040000e+00,
612,-2.080000e+00,
613,-2.040000e+00,
614,-2.080000e+00,
615,-2.040000e+00,
616,-2.040000e+00,
617,-2.080000e+00,
618,-2.040000e+00,
619,1.440000e+00,
620,1.480000e+00,
621,1.720000e+00,
622,1.680000e+00,
623,1.520000e+00,
624,1.640000e+00,
625,1.720000e+00,
626,1.640000e+00,
627,1.720000e+00,
628,1.640000e+00,
629,1.720000e+00,
630,1.640000e+00,
631,1.720000e+00,
632,1.640000e+00,
633,1.720000e+00,
634,1.680000e+00,
635,-1.840000e+00,
636,-1.640000e+00,
637,-2.080000e+00,
638,-2.080000e+00,
639,-1.880000e+00,
640,-2.000000e+00,
641,-2.120000e+00,
642,-2.040000e+00,
643,-2.120000e+00,
644,-2.080000e+00,
645,-2.040000e+00,
646,-2.080000e+00,
647,-2.040000e+00,
648,-2.080000e+00,
649,-2.040000e+00,
650,-2.080000e+00,
651,1.080000e+00,
652,1.280000e+00,
653,1.720000e+00,
654,1.680000e+00,
655,1.520000e+00,
656,1.600000e+00,
657,1.720000e+00,
658,1.680000e+00,
659,1.720000e+00,
660,1.640000e+00,
661,1.720000e+00,
662,1.720000e+00,
663,1.640000e+00,
664,1.680000e+00,
665,1.720000e+00,
666,1.720000e+00,
667,4.800000e-01,
668,0.000000e+00,
669,-1.960000e+00,
670,-2.080000e+00,
671,-1.960000e+00,
672,-1.880000e+00,
673,-2.080000e+00,
674,-2.040000e+00,
675,-2.120000e+00,
676,-2.080000e+00,
677,-2.040000e+00,
678,-2.080000e+00,
679,-2.040000e+00,
680,-2.040000e+00,
681,-2.080000e+00,
682,-2.080000e+00,
683,-2.040000e+00,
684,-2.080000e+00,
685,1.480000e+00,
686,1.480000e+00,
687,1.720000e+00,
688,1.680000e+00,
689,1.520000e+00,
690,1.640000e+00,
691,1.720000e+00,
692,1.680000e+00,
693,1.720000e+00,
694,1.680000e+00,
695,1.720000e+00,
696,1.720000e+00,
697,1.640000e+00,
698,1.680000e+00,
699,1.720000e+00,
700,1.720000e+00,
701,-1.840000e+00,
702,-1.640000e+00,
703,-2.120000e+00,
704,-2.080000e+00,
705,-1.880000e+00,
706,-2.000000e+00,
707,-2.080000e+00,
708,-2.120000e+00,
709,-2.040000e+00,
710,-2.080000e+00,
711,-2.040000e+00,
712,-2.080000e+00,
713,-2.040000e+00,
714,-2.080000e+00,
715,-2.040000e+00,
716,-2.080000e+00,
717,1.080000e+00,
718,1.320000e+00,
719,1.720000e+00,
720,1.720000e+00,
721,1.520000e+00,
722,1.600000e+00,
723,1.720000e+00,
724,1.680000e+00,
725,1.760000e+00,
726,1.680000e+00,
727,1.720000e+00,
728,1.680000e+00,
729,1.720000e+00,
730,1.720000e+00,
731,1.680000e+00,
732,1.720000e+00,
733,4.800000e-01,
734,0.000000e+00,
735,-1.960000e+00,
736,-2.080000e+00,
737,-1.960000e+00,
738,-1.880000e+00,
739,-2.080000e+00,
740,-2.080000e+00,
741,-2.040000e+00,
742,-2.080000e+00,
743,-2.040000e+00,
744,-2.080000e+00,
745,-2.040000e+00,
746,-2.080000e+00,
747,-2.040000e+00,
748,-2.080000e+00,
749,-1.960000e+00,
750,-1.800000e+00,
751,1.640000e+00,
752,1.560000e+00,
753,1.720000e+00,
754,1.560000e+00,
755,1.720000e+00,
756,1.680000e+00,
757,1.760000e+00,
758,1.760000e+00,
759,1.680000e+00,
760,1.680000e+00,
761,1.760000e+00,
762,1.760000e+00,
763,1.680000e+00,
764,1.680000e+00,
765,1.720000e+00,
766,1.720000e+00,
767,-1.840000e+00,
768,-1.840000e+00,
769,-2.080000e+00,
770,-2.080000e+00,
771,-1.880000e+00,
772,-2.080000e+00,
773,-2.040000e+00,
774,-2.080000e+00,
775,-2.040000e+00,
776,-2.080000e+00,
777,-2.040000e+00,
778,-2.080000e+00,
779,-2.040000e+00,
780,-2.080000e+00,
781,-2.040000e+00,
782,-2.080000e+00,
783,1.520000e+00,
784,1.320000e+00,
785,1.720000e+00,
786,1.720000e+00,
787,1.520000e+00,
788,1.640000e+00,
789,1.760000e+00,
790,1.680000e+00,
791,1.760000e+00,
792,1.680000e+00,
793,1.760000e+00,
794,1.680000e+00,
795,1.760000e+00,
796,1.760000e+00,
797,1.680000e+00,
798,1.760000e+00,
799,-1.440000e+00,
800,-1.640000e+00,
801,-2.080000e+00,
802,-2.080000e+00,
803,-1.880000e+00,
804,-1.960000e+00,
805,-2.080000e+00,
806,-2.080000e+00,
807,-2.040000e+00,
808,-2.080000e+00,
809,-2.040000e+00,
810,-2.080000e+00,
811,-2.040000e+00,
812,-2.080000e+00,
813,-2.040000e+00,
814,-2.080000e+00,
815,-8.400000e-01,
816,-3.200000e-01,
817,1.640000e+00,
818,1.720000e+00,
819,1.640000e+00,
820,1.560000e+00,
821,1.760000e+00,
822,1.760000e+00,
823,1.680000e+00,
824,1.760000e+00,
825,1.680000e+00,
826,1.720000e+00,
827,1.760000e+00,
828,1.680000e+00,
829,1.760000e+00,
830,1.720000e+00,
831,1.760000e+00,
832,1.720000e+00,
833,-1.840000e+00,
834,-1.880000e+00,
835,-2.080000e+00,
836,-2.040000e+00,
837,-1.880000e+00,
838,-2.040000e+00,
839,-2.120000e+00,
840,-2.080000e+00,
841,-2.040000e+00,
842,-2.080000e+00,
843,-2.040000e+00,
844,-2.080000e+00,
845,-2.040000e+00,
846,-2.080000e+00,
847,-2.040000e+00,
848,-2.080000e+00,
849,1.520000e+00,
850,1.360000e+00,
851,1.760000e+00,
852,1.720000e+00,
853,1.560000e+00,
854,1.680000e+00,
855,1.760000e+00,
856,1.720000e+00,
857,1.760000e+00,
858,1.760000e+00,
859,1.720000e+00,
860,1.720000e+00,
861,1.760000e+00,
862,1.760000e+00,
863,1.680000e+00,
864,1.760000e+00,
865,-1.440000e+00,
866,-1.640000e+00,
867,-2.080000e+00,
868,-2.080000e+00,
869,-1.880000e+00,
870,-2.000000e+00,
871,-2.080000e+00,
872,-2.080000e+00,
873,-2.040000e+00,
874,-2.080000e+00,
875,-2.040000e+00,
876,-2.080000e+00,
877,-2.040000e+00,
878,-2.080000e+00,
879,-2.040000e+00,
880,-2.080000e+00,
881,-8.000000e-01,
882,-3.200000e-01,
883,1.640000e+00,
884,1.760000e+00,
885,1.600000e+00,
886,1.560000e+00,
887,1.760000e+00,
888,1.720000e+00,
889,1.760000e+00,
890,1.720000e+00,
891,1.760000e+00,
892,1.720000e+00,
893,1.760000e+00,
894,1.720000e+00,
895,1.760000e+00,
896,1.760000e+00,
897,1.640000e+00,
898,1.480000e+00,
899,-2.000000e+00,
900,-1.840000e+00,
901,-2.080000e+00,
902,-1.920000e+00,
903,-2.080000e+00,
904,-2.000000e+00,
905,-2.080000e+00,
906,-2.080000e+00,
907,-2.040000e+00,
908,-2.080000e+00,
909,-2.040000e+00,
910,-2.080000e+00,
911,-2.040000e+00,
912,-2.080000e+00,
913,-2.040000e+00,
914,-2.080000e+00,
915,1.520000e+00,
916,1.560000e+00,
917,1.760000e+00,
918,1.720000e+00,
919,1.600000e+00,
920,1.720000e+00,
921,1.760000e+00,
922,1.720000e+00,
923,1.760000e+00,
924,1.800000e+00,
925,1.720000e+00,
926,1.720000e+00,
927,1.760000e+00,
928,1.760000e+00,
929,1.720000e+00,
930,1.760000e+00,
931,-1.840000e+00,
932,-1.600000e+00,
933,-2.120000e+00,
934,-2.080000e+00,
935,-1.880000e+00,
936,-2.000000e+00,
937,-2.080000e+00,
938,-2.080000e+00,
939,-2.040000e+00,
940,-2.080000e+00,
941,-2.040000e+00,
942,-2.040000e+00,
943,-2.080000e+00,
944,-2.080000e+00,
945,-2.040000e+00,
946,-2.080000e+00,
947,1.120000e+00,
948,1.320000e+00,
949,1.760000e+00,
950,1.760000e+00,
951,1.560000e+00,
952,1.640000e+00,
953,1.800000e+00,
954,1.720000e+00,
955,1.800000e+00,
956,1.720000e+00,
957,1.760000e+00,
958,1.720000e+00,
959,1.760000e+00,
960,1.720000e+00,
961,1.760000e+00,
962,1.800000e+00,
963,1.640000e+00,
964,1.480000e+00,
965,-2.000000e+00,
966,-1.880000e+00,
967,-2.080000e+00,
968,-1.920000e+00,
969,-2.080000e+00,
970,-2.040000e+00,
971,-2.120000e+00,
972,-2.080000e+00,
973,-2.040000e+00,
974,-2.080000e+00,
975,-2.040000e+00,
976,-2.080000e+00,
977,-2.040000e+00,
978,-2.040000e+00,
979,-2.080000e+00,
980,-2.040000e+00,
981,1.560000e+00,
982,1.600000e+00,
983,1.760000e+00,
984,1.600000e+00,
985,1.760000e+00,
986,1.720000e+00,
987,1.800000e+00,
988,1.720000e+00,
989,1.800000e+00,
990,1.720000e+00,
991,1.800000e+00,
992,1.720000e+00,
993,1.800000e+00,
994,1.800000e+00,
995,1.720000e+00,
996,1.800000e+00,
997,-1.840000e+00,
998,-1.640000e+00,
999,-2.080000e+00,
1000,-2.080000e+00,
1001,-1.920000e+00,
1002,-2.000000e+00,
1003,-2.080000e+00,
1004,-2.080000e+00,
1005,-2.040000e+00,
1006,-2.080000e+00,
1007,-2.040000e+00,
1008,-2.080000e+00,
1009,-2.040000e+00,
1010,-2.080000e+00,
1011,-2.040000e+00,
1012,-2.080000e+00,
1013,1.160000e+00,
1014,1.360000e+00,
1015,1.800000e+00,
1016,1.760000e+00,
1017,1.600000e+00,
1018,1.680000e+00,
1019,1.800000e+00,
1020,1.760000e+00,
1021,1.800000e+00,
1022,1.800000e+00,
1023,1.760000e+00,
1024,1.720000e+00,
1025,1.800000e+00,
1026,1.800000e+00,
1027,1.720000e+00,
1028,1.800000e+00,
1029,5.600000e-01,
1030,0.000000e+00,
1031,-1.960000e+00,
1032,-2.080000e+00,
1033,-1.920000e+00,
1034,-1.920000e+00,
1035,-2.080000e+00,
1036,-2.080000e+00,
1037,-2.040000e+00,
1038,-2.120000e+00,
1039,-2.040000e+00,
1040,-2.080000e+00,
1041,-2.040000e+00,
1042,-2.080000e+00,
1043,-2.040000e+00,
1044,-2.080000e+00,
1045,-1.920000e+00,
1046,-1.800000e+00,
1047,1.720000e+00,
1048,1.600000e+00,
1049,1.800000e+00,
1050,1.600000e+00,
1051,1.800000e+00,
1052,1.760000e+00,
1053,1.840000e+00,
1054,1.760000e+00,
1055,1.840000e+00,
1056,1.760000e+00,
1057,1.800000e+00,
1058,1.760000e+00,
1059,1.800000e+00,
1060,1.760000e+00,
1061,1.800000e+00,
1062,1.760000e+00,
1063,-1.840000e+00,
1064,-1.840000e+00,
1065,-2.080000e+00,
1066,-2.040000e+00,
1067,-1.880000e+00,
1068,-2.080000e+00,
1069,-2.000000e+00,
1070,-2.080000e+00,
1071,-2.040000e+00,
1072,-2.080000e+00,
1073,-2.040000e+00,
1074,-2.040000e+00,
1075,-2.080000e+00,
1076,-2.080000e+00,
1077,-2.040000e+00,
1078,-2.080000e+00,
