实验5_脉冲放大器/data/yj1.csv

X,CH1,CH2,Start,Increment,
Sequence,Volt,Volt,-1.693600e-05,5.000000e-08,
0,0.000000e+00,-2.000000e-03,
1,1.600000e-01,3.200000e-03,
2,0.000000e+00,-2.000000e-03,
3,1.600000e-01,3.200000e-03,
4,1.600000e-01,2.800000e-03,
5,0.000000e+00,-2.000000e-03,
6,1.600000e-01,2.000000e-03,
7,0.000000e+00,-1.200000e-03,
8,1.600000e-01,-4.400000e-03,
9,0.000000e+00,5.200000e-03,
10,0.000000e+00,-2.800000e-03,
11,1.600000e-01,3.600000e-03,
12,0.000000e+00,1.600000e-03,
13,1.600000e-01,-1.200000e-03,
14,0.000000e+00,2.400000e-03,
15,1.600000e-01,-2.000000e-03,
16,1.600000e-01,2.800000e-03,
17,0.000000e+00,-1.600000e-03,
18,0.000000e+00,1.600000e-03,
19,1.600000e-01,-8.000000e-04,
20,0.000000e+00,2.000000e-03,
21,1.600000e-01,-1.200000e-03,
22,0.000000e+00,-2.000000e-03,
23,1.600000e-01,2.400000e-03,
24,1.600000e-01,-1.200000e-03,
25,0.000000e+00,2.000000e-03,
26,1.600000e-01,2.000000e-03,
27,0.000000e+00,-1.200000e-03,
28,1.600000e-01,-8.000000e-04,
29,0.000000e+00,1.600000e-03,
30,1.600000e-01,-2.000000e-03,
31,0.000000e+00,3.200000e-03,
32,1.600000e-01,2.800000e-03,
33,0.000000e+00,-1.600000e-03,
34,0.000000e+00,-1.200000e-03,
35,1.600000e-01,2.000000e-03,
36,1.600000e-01,1.600000e-03,
37,0.000000e+00,-8.000000e-04,
38,0.000000e+00,-8.000000e-04,
39,1.600000e-01,1.600000e-03,
40,1.600000e-01,2.400000e-03,
41,0.000000e+00,-1.600000e-03,
42,0.000000e+00,2.800000e-03,
43,1.600000e-01,-2.000000e-03,
44,1.600000e-01,-1.600000e-03,
45,0.000000e+00,2.800000e-03,
46,0.000000e+00,-1.200000e-03,
47,1.600000e-01,2.800000e-03,
48,1.600000e-01,1.600000e-03,
49,0.000000e+00,-8.000000e-04,
50,8.000000e-02,-8.000000e-04,
51,0.000000e+00,1.600000e-03,
52,0.000000e+00,2.400000e-03,
53,1.600000e-01,-1.600000e-03,
54,0.000000e+00,2.800000e-03,
55,1.600000e-01,-2.000000e-03,
56,0.000000e+00,2.400000e-03,
57,1.600000e-01,-1.200000e-03,
58,1.600000e-01,2.000000e-03,
59,0.000000e+00,-1.200000e-03,
60,0.000000e+00,2.000000e-03,
61,1.600000e-01,-1.200000e-03,
62,0.000000e+00,-1.600000e-03,
63,1.600000e-01,2.400000e-03,
64,0.000000e+00,-8.000000e-04,
65,1.600000e-01,2.000000e-03,
66,0.000000e+00,-1.200000e-03,
67,1.600000e-01,2.400000e-03,
68,0.000000e+00,-8.000000e-04,
69,1.600000e-01,2.000000e-03,
70,0.000000e+00,2.400000e-03,
71,1.600000e-01,-2.000000e-03,
72,1.600000e-01,2.400000e-03,
73,0.000000e+00,-2.000000e-03,
74,0.000000e+00,2.000000e-03,
75,1.600000e-01,-1.200000e-03,
76,1.600000e-01,-4.000000e-04,
77,0.000000e+00,2.000000e-03,
78,0.000000e+00,-8.000000e-04,
79,1.600000e-01,2.000000e-03,
80,0.000000e+00,1.600000e-03,
81,1.600000e-01,-1.200000e-03,
82,0.000000e+00,3.200000e-03,
83,1.600000e-01,-2.400000e-03,
84,0.000000e+00,2.400000e-03,
85,1.600000e-01,-1.600000e-03,
86,1.600000e-01,-4.000000e-04,
87,0.000000e+00,1.200000e-03,
88,1.600000e-01,-1.200000e-03,
89,0.000000e+00,2.000000e-03,
90,0.000000e+00,-4.000000e-04,
91,1.600000e-01,1.600000e-03,
92,1.600000e-01,2.400000e-03,
93,0.000000e+00,-1.600000e-03,
94,0.000000e+00,2.800000e-03,
95,1.600000e-01,-2.000000e-03,
96,0.000000e+00,2.000000e-03,
97,1.600000e-01,-1.600000e-03,
98,0.000000e+00,2.400000e-03,
99,1.600000e-01,-1.200000e-03,
100,0.000000e+00,2.400000e-03,
101,1.600000e-01,-1.600000e-03,
102,0.000000e+00,-8.000000e-04,
103,1.600000e-01,2.400000e-03,
104,0.000000e+00,2.000000e-03,
105,1.600000e-01,-1.200000e-03,
106,0.000000e+00,2.000000e-03,
107,1.600000e-01,-1.200000e-03,
108,0.000000e+00,-8.000000e-04,
109,1.600000e-01,1.600000e-03,
110,1.600000e-01,2.800000e-03,
111,0.000000e+00,-1.600000e-03,
112,0.000000e+00,-2.000000e-03,
113,1.600000e-01,2.800000e-03,
114,1.600000e-01,-8.000000e-04,
115,0.000000e+00,1.600000e-03,
116,0.000000e+00,2.000000e-03,
117,1.600000e-01,-1.200000e-03,
118,1.600000e-01,-1.600000e-03,
119,0.000000e+00,2.400000e-03,
120,0.000000e+00,2.400000e-03,
121,1.600000e-01,-1.600000e-03,
122,0.000000e+00,-2.000000e-03,
123,1.600000e-01,2.800000e-03,
124,0.000000e+00,-2.000000e-03,
125,1.600000e-01,2.800000e-03,
126,1.600000e-01,-1.200000e-03,
127,0.000000e+00,1.200000e-03,
128,1.600000e-01,-8.000000e-04,
129,0.000000e+00,2.000000e-03,
130,0.000000e+00,-8.000000e-04,
131,1.600000e-01,1.600000e-03,
132,0.000000e+00,-2.000000e-03,
133,1.600000e-01,3.200000e-03,
134,0.000000e+00,-2.400000e-03,
135,1.600000e-01,3.200000e-03,
136,0.000000e+00,-1.200000e-03,
137,1.600000e-01,2.000000e-03,
138,1.600000e-01,2.800000e-03,
139,0.000000e+00,-2.000000e-03,
140,0.000000e+00,-1.600000e-03,
141,1.600000e-01,2.400000e-03,
142,0.000000e+00,-8.000000e-04,
143,1.600000e-01,2.000000e-03,
144,1.600000e-01,2.000000e-03,
145,0.000000e+00,-1.200000e-03,
146,0.000000e+00,1.600000e-03,
147,1.600000e-01,-8.000000e-04,
148,0.000000e+00,2.400000e-03,
149,1.600000e-01,-1.600000e-03,
150,0.000000e+00,2.400000e-03,
151,1.600000e-01,-2.000000e-03,
152,0.000000e+00,-1.600000e-03,
153,1.600000e-01,2.400000e-03,
154,1.600000e-01,2.000000e-03,
155,0.000000e+00,-1.200000e-03,
156,0.000000e+00,1.600000e-03,
157,1.600000e-01,-8.000000e-04,
158,0.000000e+00,1.200000e-03,
159,1.600000e-01,-4.000000e-04,
160,1.600000e-01,2.800000e-03,
161,0.000000e+00,-2.000000e-03,
162,0.000000e+00,3.600000e-03,
163,1.600000e-01,-2.800000e-03,
164,1.600000e-01,-8.000000e-04,
165,0.000000e+00,1.600000e-03,
166,0.000000e+00,1.200000e-03,
167,1.600000e-01,-4.000000e-04,
168,0.000000e+00,-1.200000e-03,
169,1.600000e-01,2.400000e-03,
170,0.000000e+00,1.600000e-03,
171,1.600000e-01,-8.000000e-04,
172,0.000000e+00,2.800000e-03,
173,1.600000e-01,-2.000000e-03,
174,1.600000e-01,2.400000e-03,
175,0.000000e+00,-1.600000e-03,
176,0.000000e+00,2.000000e-03,
177,1.600000e-01,-8.000000e-04,
178,1.600000e-01,-1.600000e-03,
179,0.000000e+00,2.400000e-03,
180,0.000000e+00,2.800000e-03,
181,1.600000e-01,-2.000000e-03,
182,0.000000e+00,1.600000e-03,
183,1.600000e-01,-8.000000e-04,
184,0.000000e+00,2.400000e-03,
185,1.600000e-01,-1.200000e-03,
186,0.000000e+00,2.000000e-03,
187,1.600000e-01,-1.200000e-03,
188,0.000000e+00,-1.600000e-03,
189,1.600000e-01,2.800000e-03,
190,0.000000e+00,-2.000000e-03,
191,1.600000e-01,2.800000e-03,
192,0.000000e+00,2.000000e-03,
193,1.600000e-01,-1.600000e-03,
194,1.600000e-01,1.600000e-03,
195,0.000000e+00,-8.000000e-04,
196,1.600000e-01,1.200000e-03,
197,0.000000e+00,-4.000000e-04,
198,0.000000e+00,2.000000e-03,
199,1.600000e-01,-1.200000e-03,
200,0.000000e+00,-2.000000e-03,
201,1.600000e-01,3.200000e-03,
202,0.000000e+00,-2.000000e-03,
203,1.600000e-01,3.200000e-03,
204,0.000000e+00,-8.000000e-04,
205,1.600000e-01,1.600000e-03,
206,0.000000e+00,-1.600000e-03,
207,1.600000e-01,2.400000e-03,
208,1.600000e-01,-1.200000e-03,
209,0.000000e+00,1.600000e-03,
210,1.600000e-01,2.800000e-03,
211,0.000000e+00,-2.000000e-03,
212,8.000000e-02,2.800000e-03,
213,0.000000e+00,-2.000000e-03,
214,0.000000e+00,-1.200000e-03,
215,1.600000e-01,2.800000e-03,
216,0.000000e+00,1.600000e-03,
217,1.600000e-01,-1.200000e-03,
218,1.600000e-01,-1.200000e-03,
219,0.000000e+00,2.000000e-03,
220,0.000000e+00,-1.200000e-03,
221,1.600000e-01,2.400000e-03,
222,1.600000e-01,2.400000e-03,
223,0.000000e+00,-1.200000e-03,
224,0.000000e+00,-1.200000e-03,
225,1.600000e-01,2.400000e-03,
226,0.000000e+00,2.400000e-03,
227,1.600000e-01,-1.200000e-03,
228,0.000000e+00,3.200000e-03,
229,1.600000e-01,-2.000000e-03,
230,0.000000e+00,-2.000000e-03,
231,1.600000e-01,3.600000e-03,
232,1.600000e-01,1.600000e-03,
233,0.000000e+00,-8.000000e-04,
234,1.600000e-01,2.000000e-03,
235,0.000000e+00,-1.200000e-03,
236,0.000000e+00,-4.000000e-04,
237,1.600000e-01,1.200000e-03,
238,0.000000e+00,-1.600000e-03,
239,1.600000e-01,2.400000e-03,
240,0.000000e+00,4.000000e-03,
241,1.600000e-01,-2.800000e-03,
242,1.600000e-01,3.600000e-03,
243,0.000000e+00,-1.600000e-03,
244,0.000000e+00,2.000000e-03,
245,1.600000e-01,-8.000000e-04,
246,0.000000e+00,-8.000000e-04,
247,1.600000e-01,2.000000e-03,
248,0.000000e+00,-4.000000e-04,
249,1.600000e-01,1.600000e-03,
250,1.600000e-01,2.400000e-03,
251,0.000000e+00,-1.600000e-03,
252,1.600000e-01,-1.600000e-03,
253,0.000000e+00,2.800000e-03,
254,1.600000e-01,-1.200000e-03,
255,0.000000e+00,2.000000e-03,
256,1.600000e-01,2.400000e-03,
257,0.000000e+00,-1.600000e-03,
258,0.000000e+00,2.400000e-03,
259,1.600000e-01,-1.600000e-03,
260,1.600000e-01,1.600000e-03,
261,0.000000e+00,-4.000000e-04,
262,0.000000e+00,-1.200000e-03,
263,1.600000e-01,2.400000e-03,
264,1.600000e-01,-1.200000e-03,
265,0.000000e+00,2.000000e-03,
266,1.600000e-01,1.600000e-03,
267,0.000000e+00,-1.200000e-03,
268,0.000000e+00,-1.600000e-03,
269,1.600000e-01,2.400000e-03,
270,0.000000e+00,2.400000e-03,
271,1.600000e-01,-1.600000e-03,
272,1.600000e-01,2.400000e-03,
273,0.000000e+00,-1.600000e-03,
274,0.000000e+00,-1.600000e-03,
275,1.600000e-01,2.000000e-03,
276,1.600000e-01,1.600000e-03,
277,0.000000e+00,-8.000000e-04,
278,1.600000e-01,-2.000000e-03,
279,0.000000e+00,3.200000e-03,
280,0.000000e+00,-2.000000e-03,
281,1.600000e-01,2.800000e-03,
282,0.000000e+00,-8.000000e-04,
283,1.600000e-01,1.600000e-03,
284,1.600000e-01,-8.000000e-04,
285,0.000000e+00,1.600000e-03,
286,1.600000e-01,1.600000e-03,
287,0.000000e+00,-1.200000e-03,
288,1.600000e-01,-1.200000e-03,
289,0.000000e+00,2.000000e-03,
290,0.000000e+00,-1.600000e-03,
291,1.600000e-01,3.200000e-03,
292,0.000000e+00,-2.000000e-03,
293,1.600000e-01,2.800000e-03,
294,1.600000e-01,2.000000e-03,
295,0.000000e+00,-1.200000e-03,
296,0.000000e+00,-1.120000e-02,
297,1.600000e-01,1.160000e-02,
298,0.000000e+00,4.800000e-03,
299,1.600000e-01,-4.800000e-03,
300,0.000000e+00,2.800000e-03,
301,1.600000e-01,-1.200000e-03,
302,0.000000e+00,2.800000e-03,
303,1.600000e-01,-2.000000e-03,
304,1.600000e-01,-8.000000e-04,
305,0.000000e+00,2.000000e-03,
306,0.000000e+00,-1.600000e-03,
307,1.600000e-01,2.400000e-03,
308,0.000000e+00,-2.000000e-03,
309,1.600000e-01,2.800000e-03,
310,0.000000e+00,-1.200000e-03,
311,1.600000e-01,2.000000e-03,
312,1.600000e-01,1.600000e-03,
313,0.000000e+00,-1.880000e-02,
314,0.000000e+00,-1.760000e-02,
315,1.600000e-01,-2.000000e-02,
316,1.600000e-01,-2.200000e-02,
317,0.000000e+00,-1.440000e-02,
318,1.600000e-01,-2.120000e-02,
319,0.000000e+00,-1.280000e-02,
320,8.000000e-02,-1.800000e-02,
321,2.400000e-01,-1.320000e-02,
322,1.600000e-01,-1.560000e-02,
323,4.000000e-01,-1.320000e-02,
324,3.200000e-01,-1.480000e-02,
325,6.400000e-01,-1.160000e-02,
326,4.800000e-01,-1.320000e-02,
327,9.600000e-01,-1.080000e-02,
328,8.000000e-01,-1.320000e-02,
329,1.360000e+00,-9.200000e-03,
330,1.360000e+00,-1.320000e-02,
331,1.840000e+00,-7.999999e-03,
332,1.840000e+00,-1.160000e-02,
333,2.480000e+00,-8.400000e-03,
334,2.480000e+00,-1.040000e-02,
335,3.200000e+00,-7.600000e-03,
336,3.120000e+00,-6.800000e-03,
337,3.920000e+00,-1.040000e-02,
338,3.840000e+00,-6.000000e-03,
339,4.640000e+00,-9.600000e-03,
340,4.640000e+00,-8.800000e-03,
341,5.360000e+00,-5.200000e-03,
342,5.360000e+00,-8.800000e-03,
343,6.080000e+00,-4.800000e-03,
344,6.080000e+00,-4.400000e-03,
345,6.800000e+00,-7.999999e-03,
346,6.800000e+00,-7.999999e-03,
347,7.440000e+00,-3.200000e-03,
348,7.360000e+00,-7.200000e-03,
349,8.000000e+00,-3.200000e-03,
350,8.000000e+00,-3.200000e-03,
351,8.480000e+00,-6.400000e-03,
352,8.480000e+00,-6.000000e-03,
353,8.880000e+00,-2.800000e-03,
354,8.960000e+00,-4.800000e-03,
355,9.280000e+00,-3.200000e-03,
356,9.280000e+00,-5.600000e-03,
357,9.599999e+00,-1.600000e-03,
358,9.520000e+00,-6.400000e-03,
359,9.760000e+00,-8.000000e-04,
360,9.760000e+00,-8.000000e-04,
361,9.920000e+00,-5.200000e-03,
362,9.840000e+00,-1.600000e-03,
363,1.000000e+01,-4.400000e-03,
364,9.920000e+00,-4.000000e-03,
365,1.000000e+01,-1.600000e-03,
366,1.000000e+01,-1.200000e-03,
367,9.840000e+00,-4.000000e-03,
368,9.920000e+00,-4.400000e-03,
369,9.679999e+00,0.000000e+00,
370,9.760000e+00,-4.400000e-03,
371,9.520000e+00,4.000000e-04,
372,9.599999e+00,-4.000000e-04,
373,9.360000e+00,-3.600000e-03,
374,9.440000e+00,-3.200000e-03,
375,9.120000e+00,0.000000e+00,
376,9.200000e+00,-3.200000e-03,
377,8.880000e+00,0.000000e+00,
378,8.880000e+00,0.000000e+00,
379,8.559999e+00,-2.800000e-03,
380,8.639999e+00,-3.600000e-03,
381,8.240000e+00,1.200000e-03,
382,8.320000e+00,8.000000e-04,
383,7.920000e+00,-3.200000e-03,
384,7.920000e+00,0.000000e+00,
385,7.600000e+00,-2.800000e-03,
386,7.600000e+00,1.200000e-03,
387,7.280000e+00,-3.200000e-03,
388,7.280000e+00,4.000000e-04,
389,6.880000e+00,-2.400000e-03,
390,6.960000e+00,-2.400000e-03,
391,6.560000e+00,8.000000e-04,
392,6.560000e+00,-2.000000e-03,
393,6.240000e+00,4.000000e-04,
394,6.320000e+00,1.200000e-03,
395,5.920000e+00,-2.400000e-03,
396,5.920000e+00,2.000000e-03,
397,5.520000e+00,-3.200000e-03,
398,5.600000e+00,1.600000e-03,
399,5.200000e+00,-2.800000e-03,
400,5.280000e+00,-1.600000e-03,
401,4.960000e+00,8.000000e-04,
402,4.960000e+00,-2.000000e-03,
403,4.640000e+00,1.200000e-03,
404,4.640000e+00,8.000000e-04,
405,4.400000e+00,-1.600000e-03,
406,4.400000e+00,1.600000e-03,
407,4.080000e+00,-2.400000e-03,
408,4.160000e+00,-2.400000e-03,
409,3.840000e+00,2.000000e-03,
410,3.840000e+00,-2.400000e-03,
411,3.600000e+00,2.400000e-03,
412,3.680000e+00,-1.200000e-03,
413,3.360000e+00,1.200000e-03,
414,3.440000e+00,1.200000e-03,
415,3.120000e+00,-1.600000e-03,
416,3.200000e+00,1.200000e-03,
417,2.960000e+00,-1.600000e-03,
418,2.960000e+00,2.000000e-03,
419,2.720000e+00,-2.400000e-03,
420,2.800000e+00,2.000000e-03,
421,2.560000e+00,-2.000000e-03,
422,2.640000e+00,-1.200000e-03,
423,2.400000e+00,1.600000e-03,
424,2.400000e+00,2.000000e-03,
425,2.240000e+00,-2.000000e-03,
426,2.240000e+00,-1.600000e-03,
427,2.080000e+00,2.000000e-03,
428,2.160000e+00,1.600000e-03,
429,1.920000e+00,-1.200000e-03,
430,2.000000e+00,-1.600000e-03,
431,1.760000e+00,1.600000e-03,
432,1.840000e+00,-2.000000e-03,
433,1.680000e+00,2.400000e-03,
434,1.760000e+00,-1.600000e-03,
435,1.600000e+00,2.400000e-03,
436,1.680000e+00,-2.000000e-03,
437,1.440000e+00,2.400000e-03,
438,1.520000e+00,2.000000e-03,
439,1.360000e+00,-1.600000e-03,
440,1.440000e+00,-8.000000e-04,
441,1.280000e+00,1.600000e-03,
442,1.360000e+00,2.000000e-03,
443,1.120000e+00,-1.600000e-03,
444,1.280000e+00,-8.000000e-04,
445,1.040000e+00,1.600000e-03,
446,1.200000e+00,2.400000e-03,
447,1.040000e+00,-2.000000e-03,
448,9.600000e-01,-2.400000e-03,
449,1.120000e+00,3.200000e-03,
450,1.040000e+00,-1.600000e-03,
451,8.800000e-01,2.000000e-03,
452,9.600000e-01,1.600000e-03,
453,8.000000e-01,-1.200000e-03,
454,8.800000e-01,1.600000e-03,
455,7.200000e-01,-1.200000e-03,
456,8.000000e-01,-8.000000e-04,
457,7.200000e-01,2.000000e-03,
458,8.000000e-01,2.800000e-03,
459,6.400000e-01,-2.000000e-03,
460,7.200000e-01,2.400000e-03,
461,5.600000e-01,-1.600000e-03,
462,7.200000e-01,1.600000e-03,
463,5.600000e-01,-1.200000e-03,
464,6.400000e-01,2.000000e-03,
465,4.800000e-01,-1.200000e-03,
466,6.400000e-01,-1.200000e-03,
467,4.800000e-01,1.600000e-03,
468,6.400000e-01,-1.600000e-03,
469,4.000000e-01,2.400000e-03,
470,5.600000e-01,2.400000e-03,
471,4.000000e-01,-2.000000e-03,
472,4.000000e-01,2.000000e-03,
473,5.600000e-01,-1.200000e-03,
474,4.800000e-01,-1.200000e-03,
475,3.200000e-01,2.000000e-03,
476,4.000000e-01,2.400000e-03,
477,3.200000e-01,-2.000000e-03,
478,4.000000e-01,2.400000e-03,
479,3.200000e-01,-1.600000e-03,
480,4.000000e-01,2.800000e-03,
481,2.400000e-01,-1.600000e-03,
482,2.400000e-01,2.000000e-03,
483,4.000000e-01,-1.200000e-03,
484,2.400000e-01,2.400000e-03,
485,4.000000e-01,-1.600000e-03,
486,2.400000e-01,-2.000000e-03,
487,4.000000e-01,2.800000e-03,
488,3.200000e-01,-1.600000e-03,
489,1.600000e-01,2.400000e-03,
490,3.200000e-01,-8.000000e-04,
491,1.600000e-01,1.600000e-03,
492,3.200000e-01,-8.000000e-04,
493,1.600000e-01,2.000000e-03,
494,1.600000e-01,-4.000000e-04,
495,3.200000e-01,1.600000e-03,
496,1.600000e-01,2.400000e-03,
497,2.400000e-01,-1.600000e-03,
498,2.400000e-01,2.800000e-03,
499,8.000000e-02,-2.000000e-03,
500,8.000000e-02,2.400000e-03,
501,2.400000e-01,-1.200000e-03,
502,2.400000e-01,-8.000000e-04,
503,8.000000e-02,1.600000e-03,
504,8.000000e-02,-8.000000e-04,
505,2.400000e-01,1.600000e-03,
506,8.000000e-02,2.000000e-03,
507,2.400000e-01,-1.600000e-03,
508,8.000000e-02,-1.600000e-03,
509,2.400000e-01,2.400000e-03,
510,8.000000e-02,2.800000e-03,
511,1.600000e-01,-2.000000e-03,
512,8.000000e-02,2.000000e-03,
513,1.600000e-01,-1.200000e-03,
514,8.000000e-02,2.400000e-03,
515,1.600000e-01,-2.000000e-03,
516,1.600000e-01,-1.600000e-03,
517,0.000000e+00,2.000000e-03,
518,1.600000e-01,-1.200000e-03,
519,0.000000e+00,2.000000e-03,
520,1.600000e-01,-1.600000e-03,
521,0.000000e+00,2.400000e-03,
522,1.600000e-01,2.400000e-03,
523,0.000000e+00,-1.600000e-03,
524,1.600000e-01,2.400000e-03,
525,0.000000e+00,-1.200000e-03,
526,0.000000e+00,2.800000e-03,
527,1.600000e-01,-2.000000e-03,
528,0.000000e+00,-1.600000e-03,
529,1.600000e-01,2.400000e-03,
530,0.000000e+00,1.600000e-03,
531,1.600000e-01,-8.000000e-04,
532,0.000000e+00,1.600000e-03,
533,1.600000e-01,-8.000000e-04,
534,0.000000e+00,-1.200000e-03,
535,8.000000e-02,2.400000e-03,
536,8.000000e-02,-1.600000e-03,
537,0.000000e+00,2.800000e-03,
538,0.000000e+00,2.800000e-03,
539,1.600000e-01,-2.000000e-03,
540,8.000000e-02,2.000000e-03,
541,0.000000e+00,-1.200000e-03,
542,8.000000e-02,-8.000000e-04,
543,0.000000e+00,2.000000e-03,
544,0.000000e+00,2.800000e-03,
545,8.000000e-02,-1.600000e-03,
546,8.000000e-02,-1.600000e-03,
547,0.000000e+00,2.400000e-03,
548,0.000000e+00,-2.000000e-03,
549,8.000000e-02,2.800000e-03,
550,8.000000e-02,3.200000e-03,
551,-8.000000e-02,-2.000000e-03,
552,0.000000e+00,-8.000000e-04,
553,8.000000e-02,2.000000e-03,
554,0.000000e+00,-4.000000e-04,
555,8.000000e-02,2.000000e-03,
556,8.000000e-02,-8.000000e-04,
557,-8.000000e-02,2.000000e-03,
558,0.000000e+00,2.800000e-03,
559,8.000000e-02,-2.000000e-03,
560,0.000000e+00,-1.600000e-03,
561,8.000000e-02,2.800000e-03,
562,0.000000e+00,-8.000000e-04,
563,8.000000e-02,1.600000e-03,
564,0.000000e+00,2.400000e-03,
565,8.000000e-02,-1.600000e-03,
566,0.000000e+00,2.800000e-03,
567,8.000000e-02,-1.600000e-03,
568,8.000000e-02,2.000000e-03,
569,-8.000000e-02,-1.200000e-03,
570,8.000000e-02,-1.200000e-03,
571,-8.000000e-02,2.400000e-03,
572,0.000000e+00,-1.600000e-03,
573,8.000000e-02,2.400000e-03,
574,0.000000e+00,2.400000e-03,
575,8.000000e-02,-1.600000e-03,
576,8.000000e-02,4.000000e-03,
577,-8.000000e-02,-2.000000e-03,
578,8.000000e-02,3.200000e-03,
579,-8.000000e-02,-1.600000e-03,
580,8.000000e-02,-8.000000e-04,
581,-8.000000e-02,1.600000e-03,
582,8.000000e-02,2.400000e-03,
583,-8.000000e-02,-1.600000e-03,
584,8.000000e-02,-4.000000e-04,
585,-8.000000e-02,1.600000e-03,
586,8.000000e-02,-2.000000e-03,
587,-8.000000e-02,3.200000e-03,
588,0.000000e+00,3.600000e-03,
589,8.000000e-02,-2.800000e-03,
590,0.000000e+00,-1.200000e-03,
591,8.000000e-02,2.400000e-03,
592,8.000000e-02,1.600000e-03,
593,-8.000000e-02,-8.000000e-04,
594,8.000000e-02,1.600000e-03,
595,-8.000000e-02,-8.000000e-04,
596,8.000000e-02,-1.200000e-03,
597,-8.000000e-02,2.400000e-03,
598,0.000000e+00,-2.000000e-03,
599,8.000000e-02,2.800000e-03,
600,8.000000e-02,2.800000e-03,
601,-8.000000e-02,-2.000000e-03,
602,8.000000e-02,-1.200000e-03,
603,-8.000000e-02,2.000000e-03,
604,8.000000e-02,2.000000e-03,
605,-8.000000e-02,-1.200000e-03,
606,8.000000e-02,1.600000e-03,
607,-8.000000e-02,-8.000000e-04,
608,0.000000e+00,-1.600000e-03,
609,8.000000e-02,2.400000e-03,
610,8.000000e-02,2.400000e-03,
611,-8.000000e-02,-1.600000e-03,
612,8.000000e-02,2.000000e-03,
613,-8.000000e-02,-1.200000e-03,
614,8.000000e-02,-8.000000e-04,
615,-8.000000e-02,2.000000e-03,
616,8.000000e-02,2.400000e-03,
617,-8.000000e-02,-1.600000e-03,
618,0.000000e+00,-1.600000e-03,
619,8.000000e-02,2.800000e-03,
620,8.000000e-02,-1.200000e-03,
621,-8.000000e-02,2.000000e-03,
622,0.000000e+00,5.600000e-03,
623,8.000000e-02,-4.000000e-03,
624,-8.000000e-02,-2.400000e-03,
625,8.000000e-02,3.200000e-03,
626,-8.000000e-02,2.800000e-03,
627,8.000000e-02,-2.000000e-03,
628,8.000000e-02,-1.600000e-03,
629,-8.000000e-02,2.800000e-03,
630,8.000000e-02,-1.200000e-03,
631,0.000000e+00,1.600000e-03,
632,8.000000e-02,2.000000e-03,
633,-8.000000e-02,-1.200000e-03,
