实验5_脉冲放大器/data/yj5.csv

X,CH1,CH2,Start,Increment,
Sequence,Volt,Volt,-1.693600e-05,5.000000e-08,
0,0.000000e+00,2.400000e-03,
1,1.600000e-01,-1.600000e-03,
2,0.000000e+00,2.400000e-03,
3,1.600000e-01,-1.600000e-03,
4,0.000000e+00,1.600000e-03,
5,1.600000e-01,-8.000000e-04,
6,1.600000e-01,-8.000000e-04,
7,0.000000e+00,1.600000e-03,
8,1.600000e-01,-8.000000e-04,
9,0.000000e+00,1.600000e-03,
10,0.000000e+00,1.600000e-03,
11,1.600000e-01,-1.600000e-03,
12,1.600000e-01,-8.000000e-04,
13,0.000000e+00,2.400000e-03,
14,0.000000e+00,-8.000000e-04,
15,1.600000e-01,2.400000e-03,
16,1.600000e-01,1.600000e-03,
17,0.000000e+00,-8.000000e-04,
18,1.600000e-01,-8.000000e-04,
19,0.000000e+00,1.600000e-03,
20,0.000000e+00,-8.000000e-04,
21,1.600000e-01,1.600000e-03,
22,0.000000e+00,1.600000e-03,
23,1.600000e-01,-8.000000e-04,
24,0.000000e+00,1.600000e-03,
25,1.600000e-01,-8.000000e-04,
26,1.600000e-01,1.600000e-03,
27,0.000000e+00,-8.000000e-04,
28,0.000000e+00,2.400000e-03,
29,1.600000e-01,-1.600000e-03,
30,1.600000e-01,1.600000e-03,
31,0.000000e+00,-1.600000e-03,
32,1.600000e-01,1.600000e-03,
33,0.000000e+00,-8.000000e-04,
34,0.000000e+00,1.600000e-03,
35,1.600000e-01,-8.000000e-04,
36,1.600000e-01,-8.000000e-04,
37,0.000000e+00,1.600000e-03,
38,0.000000e+00,1.600000e-03,
39,1.600000e-01,-1.600000e-03,
40,0.000000e+00,2.400000e-03,
41,1.600000e-01,-1.600000e-03,
42,1.600000e-01,-8.000000e-04,
43,0.000000e+00,2.400000e-03,
44,0.000000e+00,1.600000e-03,
45,1.600000e-01,-8.000000e-04,
46,1.600000e-01,1.600000e-03,
47,0.000000e+00,-8.000000e-04,
48,1.600000e-01,-8.000000e-04,
49,0.000000e+00,1.600000e-03,
50,0.000000e+00,1.600000e-03,
51,1.600000e-01,-1.600000e-03,
52,1.600000e-01,1.600000e-03,
53,0.000000e+00,-8.000000e-04,
54,1.600000e-01,1.600000e-03,
55,0.000000e+00,-1.600000e-03,
56,1.600000e-01,1.600000e-03,
57,0.000000e+00,-8.000000e-04,
58,1.600000e-01,-1.600000e-03,
59,0.000000e+00,2.400000e-03,
60,0.000000e+00,-1.600000e-03,
61,1.600000e-01,2.400000e-03,
62,1.600000e-01,1.600000e-03,
63,0.000000e+00,-8.000000e-04,
64,0.000000e+00,-8.000000e-04,
65,1.600000e-01,1.600000e-03,
66,1.600000e-01,-8.000000e-04,
67,0.000000e+00,1.600000e-03,
68,1.600000e-01,1.600000e-03,
69,0.000000e+00,-8.000000e-04,
70,0.000000e+00,-1.600000e-03,
71,1.600000e-01,2.400000e-03,
72,1.600000e-01,2.400000e-03,
73,0.000000e+00,-1.600000e-03,
74,0.000000e+00,1.600000e-03,
75,1.600000e-01,-8.000000e-04,
76,1.600000e-01,0.000000e+00,
77,0.000000e+00,1.600000e-03,
78,0.000000e+00,1.600000e-03,
79,1.600000e-01,-8.000000e-04,
80,1.600000e-01,2.400000e-03,
81,0.000000e+00,-1.600000e-03,
82,0.000000e+00,2.400000e-03,
83,1.600000e-01,-1.600000e-03,
84,0.000000e+00,1.600000e-03,
85,1.600000e-01,-8.000000e-04,
86,1.600000e-01,1.600000e-03,
87,0.000000e+00,-8.000000e-04,
88,0.000000e+00,1.600000e-03,
89,1.600000e-01,-8.000000e-04,
90,0.000000e+00,-8.000000e-04,
91,1.600000e-01,2.400000e-03,
92,1.600000e-01,1.600000e-03,
93,0.000000e+00,-8.000000e-04,
94,0.000000e+00,-8.000000e-04,
95,1.600000e-01,1.600000e-03,
96,1.600000e-01,1.600000e-03,
97,0.000000e+00,-8.000000e-04,
98,0.000000e+00,-8.000000e-04,
99,1.600000e-01,2.400000e-03,
100,0.000000e+00,2.400000e-03,
101,1.600000e-01,-1.600000e-03,
102,0.000000e+00,-8.000000e-04,
103,1.600000e-01,2.400000e-03,
104,1.600000e-01,1.600000e-03,
105,0.000000e+00,-8.000000e-04,
106,1.600000e-01,-8.000000e-04,
107,0.000000e+00,1.600000e-03,
108,1.600000e-01,-8.000000e-04,
109,0.000000e+00,1.600000e-03,
110,1.600000e-01,-1.600000e-03,
111,0.000000e+00,2.400000e-03,
112,1.600000e-01,1.600000e-03,
113,0.000000e+00,-8.000000e-04,
114,0.000000e+00,-8.000000e-04,
115,1.600000e-01,1.600000e-03,
116,1.600000e-01,1.600000e-03,
117,0.000000e+00,-1.600000e-03,
118,1.600000e-01,-8.000000e-04,
119,0.000000e+00,1.600000e-03,
120,1.600000e-01,-8.000000e-04,
121,0.000000e+00,2.400000e-03,
122,0.000000e+00,1.600000e-03,
123,1.600000e-01,-8.000000e-04,
124,1.600000e-01,1.600000e-03,
125,0.000000e+00,-8.000000e-04,
126,1.600000e-01,1.600000e-03,
127,0.000000e+00,-1.600000e-03,
128,1.600000e-01,1.600000e-03,
129,0.000000e+00,-8.000000e-04,
130,1.600000e-01,2.400000e-03,
131,0.000000e+00,-1.600000e-03,
132,1.600000e-01,1.600000e-03,
133,0.000000e+00,-8.000000e-04,
134,1.600000e-01,1.600000e-03,
135,0.000000e+00,-8.000000e-04,
136,1.600000e-01,1.600000e-03,
137,0.000000e+00,-8.000000e-04,
138,1.600000e-01,-8.000000e-04,
139,0.000000e+00,1.600000e-03,
140,0.000000e+00,2.400000e-03,
141,1.600000e-01,-1.600000e-03,
142,0.000000e+00,2.400000e-03,
143,1.600000e-01,-3.200000e-03,
144,1.600000e-01,3.200000e-03,
145,0.000000e+00,-3.200000e-03,
146,0.000000e+00,3.200000e-03,
147,1.600000e-01,-1.600000e-03,
148,0.000000e+00,1.600000e-03,
149,1.600000e-01,-8.000000e-04,
150,0.000000e+00,1.600000e-03,
151,1.600000e-01,-1.600000e-03,
152,0.000000e+00,-8.000000e-04,
153,1.600000e-01,1.600000e-03,
154,1.600000e-01,-8.000000e-04,
155,0.000000e+00,1.600000e-03,
156,1.600000e-01,1.600000e-03,
157,0.000000e+00,-8.000000e-04,
158,1.600000e-01,-8.000000e-04,
159,0.000000e+00,2.400000e-03,
160,1.600000e-01,1.600000e-03,
161,0.000000e+00,-8.000000e-04,
162,1.600000e-01,-8.000000e-04,
163,0.000000e+00,1.600000e-03,
164,0.000000e+00,1.600000e-03,
165,1.600000e-01,-8.000000e-04,
166,0.000000e+00,1.600000e-03,
167,1.600000e-01,-8.000000e-04,
168,0.000000e+00,-8.000000e-04,
169,1.600000e-01,2.400000e-03,
170,0.000000e+00,-1.600000e-03,
171,1.600000e-01,2.400000e-03,
172,1.600000e-01,1.600000e-03,
173,0.000000e+00,-8.000000e-04,
174,1.600000e-01,1.600000e-03,
175,0.000000e+00,-8.000000e-04,
176,0.000000e+00,1.600000e-03,
177,1.600000e-01,-8.000000e-04,
178,0.000000e+00,-8.000000e-04,
179,1.600000e-01,2.400000e-03,
180,0.000000e+00,1.600000e-03,
181,1.600000e-01,-1.600000e-03,
182,1.600000e-01,2.400000e-03,
183,0.000000e+00,-1.600000e-03,
184,1.600000e-01,1.600000e-03,
185,0.000000e+00,-8.000000e-04,
186,1.600000e-01,1.600000e-03,
187,0.000000e+00,-8.000000e-04,
188,0.000000e+00,1.600000e-03,
189,1.600000e-01,-8.000000e-04,
190,0.000000e+00,-8.000000e-04,
191,1.600000e-01,1.600000e-03,
192,1.600000e-01,-8.000000e-04,
193,0.000000e+00,2.400000e-03,
194,1.600000e-01,1.600000e-03,
195,0.000000e+00,-8.000000e-04,
196,0.000000e+00,-8.000000e-04,
197,1.600000e-01,1.600000e-03,
198,1.600000e-01,1.600000e-03,
199,0.000000e+00,-1.600000e-03,
200,1.600000e-01,2.400000e-03,
201,0.000000e+00,-1.600000e-03,
202,1.600000e-01,-8.000000e-04,
203,0.000000e+00,1.600000e-03,
204,0.000000e+00,1.600000e-03,
205,1.600000e-01,0.000000e+00,
206,1.600000e-01,1.600000e-03,
207,0.000000e+00,-8.000000e-04,
208,1.600000e-01,-8.000000e-04,
209,0.000000e+00,2.400000e-03,
210,1.600000e-01,2.400000e-03,
211,0.000000e+00,-1.600000e-03,
212,1.600000e-01,-1.600000e-03,
213,0.000000e+00,1.600000e-03,
214,1.600000e-01,1.600000e-03,
215,0.000000e+00,-8.000000e-04,
216,0.000000e+00,-8.000000e-04,
217,1.600000e-01,2.400000e-03,
218,0.000000e+00,-1.520000e-02,
219,1.600000e-01,1.200000e-02,
220,0.000000e+00,7.200000e-03,
221,1.600000e-01,-4.800000e-03,
222,1.600000e-01,-1.600000e-03,
223,0.000000e+00,2.400000e-03,
224,1.600000e-01,-8.000000e-04,
225,0.000000e+00,3.200000e-03,
226,0.000000e+00,1.600000e-03,
227,1.600000e-01,-8.000000e-04,
228,1.600000e-01,-1.600000e-03,
229,0.000000e+00,2.400000e-03,
230,1.600000e-01,-8.000000e-04,
231,0.000000e+00,1.600000e-03,
232,1.600000e-01,1.600000e-03,
233,0.000000e+00,-8.000000e-04,
234,1.600000e-01,1.600000e-03,
235,0.000000e+00,-8.000000e-04,
236,1.600000e-01,1.600000e-03,
237,0.000000e+00,-8.000000e-04,
238,1.600000e-01,-1.600000e-03,
239,0.000000e+00,2.400000e-03,
240,1.600000e-01,-1.600000e-03,
241,0.000000e+00,1.600000e-03,
242,1.600000e-01,0.000000e+00,
243,0.000000e+00,1.600000e-03,
244,1.600000e-01,1.600000e-03,
245,0.000000e+00,-8.000000e-04,
246,1.600000e-01,1.600000e-03,
247,0.000000e+00,-8.000000e-04,
248,1.600000e-01,-8.000000e-04,
249,0.000000e+00,1.600000e-03,
250,1.600000e-01,-8.000000e-04,
251,0.000000e+00,2.400000e-03,
252,0.000000e+00,-8.000000e-04,
253,1.600000e-01,1.600000e-03,
254,0.000000e+00,-8.000000e-04,
255,1.600000e-01,1.600000e-03,
256,1.600000e-01,1.600000e-03,
257,0.000000e+00,-8.000000e-04,
258,0.000000e+00,-8.000000e-04,
259,1.600000e-01,2.400000e-03,
260,0.000000e+00,-8.000000e-04,
261,1.600000e-01,1.600000e-03,
262,1.600000e-01,1.600000e-03,
263,0.000000e+00,-8.000000e-04,
264,0.000000e+00,-8.000000e-04,
265,1.600000e-01,1.600000e-03,
266,8.000000e-02,1.600000e-03,
267,0.000000e+00,-8.000000e-04,
268,0.000000e+00,-1.600000e-03,
269,1.600000e-01,2.400000e-03,
270,1.600000e-01,-8.000000e-04,
271,0.000000e+00,1.600000e-03,
272,0.000000e+00,1.600000e-03,
273,1.600000e-01,-8.000000e-04,
274,0.000000e+00,1.600000e-03,
275,1.600000e-01,-8.000000e-04,
276,1.600000e-01,-8.000000e-04,
277,0.000000e+00,1.600000e-03,
278,1.600000e-01,1.600000e-03,
279,0.000000e+00,-8.000000e-04,
280,1.600000e-01,2.400000e-03,
281,0.000000e+00,-1.600000e-03,
282,1.600000e-01,-8.000000e-04,
283,0.000000e+00,1.600000e-03,
284,1.600000e-01,-8.000000e-04,
285,0.000000e+00,1.600000e-03,
286,0.000000e+00,-1.600000e-03,
287,1.600000e-01,1.600000e-03,
288,0.000000e+00,-8.000000e-04,
289,1.600000e-01,1.600000e-03,
290,1.600000e-01,-8.000000e-04,
291,0.000000e+00,2.400000e-03,
292,1.600000e-01,1.600000e-03,
293,0.000000e+00,-8.000000e-04,
294,1.600000e-01,-8.000000e-04,
295,0.000000e+00,2.400000e-03,
296,0.000000e+00,2.400000e-03,
297,1.600000e-01,-1.600000e-03,
298,0.000000e+00,-1.600000e-03,
299,1.600000e-01,2.400000e-03,
300,0.000000e+00,0.000000e+00,
301,1.600000e-01,1.600000e-03,
302,0.000000e+00,1.600000e-03,
303,1.600000e-01,-8.000000e-04,
304,1.600000e-01,1.600000e-03,
305,0.000000e+00,-8.000000e-04,
306,0.000000e+00,-8.000000e-04,
307,1.600000e-01,1.600000e-03,
308,0.000000e+00,-1.600000e-03,
309,1.600000e-01,2.400000e-03,
310,1.600000e-01,-8.000000e-04,
311,0.000000e+00,1.600000e-03,
312,1.600000e-01,1.600000e-03,
313,0.000000e+00,-8.000000e-04,
314,1.600000e-01,-8.000000e-04,
315,0.000000e+00,2.400000e-03,
316,1.600000e-01,1.600000e-03,
317,0.000000e+00,-8.000000e-04,
318,1.600000e-01,-8.000000e-04,
319,8.000000e-02,3.200000e-03,
320,8.000000e-02,0.000000e+00,
321,2.400000e-01,3.200000e-03,
322,1.600000e-01,1.600000e-03,
323,4.000000e-01,4.000000e-03,
324,3.200000e-01,3.200000e-03,
325,6.400000e-01,7.200000e-03,
326,5.600000e-01,4.800000e-03,
327,9.600000e-01,1.040000e-02,
328,8.800000e-01,7.999999e-03,
329,1.360000e+00,1.280000e-02,
330,1.360000e+00,1.200000e-02,
331,1.920000e+00,1.680000e-02,
332,1.840000e+00,1.600000e-02,
333,2.480000e+00,2.080000e-02,
334,2.480000e+00,2.000000e-02,
335,3.200000e+00,2.560000e-02,
336,3.200000e+00,2.480000e-02,
337,3.920000e+00,3.120000e-02,
338,3.920000e+00,2.880000e-02,
339,4.640000e+00,3.600000e-02,
340,4.640000e+00,3.360000e-02,
341,5.360000e+00,3.920000e-02,
342,5.360000e+00,3.840000e-02,
343,6.160000e+00,4.400000e-02,
344,6.160000e+00,4.240000e-02,
345,6.880000e+00,4.800000e-02,
346,6.800000e+00,4.640000e-02,
347,7.440000e+00,5.040000e-02,
348,7.440000e+00,4.960000e-02,
349,8.080000e+00,5.440000e-02,
350,8.000000e+00,5.200000e-02,
351,8.559999e+00,5.680000e-02,
352,8.559999e+00,5.520000e-02,
353,8.960000e+00,5.840000e-02,
354,8.960000e+00,5.760000e-02,
355,9.360000e+00,6.080000e-02,
356,9.360000e+00,5.840000e-02,
357,9.599999e+00,6.240000e-02,
358,9.599999e+00,6.160000e-02,
359,9.840000e+00,6.000000e-02,
360,9.840000e+00,6.240000e-02,
361,1.000000e+01,6.080000e-02,
362,9.920000e+00,6.240000e-02,
363,1.008000e+01,6.080000e-02,
364,1.008000e+01,5.920000e-02,
365,9.920000e+00,6.240000e-02,
366,1.000000e+01,6.240000e-02,
367,9.920000e+00,5.840000e-02,
368,1.000000e+01,6.080000e-02,
369,9.760000e+00,5.760000e-02,
370,9.840000e+00,5.920000e-02,
371,9.599999e+00,5.680000e-02,
372,9.679999e+00,5.760000e-02,
373,9.360000e+00,5.440000e-02,
374,9.440000e+00,5.600000e-02,
375,9.200000e+00,5.280000e-02,
376,9.200000e+00,5.440000e-02,
377,8.880000e+00,5.040000e-02,
378,8.880000e+00,5.280000e-02,
379,8.559999e+00,4.880000e-02,
380,8.639999e+00,5.120000e-02,
381,8.240000e+00,4.720000e-02,
382,8.320000e+00,4.800000e-02,
383,7.920000e+00,4.480000e-02,
384,8.000000e+00,4.720000e-02,
385,7.600000e+00,4.160000e-02,
386,7.600000e+00,4.480000e-02,
387,7.280000e+00,4.080000e-02,
388,7.280000e+00,4.160000e-02,
389,6.880000e+00,3.840000e-02,
390,6.880000e+00,4.000000e-02,
391,6.560000e+00,3.680000e-02,
392,6.560000e+00,3.760000e-02,
393,6.160000e+00,3.440000e-02,
394,6.240000e+00,3.600000e-02,
395,5.840000e+00,3.120000e-02,
396,5.920000e+00,3.440000e-02,
397,5.520000e+00,2.960000e-02,
398,5.520000e+00,3.200000e-02,
399,5.200000e+00,2.880000e-02,
400,5.280000e+00,2.960000e-02,
401,4.880000e+00,2.720000e-02,
402,4.960000e+00,2.800000e-02,
403,4.640000e+00,2.480000e-02,
404,4.640000e+00,2.640000e-02,
405,4.320000e+00,2.320000e-02,
406,4.400000e+00,2.560000e-02,
407,4.080000e+00,2.080000e-02,
408,4.080000e+00,2.480000e-02,
409,3.760000e+00,2.000000e-02,
410,3.840000e+00,2.240000e-02,
411,3.600000e+00,1.920000e-02,
412,3.600000e+00,2.080000e-02,
413,3.280000e+00,1.760000e-02,
414,3.360000e+00,1.920000e-02,
415,3.120000e+00,1.600000e-02,
416,3.120000e+00,1.840000e-02,
417,2.880000e+00,1.520000e-02,
418,2.960000e+00,1.680000e-02,
419,2.720000e+00,1.440000e-02,
420,2.720000e+00,1.600000e-02,
421,2.480000e+00,1.280000e-02,
422,2.560000e+00,1.440000e-02,
423,2.320000e+00,1.200000e-02,
424,2.400000e+00,1.040000e-02,
425,2.160000e+00,1.520000e-02,
426,2.240000e+00,1.360000e-02,
427,2.080000e+00,1.040000e-02,
428,2.080000e+00,1.280000e-02,
429,1.920000e+00,9.600000e-03,
430,2.000000e+00,1.120000e-02,
431,1.680000e+00,8.800000e-03,
432,1.840000e+00,1.040000e-02,
433,1.600000e+00,8.800000e-03,
434,1.680000e+00,1.040000e-02,
435,1.520000e+00,7.200000e-03,
436,1.600000e+00,6.400000e-03,
437,1.440000e+00,1.040000e-02,
438,1.520000e+00,8.800000e-03,
439,1.280000e+00,6.400000e-03,
440,1.360000e+00,7.999999e-03,
441,1.200000e+00,6.400000e-03,
442,1.280000e+00,7.999999e-03,
443,1.120000e+00,5.600000e-03,
444,1.200000e+00,7.999999e-03,
445,1.040000e+00,4.800000e-03,
446,1.120000e+00,7.200000e-03,
447,9.600000e-01,4.000000e-03,
448,1.120000e+00,7.200000e-03,
449,8.800000e-01,4.000000e-03,
450,9.600000e-01,6.400000e-03,
451,8.000000e-01,4.000000e-03,
452,8.000000e-01,3.200000e-03,
453,9.600000e-01,6.400000e-03,
454,8.800000e-01,2.400000e-03,
455,7.200000e-01,6.400000e-03,
456,8.000000e-01,6.400000e-03,
457,6.400000e-01,2.400000e-03,
458,7.200000e-01,4.800000e-03,
459,6.400000e-01,2.400000e-03,
460,7.200000e-01,4.000000e-03,
461,5.600000e-01,2.400000e-03,
462,7.200000e-01,4.000000e-03,
463,4.800000e-01,1.600000e-03,
464,6.400000e-01,4.800000e-03,
465,4.800000e-01,8.000000e-04,
466,5.600000e-01,4.800000e-03,
467,4.800000e-01,8.000000e-04,
468,5.600000e-01,3.200000e-03,
469,4.000000e-01,1.600000e-03,
470,4.000000e-01,3.200000e-03,
471,5.600000e-01,1.600000e-03,
472,4.800000e-01,4.000000e-03,
473,3.200000e-01,8.000000e-04,
474,4.800000e-01,4.000000e-03,
475,3.200000e-01,0.000000e+00,
476,4.000000e-01,8.000000e-04,
477,3.200000e-01,3.200000e-03,
478,4.000000e-01,8.000000e-04,
479,2.400000e-01,3.200000e-03,
480,4.000000e-01,2.400000e-03,
481,2.400000e-01,0.000000e+00,
482,4.000000e-01,0.000000e+00,
483,2.400000e-01,3.200000e-03,
484,3.200000e-01,3.200000e-03,
485,1.600000e-01,0.000000e+00,
486,3.200000e-01,2.400000e-03,
487,1.600000e-01,0.000000e+00,
488,1.600000e-01,2.400000e-03,
489,3.200000e-01,0.000000e+00,
490,2.400000e-01,4.000000e-03,
491,1.600000e-01,-3.200000e-03,
492,2.400000e-01,-1.600000e-03,
493,1.600000e-01,4.000000e-03,
494,1.600000e-01,-8.000000e-04,
495,2.400000e-01,3.200000e-03,
496,2.400000e-01,2.400000e-03,
497,8.000000e-02,-8.000000e-04,
498,2.400000e-01,1.600000e-03,
499,8.000000e-02,-8.000000e-04,
500,8.000000e-02,0.000000e+00,
501,2.400000e-01,1.600000e-03,
502,1.600000e-01,1.600000e-03,
503,8.000000e-02,0.000000e+00,
504,1.600000e-01,-8.000000e-04,
505,8.000000e-02,3.200000e-03,
506,1.600000e-01,2.400000e-03,
507,8.000000e-02,-8.000000e-04,
508,8.000000e-02,1.600000e-03,
509,1.600000e-01,-8.000000e-04,
510,8.000000e-02,-8.000000e-04,
511,1.600000e-01,2.400000e-03,
512,8.000000e-02,2.400000e-03,
513,1.600000e-01,-8.000000e-04,
514,1.600000e-01,1.600000e-03,
515,0.000000e+00,-8.000000e-04,
516,1.600000e-01,-8.000000e-04,
517,0.000000e+00,2.400000e-03,
518,0.000000e+00,-8.000000e-04,
519,1.600000e-01,1.600000e-03,
520,1.600000e-01,1.600000e-03,
521,0.000000e+00,-8.000000e-04,
522,1.600000e-01,-1.600000e-03,
523,0.000000e+00,2.400000e-03,
524,8.000000e-02,-8.000000e-04,
525,0.000000e+00,1.600000e-03,
526,8.000000e-02,1.600000e-03,
527,0.000000e+00,-8.000000e-04,
528,8.000000e-02,-8.000000e-04,
529,0.000000e+00,1.600000e-03,
530,8.000000e-02,8.000000e-04,
531,0.000000e+00,-8.000000e-04,
532,8.000000e-02,-8.000000e-04,
533,0.000000e+00,1.600000e-03,
534,8.000000e-02,1.600000e-03,
535,0.000000e+00,-1.600000e-03,
536,8.000000e-02,-8.000000e-04,
537,0.000000e+00,1.600000e-03,
538,8.000000e-02,-8.000000e-04,
539,0.000000e+00,1.600000e-03,
540,0.000000e+00,1.600000e-03,
541,8.000000e-02,-1.600000e-03,
542,8.000000e-02,-8.000000e-04,
543,0.000000e+00,1.600000e-03,
544,0.000000e+00,-1.600000e-03,
545,8.000000e-02,1.600000e-03,
546,0.000000e+00,-1.600000e-03,
547,8.000000e-02,1.600000e-03,
548,8.000000e-02,-8.000000e-04,
549,0.000000e+00,8.000000e-04,
550,8.000000e-02,-8.000000e-04,
551,-8.000000e-02,1.600000e-03,
552,8.000000e-02,-1.600000e-03,
553,0.000000e+00,2.400000e-03,
554,8.000000e-02,-8.000000e-04,
555,0.000000e+00,1.600000e-03,
556,0.000000e+00,-8.000000e-04,
557,8.000000e-02,1.600000e-03,
558,8.000000e-02,8.000000e-04,
559,-8.000000e-02,-8.000000e-04,
560,8.000000e-02,8.000000e-04,
561,0.000000e+00,-8.000000e-04,
562,8.000000e-02,-1.520000e-02,
563,-8.000000e-02,1.040000e-02,
564,0.000000e+00,-7.999999e-03,
565,8.000000e-02,1.120000e-02,
566,8.000000e-02,-2.400000e-03,
567,-8.000000e-02,2.400000e-03,
568,8.000000e-02,1.600000e-03,
569,0.000000e+00,-1.600000e-03,
570,0.000000e+00,1.600000e-03,
571,8.000000e-02,-1.600000e-03,
572,8.000000e-02,-8.000000e-04,
573,-8.000000e-02,1.600000e-03,
574,8.000000e-02,-1.600000e-03,
575,0.000000e+00,1.600000e-03,
576,8.000000e-02,1.600000e-03,
577,-8.000000e-02,-1.600000e-03,
578,8.000000e-02,8.000000e-04,
579,-8.000000e-02,-8.000000e-04,
580,8.000000e-02,1.600000e-03,
581,-8.000000e-02,-1.600000e-03,
582,8.000000e-02,-1.600000e-03,
583,-8.000000e-02,1.600000e-03,
584,8.000000e-02,-1.600000e-03,
585,-8.000000e-02,1.600000e-03,
586,8.000000e-02,-8.000000e-04,
587,-8.000000e-02,8.000000e-04,
588,8.000000e-02,-8.000000e-04,
589,-8.000000e-02,8.000000e-04,
590,8.000000e-02,1.600000e-03,
591,-8.000000e-02,-1.600000e-03,
592,8.000000e-02,-1.600000e-03,
593,-8.000000e-02,2.400000e-03,
594,-8.000000e-02,-1.600000e-03,
595,8.000000e-02,2.400000e-03,
596,8.000000e-02,-8.000000e-04,
597,-8.000000e-02,8.000000e-04,
598,8.000000e-02,-1.600000e-03,
599,-8.000000e-02,1.600000e-03,
600,8.000000e-02,-1.600000e-03,
601,-8.000000e-02,1.600000e-03,
602,8.000000e-02,1.600000e-03,
603,-8.000000e-02,-1.600000e-03,
604,8.000000e-02,1.600000e-03,
605,-8.000000e-02,-1.600000e-03,
606,8.000000e-02,-8.000000e-04,
607,-8.000000e-02,8.000000e-04,
608,8.000000e-02,1.600000e-03,
609,-8.000000e-02,-1.600000e-03,
610,8.000000e-02,-1.600000e-03,
611,-8.000000e-02,1.600000e-03,
612,8.000000e-02,8.000000e-04,
613,-8.000000e-02,-1.600000e-03,
614,8.000000e-02,1.600000e-03,
615,-8.000000e-02,-1.600000e-03,
616,8.000000e-02,-8.000000e-04,
617,-8.000000e-02,8.000000e-04,
618,8.000000e-02,8.000000e-04,
619,-8.000000e-02,-1.600000e-03,
620,8.000000e-02,1.600000e-03,
621,-8.000000e-02,-2.400000e-03,
622,-8.000000e-02,-1.600000e-03,
623,8.000000e-02,1.600000e-03,
624,8.000000e-02,-8.000000e-04,
625,-8.000000e-02,8.000000e-04,
626,-8.000000e-02,-8.000000e-04,
627,8.000000e-02,8.000000e-04,
628,8.000000e-02,1.600000e-03,
629,-8.000000e-02,-1.600000e-03,
630,8.000000e-02,-1.600000e-03,
631,-8.000000e-02,1.600000e-03,
632,8.000000e-02,-1.600000e-03,
633,-8.000000e-02,1.600000e-03,
634,8.000000e-02,-1.600000e-03,
635,-8.000000e-02,1.600000e-03,
636,8.000000e-02,-1.600000e-03,
