实验5_脉冲放大器/data/yj6.csv

X,CH1,CH2,Start,Increment,
Sequence,Volt,Volt,-1.713600e-05,5.000000e-08,
0,0.000000e+00,0.000000e+00,
1,1.600000e-01,2.400000e-03,
2,0.000000e+00,0.000000e+00,
3,1.600000e-01,2.400000e-03,
4,0.000000e+00,2.400000e-03,
5,1.600000e-01,-8.000000e-04,
6,1.600000e-01,2.400000e-03,
7,0.000000e+00,-8.000000e-04,
8,0.000000e+00,2.400000e-03,
9,1.600000e-01,-8.000000e-04,
10,1.600000e-01,1.600000e-03,
11,0.000000e+00,0.000000e+00,
12,1.600000e-01,1.600000e-03,
13,0.000000e+00,0.000000e+00,
14,1.600000e-01,-1.600000e-03,
15,0.000000e+00,3.200000e-03,
16,0.000000e+00,2.400000e-03,
17,1.600000e-01,-8.000000e-04,
18,1.600000e-01,0.000000e+00,
19,0.000000e+00,2.400000e-03,
20,0.000000e+00,2.400000e-03,
21,1.600000e-01,-8.000000e-04,
22,0.000000e+00,0.000000e+00,
23,1.600000e-01,2.400000e-03,
24,1.600000e-01,2.400000e-03,
25,0.000000e+00,-8.000000e-04,
26,0.000000e+00,2.400000e-03,
27,1.600000e-01,-8.000000e-04,
28,1.600000e-01,-8.000000e-04,
29,0.000000e+00,2.400000e-03,
30,0.000000e+00,2.400000e-03,
31,1.600000e-01,0.000000e+00,
32,1.600000e-01,1.600000e-03,
33,0.000000e+00,0.000000e+00,
34,0.000000e+00,0.000000e+00,
35,1.600000e-01,2.400000e-03,
36,1.600000e-01,0.000000e+00,
37,0.000000e+00,2.400000e-03,
38,1.600000e-01,2.400000e-03,
39,0.000000e+00,-8.000000e-04,
40,1.600000e-01,0.000000e+00,
41,0.000000e+00,2.400000e-03,
42,0.000000e+00,0.000000e+00,
43,1.600000e-01,2.400000e-03,
44,0.000000e+00,2.400000e-03,
45,1.600000e-01,0.000000e+00,
46,0.000000e+00,0.000000e+00,
47,1.600000e-01,2.400000e-03,
48,1.600000e-01,-8.000000e-04,
49,0.000000e+00,2.400000e-03,
50,0.000000e+00,0.000000e+00,
51,1.600000e-01,2.400000e-03,
52,1.600000e-01,2.400000e-03,
53,0.000000e+00,-8.000000e-04,
54,0.000000e+00,-8.000000e-04,
55,1.600000e-01,3.200000e-03,
56,0.000000e+00,0.000000e+00,
57,1.600000e-01,2.400000e-03,
58,0.000000e+00,0.000000e+00,
59,1.600000e-01,2.400000e-03,
60,0.000000e+00,0.000000e+00,
61,1.600000e-01,1.600000e-03,
62,0.000000e+00,0.000000e+00,
63,1.600000e-01,2.400000e-03,
64,1.600000e-01,2.400000e-03,
65,0.000000e+00,-8.000000e-04,
66,1.600000e-01,-8.000000e-04,
67,0.000000e+00,3.200000e-03,
68,0.000000e+00,0.000000e+00,
69,1.600000e-01,2.400000e-03,
70,1.600000e-01,0.000000e+00,
71,0.000000e+00,2.400000e-03,
72,0.000000e+00,2.400000e-03,
73,1.600000e-01,-8.000000e-04,
74,1.600000e-01,0.000000e+00,
75,0.000000e+00,2.400000e-03,
76,1.600000e-01,0.000000e+00,
77,0.000000e+00,2.400000e-03,
78,1.600000e-01,-8.000000e-04,
79,0.000000e+00,2.400000e-03,
80,0.000000e+00,0.000000e+00,
81,1.600000e-01,2.400000e-03,
82,1.600000e-01,2.400000e-03,
83,0.000000e+00,-8.000000e-04,
84,0.000000e+00,2.400000e-03,
85,1.600000e-01,-8.000000e-04,
86,0.000000e+00,2.400000e-03,
87,1.600000e-01,0.000000e+00,
88,1.600000e-01,-8.000000e-04,
89,0.000000e+00,2.400000e-03,
90,0.000000e+00,1.600000e-03,
91,1.600000e-01,0.000000e+00,
92,0.000000e+00,0.000000e+00,
93,1.600000e-01,2.400000e-03,
94,0.000000e+00,0.000000e+00,
95,1.600000e-01,2.400000e-03,
96,1.600000e-01,0.000000e+00,
97,0.000000e+00,2.400000e-03,
98,0.000000e+00,-8.000000e-04,
99,1.600000e-01,2.400000e-03,
100,0.000000e+00,1.600000e-03,
101,1.600000e-01,0.000000e+00,
102,1.600000e-01,1.600000e-03,
103,0.000000e+00,0.000000e+00,
104,0.000000e+00,2.400000e-03,
105,1.600000e-01,0.000000e+00,
106,0.000000e+00,2.400000e-03,
107,1.600000e-01,-8.000000e-04,
108,0.000000e+00,2.400000e-03,
109,1.600000e-01,-8.000000e-04,
110,0.000000e+00,0.000000e+00,
111,1.600000e-01,2.400000e-03,
112,1.600000e-01,3.200000e-03,
113,0.000000e+00,-8.000000e-04,
114,0.000000e+00,2.400000e-03,
115,1.600000e-01,-8.000000e-04,
116,1.600000e-01,0.000000e+00,
117,0.000000e+00,2.400000e-03,
118,1.600000e-01,0.000000e+00,
119,0.000000e+00,2.400000e-03,
120,1.600000e-01,1.600000e-03,
121,0.000000e+00,0.000000e+00,
122,1.600000e-01,0.000000e+00,
123,0.000000e+00,2.400000e-03,
124,0.000000e+00,-8.000000e-04,
125,1.600000e-01,3.200000e-03,
126,1.600000e-01,2.400000e-03,
127,0.000000e+00,-8.000000e-04,
128,0.000000e+00,-8.000000e-04,
129,1.600000e-01,2.400000e-03,
130,1.600000e-01,1.600000e-03,
131,0.000000e+00,0.000000e+00,
132,1.600000e-01,2.400000e-03,
133,0.000000e+00,0.000000e+00,
134,0.000000e+00,2.400000e-03,
135,1.600000e-01,-8.000000e-04,
136,1.600000e-01,2.400000e-03,
137,0.000000e+00,-8.000000e-04,
138,1.600000e-01,0.000000e+00,
139,0.000000e+00,2.400000e-03,
140,1.600000e-01,0.000000e+00,
141,0.000000e+00,2.400000e-03,
142,1.600000e-01,2.400000e-03,
143,0.000000e+00,-8.000000e-04,
144,1.600000e-01,0.000000e+00,
145,0.000000e+00,2.400000e-03,
146,1.600000e-01,0.000000e+00,
147,0.000000e+00,2.400000e-03,
148,1.600000e-01,2.400000e-03,
149,0.000000e+00,-8.000000e-04,
150,1.600000e-01,2.400000e-03,
151,0.000000e+00,-8.000000e-04,
152,1.600000e-01,2.400000e-03,
153,0.000000e+00,-8.000000e-04,
154,1.600000e-01,0.000000e+00,
155,0.000000e+00,2.400000e-03,
156,0.000000e+00,2.400000e-03,
157,1.600000e-01,-8.000000e-04,
158,1.600000e-01,1.600000e-03,
159,0.000000e+00,0.000000e+00,
160,1.600000e-01,0.000000e+00,
161,0.000000e+00,2.400000e-03,
162,0.000000e+00,0.000000e+00,
163,1.600000e-01,2.400000e-03,
164,0.000000e+00,-8.000000e-04,
165,1.600000e-01,3.200000e-03,
166,1.600000e-01,2.400000e-03,
167,0.000000e+00,-8.000000e-04,
168,1.600000e-01,0.000000e+00,
169,0.000000e+00,2.400000e-03,
170,1.600000e-01,8.000000e-04,
171,0.000000e+00,1.600000e-03,
172,1.600000e-01,0.000000e+00,
173,0.000000e+00,2.400000e-03,
174,1.600000e-01,0.000000e+00,
175,0.000000e+00,2.400000e-03,
176,0.000000e+00,-8.000000e-04,
177,1.600000e-01,2.400000e-03,
178,1.600000e-01,0.000000e+00,
179,0.000000e+00,2.400000e-03,
180,1.600000e-01,0.000000e+00,
181,0.000000e+00,2.400000e-03,
182,0.000000e+00,2.400000e-03,
183,1.600000e-01,-8.000000e-04,
184,1.600000e-01,0.000000e+00,
185,0.000000e+00,2.400000e-03,
186,0.000000e+00,2.400000e-03,
187,1.600000e-01,-8.000000e-04,
188,0.000000e+00,2.400000e-03,
189,1.600000e-01,0.000000e+00,
190,0.000000e+00,0.000000e+00,
191,1.600000e-01,2.400000e-03,
192,0.000000e+00,3.200000e-03,
193,1.600000e-01,-8.000000e-04,
194,1.600000e-01,-8.000000e-04,
195,0.000000e+00,2.400000e-03,
196,1.600000e-01,0.000000e+00,
197,0.000000e+00,2.400000e-03,
198,0.000000e+00,0.000000e+00,
199,1.600000e-01,2.400000e-03,
200,0.000000e+00,1.600000e-03,
201,1.600000e-01,0.000000e+00,
202,0.000000e+00,2.400000e-03,
203,1.600000e-01,-8.000000e-04,
204,1.600000e-01,2.400000e-03,
205,0.000000e+00,-8.000000e-04,
206,0.000000e+00,-8.000000e-04,
207,1.600000e-01,2.400000e-03,
208,0.000000e+00,0.000000e+00,
209,1.600000e-01,2.400000e-03,
210,1.600000e-01,0.000000e+00,
211,0.000000e+00,3.200000e-03,
212,0.000000e+00,0.000000e+00,
213,1.600000e-01,2.400000e-03,
214,1.600000e-01,0.000000e+00,
215,0.000000e+00,2.400000e-03,
216,0.000000e+00,-8.000000e-04,
217,1.600000e-01,2.400000e-03,
218,8.000000e-02,0.000000e+00,
219,1.600000e-01,2.400000e-03,
220,1.600000e-01,0.000000e+00,
221,0.000000e+00,2.400000e-03,
222,0.000000e+00,2.400000e-03,
223,1.600000e-01,-8.000000e-04,
224,1.600000e-01,0.000000e+00,
225,0.000000e+00,2.400000e-03,
226,1.600000e-01,0.000000e+00,
227,0.000000e+00,2.400000e-03,
228,1.600000e-01,0.000000e+00,
229,0.000000e+00,2.400000e-03,
230,0.000000e+00,2.400000e-03,
231,1.600000e-01,0.000000e+00,
232,0.000000e+00,2.400000e-03,
233,1.600000e-01,-8.000000e-04,
234,1.600000e-01,2.400000e-03,
235,0.000000e+00,-8.000000e-04,
236,0.000000e+00,0.000000e+00,
237,1.600000e-01,2.400000e-03,
238,0.000000e+00,1.600000e-03,
239,1.600000e-01,0.000000e+00,
240,0.000000e+00,0.000000e+00,
241,1.600000e-01,2.400000e-03,
242,1.600000e-01,0.000000e+00,
243,0.000000e+00,2.400000e-03,
244,0.000000e+00,2.400000e-03,
245,1.600000e-01,-8.000000e-04,
246,0.000000e+00,3.200000e-03,
247,1.600000e-01,-8.000000e-04,
248,0.000000e+00,2.400000e-03,
249,1.600000e-01,0.000000e+00,
250,1.600000e-01,0.000000e+00,
251,0.000000e+00,2.400000e-03,
252,1.600000e-01,0.000000e+00,
253,0.000000e+00,2.400000e-03,
254,0.000000e+00,0.000000e+00,
255,1.600000e-01,2.400000e-03,
256,0.000000e+00,2.400000e-03,
257,1.600000e-01,-8.000000e-04,
258,0.000000e+00,2.400000e-03,
259,1.600000e-01,-8.000000e-04,
260,0.000000e+00,-1.600000e-03,
261,1.600000e-01,4.000000e-03,
262,1.600000e-01,-1.360000e-02,
263,0.000000e+00,1.360000e-02,
264,1.600000e-01,3.200000e-03,
265,0.000000e+00,-1.600000e-03,
266,1.600000e-01,3.200000e-03,
267,0.000000e+00,0.000000e+00,
268,0.000000e+00,2.400000e-03,
269,1.600000e-01,0.000000e+00,
270,1.600000e-01,2.400000e-03,
271,0.000000e+00,0.000000e+00,
272,1.600000e-01,2.400000e-03,
273,0.000000e+00,-8.000000e-04,
274,1.600000e-01,3.200000e-03,
275,0.000000e+00,-8.000000e-04,
276,1.600000e-01,2.400000e-03,
277,0.000000e+00,-8.000000e-04,
278,0.000000e+00,0.000000e+00,
279,1.600000e-01,2.400000e-03,
280,1.600000e-01,2.400000e-03,
281,0.000000e+00,-8.000000e-04,
282,0.000000e+00,2.400000e-03,
283,1.600000e-01,-8.000000e-04,
284,0.000000e+00,2.400000e-03,
285,1.600000e-01,0.000000e+00,
286,8.000000e-02,2.400000e-03,
287,1.600000e-01,0.000000e+00,
288,1.600000e-01,2.400000e-03,
289,0.000000e+00,-8.000000e-04,
290,1.600000e-01,2.400000e-03,
291,0.000000e+00,-8.000000e-04,
292,1.600000e-01,2.400000e-03,
293,0.000000e+00,-8.000000e-04,
294,0.000000e+00,2.400000e-03,
295,1.600000e-01,0.000000e+00,
296,0.000000e+00,0.000000e+00,
297,1.600000e-01,2.400000e-03,
298,0.000000e+00,0.000000e+00,
299,1.600000e-01,2.400000e-03,
300,0.000000e+00,-8.000000e-04,
301,1.600000e-01,2.400000e-03,
302,0.000000e+00,2.400000e-03,
303,1.600000e-01,-8.000000e-04,
304,1.600000e-01,2.400000e-03,
305,0.000000e+00,-8.000000e-04,
306,1.600000e-01,2.400000e-03,
307,0.000000e+00,-8.000000e-04,
308,1.600000e-01,1.600000e-03,
309,0.000000e+00,0.000000e+00,
310,0.000000e+00,0.000000e+00,
311,1.600000e-01,2.400000e-03,
312,0.000000e+00,2.400000e-03,
313,1.600000e-01,-8.000000e-04,
314,0.000000e+00,2.400000e-03,
315,1.600000e-01,0.000000e+00,
316,1.600000e-01,0.000000e+00,
317,0.000000e+00,2.400000e-03,
318,0.000000e+00,0.000000e+00,
319,1.600000e-01,2.400000e-03,
320,0.000000e+00,2.400000e-03,
321,1.600000e-01,0.000000e+00,
322,8.000000e-02,2.400000e-03,
323,1.600000e-01,-8.000000e-04,
324,8.000000e-02,1.600000e-03,
325,2.400000e-01,-1.600000e-03,
326,1.600000e-01,0.000000e+00,
327,4.000000e-01,-3.200000e-03,
328,3.200000e-01,-1.600000e-03,
329,6.400000e-01,-5.600000e-03,
330,5.600000e-01,-3.200000e-03,
331,9.600000e-01,-7.999999e-03,
332,8.800000e-01,-6.400000e-03,
333,1.360000e+00,-1.120000e-02,
334,1.280000e+00,-9.600000e-03,
335,1.920000e+00,-1.520000e-02,
336,1.840000e+00,-1.360000e-02,
337,2.480000e+00,-2.000000e-02,
338,2.480000e+00,-1.760000e-02,
339,3.200000e+00,-2.320000e-02,
340,3.120000e+00,-2.320000e-02,
341,3.920000e+00,-2.880000e-02,
342,3.840000e+00,-2.640000e-02,
343,4.640000e+00,-3.360000e-02,
344,4.560000e+00,-3.120000e-02,
345,5.360000e+00,-3.760000e-02,
346,5.360000e+00,-3.520000e-02,
347,6.160000e+00,-4.160000e-02,
348,6.080000e+00,-4.080000e-02,
349,6.800000e+00,-4.560000e-02,
350,6.800000e+00,-4.400000e-02,
351,7.520000e+00,-4.960000e-02,
352,7.440000e+00,-4.720000e-02,
353,8.080000e+00,-5.280000e-02,
354,8.000000e+00,-5.040000e-02,
355,8.559999e+00,-5.520000e-02,
356,8.559999e+00,-5.360000e-02,
357,9.040000e+00,-5.680000e-02,
358,9.040000e+00,-5.600000e-02,
359,9.440000e+00,-5.920000e-02,
360,9.360000e+00,-5.680000e-02,
361,9.679999e+00,-6.000000e-02,
362,9.599999e+00,-5.840000e-02,
363,9.840000e+00,-6.080000e-02,
364,9.760000e+00,-5.840000e-02,
365,1.000000e+01,-6.080000e-02,
366,9.920000e+00,-6.080000e-02,
367,1.008000e+01,-5.840000e-02,
368,1.000000e+01,-6.000000e-02,
369,1.008000e+01,-5.840000e-02,
370,1.008000e+01,-6.000000e-02,
371,9.920000e+00,-5.680000e-02,
372,1.000000e+01,-6.000000e-02,
373,9.760000e+00,-5.520000e-02,
374,9.840000e+00,-5.840000e-02,
375,9.599999e+00,-5.520000e-02,
376,9.679999e+00,-5.680000e-02,
377,9.440000e+00,-5.360000e-02,
378,9.440000e+00,-5.520000e-02,
379,9.200000e+00,-5.120000e-02,
380,9.200000e+00,-5.280000e-02,
381,8.880000e+00,-4.960000e-02,
382,8.880000e+00,-5.120000e-02,
383,8.559999e+00,-4.720000e-02,
384,8.639999e+00,-4.960000e-02,
385,8.240000e+00,-4.560000e-02,
386,8.320000e+00,-4.720000e-02,
387,7.920000e+00,-4.320000e-02,
388,7.920000e+00,-4.480000e-02,
389,7.600000e+00,-4.160000e-02,
390,7.600000e+00,-4.320000e-02,
391,7.200000e+00,-3.920000e-02,
392,7.280000e+00,-4.080000e-02,
393,6.880000e+00,-3.680000e-02,
394,6.960000e+00,-3.920000e-02,
395,6.560000e+00,-3.440000e-02,
396,6.560000e+00,-3.680000e-02,
397,6.160000e+00,-3.280000e-02,
398,6.240000e+00,-3.440000e-02,
399,5.840000e+00,-3.040000e-02,
400,5.920000e+00,-3.280000e-02,
401,5.520000e+00,-2.800000e-02,
402,5.600000e+00,-3.040000e-02,
403,5.200000e+00,-2.720000e-02,
404,5.280000e+00,-2.800000e-02,
405,4.880000e+00,-2.480000e-02,
406,4.960000e+00,-2.720000e-02,
407,4.640000e+00,-2.320000e-02,
408,4.640000e+00,-2.480000e-02,
409,4.320000e+00,-2.160000e-02,
410,4.400000e+00,-2.400000e-02,
411,4.000000e+00,-1.920000e-02,
412,4.080000e+00,-2.240000e-02,
413,3.760000e+00,-1.920000e-02,
414,3.840000e+00,-2.080000e-02,
415,3.600000e+00,-1.760000e-02,
416,3.600000e+00,-1.920000e-02,
417,3.280000e+00,-1.600000e-02,
418,3.360000e+00,-1.760000e-02,
419,3.120000e+00,-1.520000e-02,
420,3.120000e+00,-1.680000e-02,
421,2.880000e+00,-1.360000e-02,
422,2.960000e+00,-1.600000e-02,
423,2.720000e+00,-1.280000e-02,
424,2.720000e+00,-1.440000e-02,
425,2.560000e+00,-1.120000e-02,
426,2.560000e+00,-1.360000e-02,
427,2.320000e+00,-1.040000e-02,
428,2.400000e+00,-1.280000e-02,
429,2.160000e+00,-9.600000e-03,
430,2.240000e+00,-1.120000e-02,
431,2.000000e+00,-9.600000e-03,
432,2.080000e+00,-1.120000e-02,
433,1.920000e+00,-7.999999e-03,
434,1.920000e+00,-9.600000e-03,
435,1.760000e+00,-7.200000e-03,
436,1.840000e+00,-9.600000e-03,
437,1.680000e+00,-7.200000e-03,
438,1.680000e+00,-6.400000e-03,
439,1.520000e+00,-8.800000e-03,
440,1.600000e+00,-7.999999e-03,
441,1.440000e+00,-4.800000e-03,
442,1.520000e+00,-7.999999e-03,
443,1.280000e+00,-4.800000e-03,
444,1.360000e+00,-6.400000e-03,
445,1.200000e+00,-4.000000e-03,
446,1.280000e+00,-6.400000e-03,
447,1.120000e+00,-4.000000e-03,
448,1.200000e+00,-5.600000e-03,
449,1.040000e+00,-4.000000e-03,
450,1.120000e+00,-5.600000e-03,
451,9.600000e-01,-3.200000e-03,
452,1.040000e+00,-4.800000e-03,
453,8.800000e-01,-2.400000e-03,
454,9.600000e-01,-4.800000e-03,
455,8.800000e-01,-2.400000e-03,
456,8.000000e-01,-4.800000e-03,
457,9.600000e-01,-1.600000e-03,
458,8.800000e-01,-4.800000e-03,
459,7.200000e-01,-1.600000e-03,
460,8.000000e-01,-1.600000e-03,
461,6.400000e-01,-4.000000e-03,
462,6.400000e-01,-3.200000e-03,
463,8.000000e-01,-1.600000e-03,
464,7.200000e-01,-3.200000e-03,
465,5.600000e-01,-8.000000e-04,
466,6.400000e-01,-8.000000e-04,
467,5.600000e-01,-3.200000e-03,
468,6.400000e-01,-3.200000e-03,
469,4.800000e-01,0.000000e+00,
470,5.600000e-01,-2.400000e-03,
471,4.000000e-01,0.000000e+00,
472,5.600000e-01,-2.400000e-03,
473,4.000000e-01,0.000000e+00,
474,4.800000e-01,-1.600000e-03,
475,4.000000e-01,0.000000e+00,
476,4.800000e-01,0.000000e+00,
477,3.200000e-01,-1.600000e-03,
478,4.800000e-01,-1.600000e-03,
479,3.200000e-01,8.000000e-04,
480,4.000000e-01,-2.400000e-03,
481,2.400000e-01,8.000000e-04,
482,3.200000e-01,-1.600000e-03,
483,4.000000e-01,8.000000e-04,
484,4.000000e-01,-1.600000e-03,
485,2.400000e-01,1.600000e-03,
486,2.400000e-01,-1.600000e-03,
487,4.000000e-01,1.600000e-03,
488,2.400000e-01,8.000000e-04,
489,3.200000e-01,-1.600000e-03,
490,3.200000e-01,-8.000000e-04,
491,1.600000e-01,1.600000e-03,
492,1.600000e-01,-8.000000e-04,
493,3.200000e-01,1.600000e-03,
494,1.600000e-01,-8.000000e-04,
495,3.200000e-01,1.600000e-03,
496,1.600000e-01,-8.000000e-04,
497,2.400000e-01,1.600000e-03,
498,2.400000e-01,-1.600000e-03,
499,8.000000e-02,2.400000e-03,
500,2.400000e-01,-8.000000e-04,
501,8.000000e-02,2.400000e-03,
502,8.000000e-02,-8.000000e-04,
503,2.400000e-01,1.600000e-03,
504,8.000000e-02,0.000000e+00,
505,2.400000e-01,1.600000e-03,
506,8.000000e-02,1.600000e-03,
507,2.400000e-01,-8.000000e-04,
508,8.000000e-02,-8.000000e-04,
509,2.400000e-01,2.400000e-03,
510,8.000000e-02,-8.000000e-04,
511,1.600000e-01,2.400000e-03,
512,8.000000e-02,1.600000e-03,
513,1.600000e-01,-8.000000e-04,
514,8.000000e-02,0.000000e+00,
515,1.600000e-01,2.400000e-03,
516,8.000000e-02,0.000000e+00,
517,1.600000e-01,2.400000e-03,
518,1.600000e-01,0.000000e+00,
519,0.000000e+00,2.400000e-03,
520,1.600000e-01,2.400000e-03,
521,0.000000e+00,-8.000000e-04,
522,0.000000e+00,2.400000e-03,
523,1.600000e-01,-8.000000e-04,
524,0.000000e+00,2.400000e-03,
525,1.600000e-01,0.000000e+00,
526,8.000000e-02,2.400000e-03,
527,0.000000e+00,-8.000000e-04,
528,8.000000e-02,0.000000e+00,
529,0.000000e+00,2.400000e-03,
530,0.000000e+00,2.400000e-03,
531,8.000000e-02,0.000000e+00,
532,8.000000e-02,0.000000e+00,
533,0.000000e+00,2.400000e-03,
534,0.000000e+00,2.400000e-03,
535,8.000000e-02,0.000000e+00,
536,0.000000e+00,0.000000e+00,
537,8.000000e-02,3.200000e-03,
538,0.000000e+00,2.400000e-03,
539,8.000000e-02,0.000000e+00,
540,0.000000e+00,2.400000e-03,
541,8.000000e-02,0.000000e+00,
542,0.000000e+00,2.400000e-03,
543,8.000000e-02,0.000000e+00,
544,8.000000e-02,2.400000e-03,
545,0.000000e+00,0.000000e+00,
546,8.000000e-02,8.000000e-04,
547,-8.000000e-02,2.400000e-03,
548,8.000000e-02,0.000000e+00,
549,-8.000000e-02,2.400000e-03,
550,8.000000e-02,2.400000e-03,
551,-8.000000e-02,0.000000e+00,
552,0.000000e+00,0.000000e+00,
553,8.000000e-02,2.400000e-03,
554,0.000000e+00,0.000000e+00,
555,8.000000e-02,3.200000e-03,
556,0.000000e+00,0.000000e+00,
557,8.000000e-02,2.400000e-03,
558,8.000000e-02,2.400000e-03,
559,-8.000000e-02,-8.000000e-04,
560,8.000000e-02,2.400000e-03,
561,-8.000000e-02,0.000000e+00,
562,8.000000e-02,2.400000e-03,
563,-8.000000e-02,0.000000e+00,
564,8.000000e-02,2.400000e-03,
565,-8.000000e-02,0.000000e+00,
566,8.000000e-02,3.200000e-03,
567,-8.000000e-02,-8.000000e-04,
568,8.000000e-02,8.000000e-04,
569,-8.000000e-02,3.200000e-03,
570,0.000000e+00,2.400000e-03,
571,8.000000e-02,8.000000e-04,
572,0.000000e+00,2.400000e-03,
573,8.000000e-02,0.000000e+00,
574,-8.000000e-02,0.000000e+00,
575,8.000000e-02,2.400000e-03,
576,8.000000e-02,0.000000e+00,
577,-8.000000e-02,3.200000e-03,
578,8.000000e-02,0.000000e+00,
579,-8.000000e-02,3.200000e-03,
580,0.000000e+00,2.400000e-03,
581,8.000000e-02,0.000000e+00,
582,8.000000e-02,2.400000e-03,
583,-8.000000e-02,8.000000e-04,
584,-8.000000e-02,2.400000e-03,
585,8.000000e-02,0.000000e+00,
586,-8.000000e-02,8.000000e-04,
587,8.000000e-02,2.400000e-03,
588,8.000000e-02,0.000000e+00,
589,-8.000000e-02,3.200000e-03,
590,8.000000e-02,0.000000e+00,
591,-8.000000e-02,3.200000e-03,
592,8.000000e-02,2.400000e-03,
593,-8.000000e-02,0.000000e+00,
594,8.000000e-02,0.000000e+00,
595,-8.000000e-02,3.200000e-03,
596,8.000000e-02,0.000000e+00,
597,-8.000000e-02,3.200000e-03,
598,-8.000000e-02,2.400000e-03,
599,8.000000e-02,8.000000e-04,
600,8.000000e-02,2.400000e-03,
601,-8.000000e-02,0.000000e+00,
602,-8.000000e-02,2.400000e-03,
603,8.000000e-02,0.000000e+00,
604,8.000000e-02,8.000000e-04,
605,-8.000000e-02,3.200000e-03,
606,-8.000000e-02,3.200000e-03,
607,8.000000e-02,0.000000e+00,
608,8.000000e-02,3.200000e-03,
609,-8.000000e-02,0.000000e+00,
610,8.000000e-02,-1.200000e-02,
611,-8.000000e-02,1.440000e-02,
612,-8.000000e-02,-4.000000e-03,
613,8.000000e-02,7.999999e-03,
614,-8.000000e-02,-1.600000e-03,
615,8.000000e-02,4.800000e-03,
616,8.000000e-02,4.000000e-03,
617,-8.000000e-02,-8.000000e-04,
618,8.000000e-02,3.200000e-03,
619,-8.000000e-02,0.000000e+00,
620,8.000000e-02,2.400000e-03,
621,-8.000000e-02,8.000000e-04,
622,-8.000000e-02,2.400000e-03,
623,8.000000e-02,0.000000e+00,
624,-8.000000e-02,2.400000e-03,
625,8.000000e-02,0.000000e+00,
626,-8.000000e-02,2.400000e-03,
627,8.000000e-02,8.000000e-04,
628,8.000000e-02,8.000000e-04,
629,-8.000000e-02,3.200000e-03,
630,-8.000000e-02,8.000000e-04,
631,8.000000e-02,2.400000e-03,
632,8.000000e-02,-8.000000e-04,
633,-8.000000e-02,3.200000e-03,
634,8.000000e-02,0.000000e+00,
635,-8.000000e-02,3.200000e-03,
636,-8.000000e-02,2.400000e-03,
