近物实验1_非线性物理/数据处理/Part3/20000101_035550.csv

Channel              :,CH1,CH2
Frequency            :,2.500KHz,2.083KHz
Period               :,0.400ms,0.480ms
PK-PK                :,11.18V,594.0mV
Average              :,120.9mV,-15.14mV
Vertical pos         :,360.000000mV,0.000000mV
Probe attenuation    :,1X,1X
Voltage per ADC value:,5.000000mV,0.250000mV
Time interval        :,1.00000uS,1.00000uS

index,CH1_Voltage(mV),CH2_Voltage(mV)
1,0.000000,0.000000
2,4255.000000,-167.250000
3,4215.000000,-168.750000
4,4175.000000,-167.250000
5,4160.000000,-162.750000
6,4120.000000,-163.250000
7,4110.000000,-165.250000
8,4070.000000,-163.250000
9,4050.000000,-163.750000
10,4010.000000,-163.250000
11,3975.000000,-161.250000
12,3925.000000,-160.250000
13,3890.000000,-155.250000
14,3865.000000,-151.250000
15,3820.000000,-153.750000
16,3795.000000,-156.250000
17,3755.000000,-150.750000
18,3695.000000,-149.250000
19,3660.000000,-147.250000
20,3600.000000,-147.250000
21,3570.000000,-141.750000
22,3520.000000,-140.250000
23,3490.000000,-139.250000
24,3440.000000,-141.250000
25,3385.000000,-133.750000
26,3325.000000,-131.250000
27,3300.000000,-125.750000
28,3230.000000,-127.250000
29,3180.000000,-120.750000
30,3110.000000,-122.750000
31,3080.000000,-121.750000
32,3015.000000,-117.250000
33,2960.000000,-115.250000
34,2910.000000,-107.750000
35,2830.000000,-110.250000
36,2770.000000,-108.250000
37,2720.000000,-103.750000
38,2665.000000,-97.750000
39,2585.000000,-99.750000
40,2530.000000,-95.250000
41,2480.000000,-94.750000
42,2395.000000,-92.250000
43,2335.000000,-89.250000
44,2285.000000,-87.250000
45,2205.000000,-85.250000
46,2130.000000,-78.250000
47,2070.000000,-77.750000
48,2000.000000,-70.750000
49,1925.000000,-69.750000
50,1880.000000,-69.250000
51,1805.000000,-65.750000
52,1710.000000,-67.750000
53,1655.000000,-59.750000
54,1585.000000,-57.250000
55,1500.000000,-52.250000
56,1420.000000,-50.250000
57,1355.000000,-49.250000
58,1290.000000,-42.250000
59,1195.000000,-40.750000
60,1120.000000,-37.750000
61,1060.000000,-31.250000
62,1000.000000,-32.250000
63,915.000000,-30.250000
64,830.000000,-20.750000
65,765.000000,-20.750000
66,675.000000,-17.750000
67,590.000000,-13.750000
68,525.000000,-9.750000
69,450.000000,-9.250000
70,350.000000,-4.750000
71,270.000000,2.750000
72,195.000000,2.250000
73,120.000000,7.250000
74,35.000000,12.250000
75,-30.000000,15.750000
76,-100.000000,18.750000
77,-220.000000,17.250000
78,-290.000000,25.750000
79,-360.000000,31.250000
80,-455.000000,30.750000
81,-530.000000,32.250000
82,-605.000000,39.750000
83,-690.000000,43.250000
84,-770.000000,45.750000
85,-840.000000,50.250000
86,-925.000000,52.750000
87,-1015.000000,58.750000
88,-1085.000000,61.250000
89,-1155.000000,62.750000
90,-1245.000000,68.750000
91,-1340.000000,72.250000
92,-1415.000000,72.250000
93,-1510.000000,75.250000
94,-1585.000000,83.250000
95,-1670.000000,86.750000
96,-1755.000000,89.750000
97,-1825.000000,95.750000
98,-1910.000000,97.750000
99,-2000.000000,98.750000
100,-2065.000000,103.750000
101,-2140.000000,105.250000
102,-2240.000000,107.750000
103,-2300.000000,113.750000
104,-2385.000000,118.750000
105,-2460.000000,124.250000
106,-2535.000000,126.250000
107,-2630.000000,128.750000
108,-2710.000000,134.250000
109,-2780.000000,138.250000
110,-2855.000000,140.250000
111,-2935.000000,143.750000
112,-3005.000000,146.250000
113,-3090.000000,152.750000
114,-3140.000000,155.250000
115,-3235.000000,156.750000
116,-3315.000000,157.750000
117,-3370.000000,159.750000
118,-3425.000000,148.750000
119,-3495.000000,137.250000
120,-3535.000000,132.250000
121,-3545.000000,121.250000
122,-3605.000000,120.750000
123,-3610.000000,120.250000
124,-3630.000000,112.250000
125,-3615.000000,109.750000
126,-3630.000000,113.250000
127,-3645.000000,104.250000
128,-3640.000000,98.750000
129,-3655.000000,106.750000
130,-3655.000000,112.250000
131,-3670.000000,106.250000
132,-3665.000000,106.250000
133,-3640.000000,102.750000
134,-3665.000000,100.750000
135,-3640.000000,102.750000
136,-3655.000000,103.750000
137,-3650.000000,102.750000
138,-3665.000000,101.750000
139,-3640.000000,108.250000
140,-3660.000000,105.750000
141,-3650.000000,106.250000
142,-3635.000000,122.250000
143,-3650.000000,106.250000
144,-3640.000000,114.250000
145,-3625.000000,108.250000
146,-3625.000000,109.750000
147,-3615.000000,109.750000
148,-3615.000000,114.750000
149,-3600.000000,111.250000
150,-3605.000000,112.750000
151,-3615.000000,112.250000
152,-3610.000000,113.750000
153,-3590.000000,112.750000
154,-3610.000000,114.250000
155,-3610.000000,118.250000
156,-3600.000000,119.750000
157,-3585.000000,115.250000
158,-3570.000000,119.250000
159,-3555.000000,124.250000
160,-3580.000000,120.250000
161,-3575.000000,121.750000
162,-3540.000000,122.750000
163,-3545.000000,125.250000
164,-3565.000000,126.750000
165,-3540.000000,130.250000
166,-3535.000000,129.750000
167,-3525.000000,130.250000
168,-3525.000000,131.750000
169,-3525.000000,131.750000
170,-3515.000000,132.250000
171,-3520.000000,130.750000
172,-3490.000000,132.750000
173,-3500.000000,137.750000
174,-3485.000000,136.750000
175,-3485.000000,136.250000
176,-3480.000000,141.250000
177,-3480.000000,141.750000
178,-3470.000000,142.250000
179,-3445.000000,140.750000
180,-3440.000000,143.750000
181,-3455.000000,143.750000
182,-3445.000000,148.250000
183,-3415.000000,149.750000
184,-3415.000000,150.750000
185,-3410.000000,151.250000
186,-3395.000000,154.250000
187,-3395.000000,153.750000
188,-3395.000000,156.750000
189,-3380.000000,158.750000
190,-3385.000000,158.250000
191,-3385.000000,160.250000
192,-3375.000000,162.250000
193,-3355.000000,163.250000
194,-3350.000000,164.250000
195,-3345.000000,167.250000
196,-3335.000000,166.750000
197,-3340.000000,169.250000
198,-3330.000000,171.750000
199,-3305.000000,171.250000
200,-3300.000000,171.750000
201,-3290.000000,178.250000
202,-3295.000000,178.250000
203,-3280.000000,168.750000
204,-3245.000000,161.750000
205,-3240.000000,157.750000
206,-3210.000000,158.750000
207,-3165.000000,156.750000
208,-3160.000000,156.750000
209,-3120.000000,154.750000
210,-3090.000000,155.750000
211,-3060.000000,153.250000
212,-3020.000000,150.250000
213,-3015.000000,144.250000
214,-2975.000000,149.750000
215,-2935.000000,149.750000
216,-2895.000000,144.250000
217,-2850.000000,144.750000
218,-2815.000000,142.750000
219,-2775.000000,133.750000
220,-2720.000000,138.750000
221,-2685.000000,139.250000
222,-2635.000000,134.750000
223,-2590.000000,134.250000
224,-2510.000000,134.250000
225,-2480.000000,131.250000
226,-2435.000000,122.750000
227,-2395.000000,120.750000
228,-2340.000000,124.250000
229,-2310.000000,118.750000
230,-2235.000000,117.250000
231,-2170.000000,117.750000
232,-2135.000000,113.750000
233,-2095.000000,109.750000
234,-2010.000000,107.250000
235,-1965.000000,106.750000
236,-1895.000000,104.250000
237,-1855.000000,101.250000
238,-1780.000000,94.750000
239,-1730.000000,97.750000
240,-1660.000000,88.250000
241,-1610.000000,90.250000
242,-1555.000000,84.750000
243,-1490.000000,88.250000
244,-1420.000000,84.250000
245,-1350.000000,79.250000
246,-1295.000000,78.750000
247,-1235.000000,75.750000
248,-1135.000000,65.750000
249,-1100.000000,69.250000
250,-1035.000000,66.250000
251,-975.000000,59.750000
252,-895.000000,60.250000
253,-820.000000,59.250000
254,-765.000000,54.750000
255,-690.000000,51.250000
256,-625.000000,49.750000
257,-545.000000,43.250000
258,-480.000000,39.250000
259,-405.000000,39.750000
260,-330.000000,32.250000
261,-255.000000,32.250000
262,-180.000000,30.250000
263,-120.000000,27.250000
264,-35.000000,21.250000
265,25.000000,19.750000
266,105.000000,18.750000
267,175.000000,14.750000
268,225.000000,10.750000
269,305.000000,7.250000
270,395.000000,3.250000
271,475.000000,0.250000
272,540.000000,-9.750000
273,620.000000,-7.250000
274,685.000000,-7.250000
275,770.000000,-13.750000
276,835.000000,-16.250000
277,915.000000,-18.750000
278,985.000000,-19.750000
279,1060.000000,-23.250000
280,1115.000000,-29.250000
281,1195.000000,-31.750000
282,1280.000000,-35.250000
283,1345.000000,-33.250000
284,1420.000000,-45.250000
285,1480.000000,-45.750000
286,1545.000000,-49.250000
287,1640.000000,-49.250000
288,1705.000000,-54.750000
289,1780.000000,-57.750000
290,1855.000000,-60.250000
291,1905.000000,-64.250000
292,1975.000000,-67.750000
293,2050.000000,-66.250000
294,2120.000000,-76.250000
295,2190.000000,-71.250000
296,2245.000000,-77.750000
297,2315.000000,-86.250000
298,2390.000000,-89.250000
299,2480.000000,-87.250000
300,2535.000000,-92.750000
301,2595.000000,-96.250000
302,2645.000000,-95.750000
303,2725.000000,-97.250000
304,2790.000000,-101.750000
305,2840.000000,-105.250000
306,2930.000000,-107.250000
307,2960.000000,-115.750000
308,3035.000000,-114.250000
309,3090.000000,-117.250000
310,3140.000000,-119.750000
311,3205.000000,-121.750000
312,3270.000000,-126.750000
313,3325.000000,-125.750000
314,3395.000000,-128.750000
315,3425.000000,-130.250000
316,3495.000000,-135.750000
317,3555.000000,-134.750000
318,3600.000000,-138.750000
319,3665.000000,-143.250000
320,3730.000000,-143.750000
321,3745.000000,-145.750000
322,3810.000000,-150.750000
323,3865.000000,-154.750000
324,3915.000000,-153.750000
325,3955.000000,-155.250000
326,4005.000000,-156.250000
327,4035.000000,-157.250000
328,4100.000000,-163.250000
329,4140.000000,-161.750000
330,4180.000000,-161.250000
331,4235.000000,-167.250000
332,4260.000000,-165.250000
333,4325.000000,-168.250000
334,4350.000000,-172.250000
335,4385.000000,-172.750000
336,4415.000000,-175.250000
337,4455.000000,-177.750000
338,4485.000000,-179.750000
339,4530.000000,-182.250000
340,4545.000000,-180.750000
341,4595.000000,-184.750000
342,4610.000000,-188.750000
343,4635.000000,-186.250000
344,4665.000000,-186.250000
345,4695.000000,-190.750000
346,4725.000000,-186.750000
347,4745.000000,-189.250000
348,4760.000000,-191.250000
349,4790.000000,-194.250000
350,4810.000000,-193.250000
351,4830.000000,-195.750000
352,4835.000000,-193.750000
353,4880.000000,-193.750000
354,4885.000000,-199.250000
355,4900.000000,-197.750000
356,4905.000000,-197.750000
357,4905.000000,-193.750000
358,4915.000000,-201.250000
359,4940.000000,-198.750000
360,4960.000000,-198.250000
361,4965.000000,-200.750000
362,4970.000000,-202.250000
363,4960.000000,-198.750000
364,4965.000000,-199.750000
365,4985.000000,-199.250000
366,4970.000000,-202.250000
367,4980.000000,-201.750000
368,4965.000000,-199.250000
369,4975.000000,-204.250000
370,4975.000000,-199.750000
371,4965.000000,-199.250000
372,4965.000000,-200.750000
373,4940.000000,-201.250000
374,4945.000000,-205.750000
375,4930.000000,-199.750000
376,4920.000000,-198.750000
377,4900.000000,-196.250000
378,4895.000000,-195.250000
379,4880.000000,-195.750000
380,4855.000000,-197.250000
381,4850.000000,-195.750000
382,4825.000000,-193.750000
383,4800.000000,-195.750000
384,4785.000000,-196.250000
385,4745.000000,-193.250000
386,4730.000000,-191.250000
387,4720.000000,-191.250000
388,4685.000000,-190.250000
389,4640.000000,-184.750000
390,4640.000000,-196.250000
391,4625.000000,-184.250000
392,4575.000000,-186.750000
393,4525.000000,-181.750000
394,4515.000000,-185.250000
395,4470.000000,-181.750000
396,4410.000000,-181.750000
397,4375.000000,-176.750000
398,4355.000000,-179.750000
399,4315.000000,-177.250000
400,4270.000000,-174.250000
401,4230.000000,-172.250000
402,4200.000000,-172.750000
403,4140.000000,-165.750000
404,4100.000000,-167.250000
405,4055.000000,-162.250000
406,4005.000000,-159.250000
407,3955.000000,-162.750000
408,3910.000000,-160.750000
409,3860.000000,-155.750000
410,3795.000000,-153.750000
411,3735.000000,-148.750000
412,3710.000000,-150.250000
413,3650.000000,-148.750000
414,3580.000000,-146.250000
415,3560.000000,-143.250000
416,3470.000000,-137.250000
417,3405.000000,-136.250000
418,3350.000000,-134.750000
419,3280.000000,-131.250000
420,3230.000000,-130.750000
421,3160.000000,-122.750000
422,3095.000000,-121.750000
423,3025.000000,-118.750000
424,2965.000000,-117.250000
425,2900.000000,-114.250000
426,2840.000000,-109.750000
427,2760.000000,-109.250000
428,2690.000000,-99.750000
429,2630.000000,-101.250000
430,2550.000000,-99.250000
431,2485.000000,-95.750000
432,2440.000000,-91.250000
433,2335.000000,-89.250000
434,2270.000000,-85.250000
435,2180.000000,-83.750000
436,2105.000000,-79.750000
437,2035.000000,-77.750000
438,1970.000000,-71.750000
439,1885.000000,-71.250000
440,1805.000000,-62.250000
441,1735.000000,-63.750000
442,1645.000000,-57.750000
443,1565.000000,-51.750000
444,1500.000000,-51.250000
445,1415.000000,-49.750000
446,1320.000000,-45.750000
447,1255.000000,-42.750000
448,1150.000000,-37.250000
449,1065.000000,-34.250000
450,995.000000,-27.750000
451,905.000000,-45.250000
452,830.000000,-24.250000
453,735.000000,-17.250000
454,645.000000,-13.250000
455,565.000000,-5.750000
456,465.000000,-8.250000
457,380.000000,-5.250000
458,320.000000,1.250000
459,215.000000,3.750000
460,130.000000,7.750000
461,50.000000,9.250000
462,-65.000000,14.750000
463,-130.000000,20.750000
464,-225.000000,20.250000
465,-310.000000,27.250000
466,-420.000000,30.250000
467,-495.000000,33.250000
468,-565.000000,39.750000
469,-670.000000,42.750000
470,-760.000000,47.250000
471,-835.000000,52.750000
472,-935.000000,54.750000
473,-1020.000000,58.750000
474,-1095.000000,65.250000
475,-1190.000000,64.250000
476,-1285.000000,72.250000
477,-1390.000000,82.250000
478,-1450.000000,79.250000
479,-1555.000000,85.750000
480,-1630.000000,85.250000
481,-1720.000000,89.750000
482,-1825.000000,95.750000
483,-1920.000000,97.250000
484,-1995.000000,101.750000
485,-2075.000000,105.250000
486,-2175.000000,106.750000
487,-2250.000000,113.750000
488,-2345.000000,117.250000
489,-2430.000000,122.750000
490,-2495.000000,129.250000
491,-2600.000000,129.750000
492,-2690.000000,130.250000
493,-2765.000000,132.250000
494,-2855.000000,143.750000
495,-2955.000000,143.250000
496,-3010.000000,148.250000
497,-3100.000000,151.250000
498,-3195.000000,152.750000
499,-3295.000000,157.250000
500,-3350.000000,157.250000
501,-3415.000000,152.750000
502,-3485.000000,136.750000
503,-3520.000000,146.750000
504,-3555.000000,121.750000
505,-3605.000000,116.750000
506,-3625.000000,114.750000
507,-3630.000000,110.250000
508,-3650.000000,108.250000
509,-3635.000000,102.750000
510,-3660.000000,102.250000
511,-3680.000000,100.750000
512,-3670.000000,99.250000
513,-3690.000000,97.250000
514,-3685.000000,100.250000
515,-3695.000000,94.750000
516,-3700.000000,96.250000
517,-3690.000000,92.250000
518,-3700.000000,97.750000
519,-3700.000000,96.750000
520,-3680.000000,98.750000
521,-3680.000000,98.250000
522,-3695.000000,101.250000
523,-3670.000000,96.750000
524,-3675.000000,96.750000
525,-3670.000000,100.250000
526,-3685.000000,102.250000
527,-3675.000000,96.750000
528,-3680.000000,98.750000
529,-3665.000000,103.250000
530,-3680.000000,101.250000
531,-3665.000000,102.250000
532,-3655.000000,105.250000
533,-3665.000000,102.750000
534,-3655.000000,102.250000
535,-3650.000000,105.750000
536,-3645.000000,106.250000
537,-3650.000000,106.750000
538,-3625.000000,110.250000
539,-3640.000000,107.250000
540,-3615.000000,109.750000
541,-3615.000000,104.250000
542,-3615.000000,104.250000
543,-3610.000000,115.750000
544,-3600.000000,114.750000
545,-3610.000000,114.250000
546,-3595.000000,116.750000
547,-3585.000000,119.750000
548,-3580.000000,115.750000
549,-3580.000000,121.750000
550,-3560.000000,124.250000
551,-3550.000000,119.750000
552,-3550.000000,120.750000
553,-3550.000000,127.750000
554,-3550.000000,124.250000
555,-3525.000000,128.750000
556,-3530.000000,130.250000
557,-3520.000000,129.750000
558,-3510.000000,135.750000
559,-3505.000000,132.250000
560,-3480.000000,135.750000
561,-3480.000000,131.750000
562,-3490.000000,136.250000
563,-3475.000000,141.750000
564,-3485.000000,139.250000
565,-3475.000000,141.250000
566,-3440.000000,145.750000
567,-3450.000000,145.750000
568,-3430.000000,150.250000
569,-3440.000000,147.750000
570,-3425.000000,150.250000
571,-3420.000000,150.750000
572,-3405.000000,155.750000
573,-3390.000000,157.250000
574,-3370.000000,155.250000
575,-3380.000000,157.750000
576,-3370.000000,159.750000
577,-3360.000000,164.750000
578,-3350.000000,161.250000
579,-3365.000000,162.750000
580,-3360.000000,168.250000
581,-3340.000000,168.250000
582,-3335.000000,172.250000
583,-3320.000000,172.750000
584,-3295.000000,170.750000
585,-3310.000000,173.750000
586,-3300.000000,175.750000
587,-3285.000000,179.250000
588,-3265.000000,176.250000
589,-3285.000000,163.750000
590,-3245.000000,164.750000
591,-3210.000000,161.750000
592,-3195.000000,160.750000
593,-3155.000000,160.250000
594,-3135.000000,155.250000
595,-3085.000000,153.750000
596,-3090.000000,153.750000
597,-3035.000000,150.750000
598,-2995.000000,153.750000
599,-2970.000000,153.750000
600,-2920.000000,152.250000
601,-2900.000000,146.750000
602,-2845.000000,147.250000
603,-2800.000000,144.250000
604,-2745.000000,145.250000
605,-2700.000000,140.750000
606,-2665.000000,135.250000
607,-2615.000000,138.750000
608,-2585.000000,135.750000
609,-2510.000000,130.250000
610,-2475.000000,134.750000
611,-2410.000000,130.250000
612,-2375.000000,125.250000
613,-2300.000000,123.250000
614,-2285.000000,121.250000
615,-2220.000000,116.750000
616,-2165.000000,115.750000
617,-2110.000000,114.250000
618,-2035.000000,109.250000
619,-1990.000000,107.250000
620,-1910.000000,103.250000
621,-1865.000000,101.250000
622,-1800.000000,103.750000
623,-1750.000000,94.250000
624,-1680.000000,92.250000
625,-1615.000000,89.750000
626,-1540.000000,87.250000
627,-1485.000000,86.250000
628,-1405.000000,82.250000
629,-1345.000000,78.250000
630,-1270.000000,80.750000
631,-1190.000000,73.750000
632,-1145.000000,68.250000
633,-1070.000000,66.250000
634,-995.000000,66.250000
635,-925.000000,61.750000
636,-855.000000,56.750000
637,-780.000000,55.750000
638,-715.000000,51.750000
639,-620.000000,45.750000
640,-555.000000,43.250000
641,-480.000000,43.250000
642,-410.000000,38.750000
643,-330.000000,33.750000
644,-265.000000,32.750000
645,-185.000000,28.250000
646,-115.000000,28.250000
647,-50.000000,18.750000
648,30.000000,14.250000
649,135.000000,17.750000
650,195.000000,8.750000
651,270.000000,6.250000
652,360.000000,5.250000
653,420.000000,2.250000
654,510.000000,-3.250000
655,565.000000,-9.250000
656,685.000000,-6.750000
657,745.000000,-15.250000
658,830.000000,-16.750000
659,905.000000,-17.750000
660,990.000000,-23.250000
661,1060.000000,-24.250000
662,1130.000000,-27.250000
663,1215.000000,-34.250000
664,1275.000000,-34.250000
665,1370.000000,-39.750000
666,1450.000000,-46.250000
667,1510.000000,-45.750000
668,1605.000000,-50.250000
669,1680.000000,-50.250000
670,1765.000000,-57.750000
671,1820.000000,-60.250000
672,1900.000000,-64.750000
673,1975.000000,-71.750000
674,2060.000000,-71.250000
675,2125.000000,-73.250000
676,2200.000000,-79.750000
677,2270.000000,-79.250000
678,2335.000000,-83.750000
679,2420.000000,-85.250000
680,2480.000000,-89.250000
681,2555.000000,-92.250000
682,2655.000000,-94.250000
683,2710.000000,-100.250000
684,2775.000000,-101.250000
685,2855.000000,-101.750000
686,2945.000000,-105.750000
687,3000.000000,-111.250000
688,3065.000000,-112.750000
689,3125.000000,-117.750000
690,3200.000000,-116.750000
691,3265.000000,-121.750000
692,3325.000000,-127.750000
693,3395.000000,-137.250000
694,3445.000000,-127.750000
695,3520.000000,-139.750000
696,3595.000000,-130.750000
697,3660.000000,-137.750000
698,3695.000000,-147.250000
699,3755.000000,-143.750000
700,3820.000000,-142.750000
701,3895.000000,-150.250000
702,3945.000000,-153.250000
703,4010.000000,-154.750000
704,4060.000000,-157.250000
705,4110.000000,-160.250000
706,4160.000000,-163.750000
707,4220.000000,-164.750000
708,4250.000000,-169.750000
709,4315.000000,-171.750000
710,4365.000000,-172.750000
711,4420.000000,-173.250000
712,4455.000000,-178.750000
713,4520.000000,-179.250000
714,4575.000000,-180.750000
715,4595.000000,-184.750000
716,4650.000000,-185.750000
717,4690.000000,-186.750000
718,4730.000000,-189.750000
719,4780.000000,-193.250000
